APL/APL2-3/data/E3_day1_data/实验2/（二）-3-（c）/新建文件1.csv

X,CH1,CH3,Start,Increment,
Sequence,Volt,Volt,-1.200000e-01,2.000000e-04
0,-1.00e+00,1.76e+00,
1,-9.20e-01,1.84e+00,
2,-9.20e-01,1.76e+00,
3,-1.00e+00,1.92e+00,
4,-9.20e-01,1.92e+00,
5,-1.00e+00,1.76e+00,
6,-1.00e+00,1.92e+00,
7,-9.20e-01,1.84e+00,
8,-1.00e+00,1.84e+00,
9,-9.20e-01,1.92e+00,
10,-9.20e-01,1.84e+00,
11,-1.00e+00,2.00e+00,
12,-9.20e-01,2.00e+00,
13,-1.00e+00,1.92e+00,
14,-1.00e+00,1.92e+00,
15,-9.20e-01,2.08e+00,
16,-1.00e+00,2.08e+00,
17,-8.80e-01,1.92e+00,
18,-1.00e+00,2.00e+00,
19,-8.80e-01,2.08e+00,
20,-1.00e+00,2.00e+00,
21,-8.80e-01,2.08e+00,
22,-8.80e-01,2.00e+00,
23,-1.00e+00,2.16e+00,
24,-8.80e-01,2.16e+00,
25,-9.60e-01,2.00e+00,
26,-8.80e-01,2.08e+00,
27,-9.60e-01,2.16e+00,
28,-8.80e-01,2.08e+00,
29,-9.60e-01,2.24e+00,
30,-8.80e-01,2.24e+00,
31,-9.60e-01,2.08e+00,
32,-9.60e-01,2.24e+00,
33,-8.80e-01,2.16e+00,
34,-8.80e-01,2.16e+00,
35,-9.60e-01,2.24e+00,
36,-8.80e-01,2.16e+00,
37,-9.60e-01,2.32e+00,
38,-9.60e-01,2.32e+00,
39,-8.80e-01,2.16e+00,
40,-9.60e-01,2.32e+00,
41,-8.80e-01,2.24e+00,
42,-8.80e-01,2.32e+00,
43,-9.60e-01,2.24e+00,
44,-9.60e-01,2.24e+00,
45,-8.40e-01,2.40e+00,
46,-9.20e-01,2.40e+00,
47,-8.40e-01,2.24e+00,
48,-9.20e-01,2.40e+00,
49,-8.40e-01,2.32e+00,
50,-9.20e-01,2.40e+00,
51,-8.40e-01,2.32e+00,
52,-9.20e-01,2.40e+00,
53,-8.40e-01,2.32e+00,
54,-8.40e-01,2.32e+00,
55,-9.20e-01,2.48e+00,
56,-8.40e-01,2.32e+00,
57,-9.20e-01,2.48e+00,
58,-8.40e-01,2.48e+00,
59,-9.20e-01,2.40e+00,
60,-9.20e-01,2.48e+00,
61,-8.40e-01,2.40e+00,
62,-8.40e-01,2.48e+00,
63,-9.20e-01,2.40e+00,
64,-8.40e-01,2.40e+00,
65,-9.20e-01,2.56e+00,
66,-9.20e-01,2.40e+00,
67,-8.40e-01,2.56e+00,
68,-8.40e-01,2.56e+00,
69,-9.20e-01,2.40e+00,
70,-9.20e-01,2.56e+00,
71,-8.40e-01,2.48e+00,
72,-8.40e-01,2.56e+00,
73,-9.20e-01,2.48e+00,
74,-9.20e-01,2.56e+00,
75,-8.40e-01,2.48e+00,
76,-8.00e-01,2.72e+00,
77,-9.20e-01,2.48e+00,
78,-8.00e-01,2.64e+00,
79,-9.20e-01,2.72e+00,
80,-9.20e-01,2.64e+00,
81,-8.00e-01,2.72e+00,
82,-9.20e-01,2.64e+00,
83,3.20e-01,2.72e+00,
84,2.40e-01,2.72e+00,
85,5.20e-01,2.56e+00,
86,4.80e-01,2.72e+00,
87,6.00e-01,2.48e+00,
88,5.20e-01,2.56e+00,
89,7.20e-01,2.24e+00,
90,6.40e-01,2.32e+00,
91,7.60e-01,2.00e+00,
92,6.80e-01,2.08e+00,
93,8.00e-01,1.60e+00,
94,7.60e-01,1.68e+00,
95,8.80e-01,9.60e-01,
96,8.00e-01,9.60e-01,
97,9.20e-01,0.00e+00,
98,8.40e-01,8.00e-02,
99,9.60e-01,-1.04e+00,
100,9.20e-01,-9.60e-01,
101,1.04e+00,-2.00e+00,
102,1.04e+00,-2.00e+00,
103,9.60e-01,-2.72e+00,
104,1.00e+00,-2.64e+00,
105,1.08e+00,-3.04e+00,
106,1.04e+00,-3.04e+00,
107,1.12e+00,-3.28e+00,
108,1.04e+00,-3.20e+00,
109,1.16e+00,-3.36e+00,
110,1.16e+00,-3.36e+00,
111,1.08e+00,-3.28e+00,
112,1.08e+00,-3.36e+00,
113,1.20e+00,-3.20e+00,
114,1.20e+00,-3.36e+00,
115,1.12e+00,-3.20e+00,
116,1.12e+00,-3.28e+00,
117,1.20e+00,-3.12e+00,
118,1.12e+00,-3.20e+00,
119,1.24e+00,-3.12e+00,
120,1.24e+00,-3.20e+00,
121,1.16e+00,-3.04e+00,
122,1.24e+00,-3.04e+00,
123,1.16e+00,-2.88e+00,
124,1.24e+00,-2.96e+00,
125,1.16e+00,-2.80e+00,
126,1.24e+00,-2.96e+00,
127,1.16e+00,-2.80e+00,
128,1.24e+00,-2.88e+00,
129,1.16e+00,-2.72e+00,
130,1.16e+00,-2.80e+00,
131,1.24e+00,-2.64e+00,
132,1.24e+00,-2.72e+00,
133,1.16e+00,-2.56e+00,
134,1.24e+00,-2.56e+00,
135,1.16e+00,-2.72e+00,
136,1.24e+00,-2.64e+00,
137,1.16e+00,-2.48e+00,
138,1.24e+00,-2.56e+00,
139,1.16e+00,-2.40e+00,
140,1.24e+00,-2.48e+00,
141,1.12e+00,-2.40e+00,
142,1.20e+00,-2.48e+00,
143,1.12e+00,-2.32e+00,
144,1.12e+00,-2.40e+00,
145,1.20e+00,-2.24e+00,
146,1.12e+00,-2.32e+00,
147,1.20e+00,-2.16e+00,
148,1.20e+00,-2.16e+00,
149,1.12e+00,-2.24e+00,
150,1.20e+00,-2.24e+00,
151,1.12e+00,-2.08e+00,
152,1.20e+00,-2.08e+00,
153,1.12e+00,-2.16e+00,
154,1.20e+00,-2.00e+00,
155,1.12e+00,-2.16e+00,
156,1.20e+00,-2.08e+00,
157,1.08e+00,-1.92e+00,
158,1.16e+00,-1.92e+00,
159,1.08e+00,-1.84e+00,
160,1.16e+00,-1.92e+00,
161,1.08e+00,-1.76e+00,
162,1.16e+00,-1.84e+00,
163,1.08e+00,-1.68e+00,
164,1.16e+00,-1.76e+00,
165,1.08e+00,-1.60e+00,
166,1.16e+00,-1.68e+00,
167,1.08e+00,-1.60e+00,
168,1.16e+00,-1.68e+00,
169,1.08e+00,-1.52e+00,
170,1.08e+00,-1.60e+00,
171,1.16e+00,-1.44e+00,
172,1.16e+00,-1.52e+00,
173,1.08e+00,-1.44e+00,
174,1.04e+00,-1.52e+00,
175,1.16e+00,-1.36e+00,
176,1.04e+00,-1.44e+00,
177,1.16e+00,-1.36e+00,
178,1.04e+00,-1.44e+00,
179,1.12e+00,-1.28e+00,
180,1.12e+00,-1.36e+00,
181,1.04e+00,-1.20e+00,
182,1.04e+00,-1.36e+00,
183,1.12e+00,-1.20e+00,
184,1.12e+00,-1.28e+00,
185,1.04e+00,-1.12e+00,
186,1.04e+00,-1.20e+00,
187,1.12e+00,-1.12e+00,
188,1.12e+00,-1.20e+00,
189,1.04e+00,-1.04e+00,
190,1.12e+00,-1.04e+00,
191,1.04e+00,-1.12e+00,
192,1.04e+00,-1.12e+00,
193,1.12e+00,-9.60e-01,
194,1.12e+00,-1.04e+00,
195,1.04e+00,-8.80e-01,
196,1.12e+00,-8.80e-01,
197,1.04e+00,-1.04e+00,
198,1.12e+00,-9.60e-01,
199,1.00e+00,-8.00e-01,
200,1.08e+00,-8.00e-01,
201,1.00e+00,-8.00e-01,
202,1.08e+00,-8.80e-01,
203,1.00e+00,-7.20e-01,
204,1.08e+00,-8.00e-01,
205,1.00e+00,-6.40e-01,
206,1.08e+00,-7.20e-01,
207,1.00e+00,-5.60e-01,
208,1.00e+00,-6.40e-01,
209,1.08e+00,-5.60e-01,
210,1.08e+00,-6.40e-01,
211,1.00e+00,-4.80e-01,
212,1.08e+00,-4.80e-01,
213,1.00e+00,-5.60e-01,
214,1.08e+00,-5.60e-01,
215,1.00e+00,-4.00e-01,
216,1.00e+00,-5.60e-01,
217,1.08e+00,-4.00e-01,
218,1.08e+00,-4.80e-01,
219,1.00e+00,-3.20e-01,
220,1.08e+00,-4.00e-01,
221,1.00e+00,-3.20e-01,
222,1.08e+00,-4.00e-01,
223,9.60e-01,-2.40e-01,
224,9.60e-01,-2.40e-01,
225,1.08e+00,-3.20e-01,
226,9.60e-01,-3.20e-01,
227,1.04e+00,-1.60e-01,
228,9.60e-01,-3.20e-01,
229,1.04e+00,-1.60e-01,
230,9.60e-01,-2.40e-01,
231,1.04e+00,-8.00e-02,
232,9.60e-01,-8.00e-02,
233,1.04e+00,-1.60e-01,
234,9.60e-01,-1.60e-01,
235,1.04e+00,-8.00e-02,
236,9.60e-01,-1.60e-01,
237,1.04e+00,0.00e+00,
238,9.60e-01,-8.00e-02,
239,1.04e+00,0.00e+00,
240,9.60e-01,-8.00e-02,
241,1.04e+00,8.00e-02,
242,9.60e-01,0.00e+00,
243,1.04e+00,8.00e-02,
244,1.04e+00,0.00e+00,
245,9.60e-01,1.60e-01,
246,9.60e-01,1.60e-01,
247,1.04e+00,0.00e+00,
248,1.04e+00,1.60e-01,
249,9.60e-01,8.00e-02,
250,1.04e+00,8.00e-02,
251,9.60e-01,2.40e-01,
252,9.60e-01,2.40e-01,
253,1.04e+00,1.60e-01,
254,1.00e+00,1.60e-01,
255,9.20e-01,3.20e-01,
256,9.20e-01,3.20e-01,
257,1.04e+00,1.60e-01,
258,9.20e-01,3.20e-01,
259,1.00e+00,2.40e-01,
260,1.00e+00,3.20e-01,
261,9.20e-01,2.40e-01,
262,9.20e-01,3.20e-01,
263,1.00e+00,4.80e-01,
264,1.00e+00,4.00e-01,
265,9.20e-01,4.80e-01,
266,1.00e+00,4.00e-01,
267,9.20e-01,4.80e-01,
268,1.00e+00,4.00e-01,
269,9.20e-01,5.60e-01,
270,1.00e+00,4.80e-01,
271,9.20e-01,5.60e-01,
272,1.00e+00,4.80e-01,
273,9.20e-01,6.40e-01,
274,1.00e+00,6.40e-01,
275,9.20e-01,4.80e-01,
276,1.00e+00,5.60e-01,
277,9.20e-01,6.40e-01,
278,1.00e+00,5.60e-01,
279,9.20e-01,6.40e-01,
280,8.80e-01,5.60e-01,
281,1.00e+00,7.20e-01,
282,8.80e-01,6.40e-01,
283,9.60e-01,7.20e-01,
284,9.60e-01,6.40e-01,
285,8.80e-01,7.20e-01,
286,9.60e-01,7.20e-01,
287,8.80e-01,6.40e-01,
288,8.80e-01,6.40e-01,
289,9.60e-01,8.00e-01,
290,8.80e-01,6.40e-01,
291,9.60e-01,8.00e-01,
292,9.60e-01,8.00e-01,
293,8.80e-01,7.20e-01,
294,9.60e-01,7.20e-01,
295,8.80e-01,8.00e-01,
296,9.60e-01,7.20e-01,
297,8.80e-01,8.80e-01,
298,8.80e-01,7.20e-01,
299,9.60e-01,8.80e-01,
300,9.60e-01,8.80e-01,
301,8.80e-01,8.00e-01,
302,8.80e-01,8.00e-01,
303,9.60e-01,8.80e-01,
304,8.80e-01,8.00e-01,
305,9.60e-01,9.60e-01,
306,9.60e-01,8.80e-01,
307,8.80e-01,9.60e-01,
308,8.80e-01,8.80e-01,
309,9.60e-01,9.60e-01,
310,9.60e-01,9.60e-01,
311,8.40e-01,8.80e-01,
312,8.40e-01,8.80e-01,
313,9.60e-01,9.60e-01,
314,9.20e-01,8.80e-01,
315,8.40e-01,1.04e+00,
316,8.40e-01,9.60e-01,
317,9.60e-01,1.04e+00,
318,8.40e-01,1.04e+00,
319,9.20e-01,9.60e-01,
320,8.40e-01,1.04e+00,
321,9.20e-01,9.60e-01,
322,8.40e-01,9.60e-01,
323,9.20e-01,1.12e+00,
324,9.20e-01,9.60e-01,
325,8.40e-01,1.12e+00,
326,8.40e-01,1.12e+00,
327,9.20e-01,1.04e+00,
328,8.40e-01,1.04e+00,
329,9.20e-01,1.12e+00,
330,8.40e-01,1.12e+00,
331,9.20e-01,1.04e+00,
332,8.40e-01,1.04e+00,
333,9.20e-01,1.20e+00,
334,8.40e-01,1.04e+00,
335,9.20e-01,1.20e+00,
336,8.40e-01,1.04e+00,
337,9.20e-01,1.20e+00,
338,9.20e-01,1.20e+00,
339,8.40e-01,1.12e+00,
340,9.20e-01,1.20e+00,
341,-1.60e-01,1.12e+00,
342,-1.60e-01,1.12e+00,
343,-5.20e-01,1.28e+00,
344,-4.80e-01,1.20e+00,
345,-6.00e-01,9.60e-01,
346,-5.20e-01,1.12e+00,
347,-6.40e-01,7.20e-01,
348,-6.00e-01,8.00e-01,
349,-7.60e-01,1.60e-01,
350,-6.80e-01,2.40e-01,
351,-8.00e-01,-5.60e-01,
352,-7.60e-01,-4.80e-01,
353,-8.80e-01,-1.52e+00,
354,-8.00e-01,-1.44e+00,
355,-9.20e-01,-2.40e+00,
356,-8.40e-01,-2.24e+00,
357,-9.60e-01,-2.80e+00,
358,-9.20e-01,-2.72e+00,
359,-1.00e+00,-3.04e+00,
360,-9.60e-01,-3.04e+00,
361,-1.04e+00,-2.96e+00,
362,-9.60e-01,-3.04e+00,
363,-1.08e+00,-2.96e+00,
364,-1.00e+00,-3.04e+00,
365,-1.12e+00,-2.88e+00,
366,-1.04e+00,-2.96e+00,
367,-1.16e+00,-2.80e+00,
368,-1.16e+00,-2.88e+00,
369,-1.08e+00,-2.72e+00,
370,-1.08e+00,-2.80e+00,
371,-1.20e+00,-2.64e+00,
372,-1.20e+00,-2.72e+00,
373,-1.12e+00,-2.56e+00,
374,-1.20e+00,-2.64e+00,
375,-1.12e+00,-2.48e+00,
376,-1.20e+00,-2.56e+00,
377,-1.12e+00,-2.40e+00,
378,-1.16e+00,-2.48e+00,
379,-1.24e+00,-2.32e+00,
380,-1.16e+00,-2.40e+00,
381,-1.24e+00,-2.24e+00,
382,-1.24e+00,-2.32e+00,
383,-1.16e+00,-2.16e+00,
384,-1.24e+00,-2.24e+00,
385,-1.16e+00,-2.08e+00,
386,-1.24e+00,-2.16e+00,
387,-1.16e+00,-2.00e+00,
388,-1.24e+00,-2.08e+00,
389,-1.16e+00,-1.92e+00,
390,-1.24e+00,-1.92e+00,
391,-1.16e+00,-1.76e+00,
392,-1.24e+00,-1.84e+00,
393,-1.16e+00,-1.68e+00,
394,-1.16e+00,-1.76e+00,
395,-1.24e+00,-1.60e+00,
396,-1.24e+00,-1.68e+00,
397,-1.12e+00,-1.52e+00,
398,-1.12e+00,-1.60e+00,
399,-1.24e+00,-1.44e+00,
400,-1.12e+00,-1.52e+00,
401,-1.20e+00,-1.36e+00,
402,-1.20e+00,-1.44e+00,
403,-1.12e+00,-1.28e+00,
404,-1.20e+00,-1.36e+00,
405,-1.12e+00,-1.20e+00,
406,-1.20e+00,-1.28e+00,
407,-1.12e+00,-1.20e+00,
408,-1.20e+00,-1.28e+00,
409,-1.12e+00,-1.12e+00,
410,-1.20e+00,-1.20e+00,
411,-1.12e+00,-1.04e+00,
412,-1.16e+00,-1.12e+00,
413,-1.08e+00,-9.60e-01,
414,-1.16e+00,-1.04e+00,
415,-1.08e+00,-8.80e-01,
416,-1.08e+00,-9.60e-01,
417,-1.16e+00,-8.00e-01,
418,-1.08e+00,-8.80e-01,
419,-1.16e+00,-6.40e-01,
420,-1.16e+00,-7.20e-01,
421,-1.08e+00,-6.40e-01,
422,-1.16e+00,-7.20e-01,
423,-1.08e+00,-5.60e-01,
424,-1.16e+00,-6.40e-01,
425,-1.08e+00,-4.80e-01,
426,-1.16e+00,-5.60e-01,
427,-1.08e+00,-4.00e-01,
428,-1.16e+00,-4.80e-01,
429,-1.04e+00,-3.20e-01,
430,-1.12e+00,-4.00e-01,
431,-1.04e+00,-2.40e-01,
432,-1.12e+00,-4.00e-01,
433,-1.04e+00,-2.40e-01,
434,-1.04e+00,-3.20e-01,
435,-1.12e+00,-1.60e-01,
436,-1.04e+00,-2.40e-01,
437,-1.12e+00,-8.00e-02,
438,-1.04e+00,-8.00e-02,
439,-1.12e+00,-1.60e-01,
440,-1.04e+00,-1.60e-01,
441,-1.12e+00,0.00e+00,
442,-1.04e+00,-8.00e-02,
443,-1.12e+00,8.00e-02,
444,-1.04e+00,8.00e-02,
445,-1.12e+00,0.00e+00,
446,-1.12e+00,0.00e+00,
447,-1.04e+00,1.60e-01,
448,-1.12e+00,8.00e-02,
449,-1.04e+00,2.40e-01,
450,-1.12e+00,1.60e-01,
451,-1.04e+00,3.20e-01,
452,-1.12e+00,3.20e-01,
453,-1.00e+00,3.20e-01,
454,-1.00e+00,2.40e-01,
455,-1.12e+00,4.80e-01,
456,-1.00e+00,4.00e-01,
457,-1.08e+00,5.60e-01,
458,-1.00e+00,4.80e-01,
459,-1.08e+00,5.60e-01,
460,-1.00e+00,4.80e-01,
461,-1.08e+00,6.40e-01,
462,-1.00e+00,5.60e-01,
463,-1.08e+00,7.20e-01,
464,-1.00e+00,5.60e-01,
465,-1.08e+00,7.20e-01,
466,-1.00e+00,6.40e-01,
467,-1.08e+00,8.00e-01,
468,-1.08e+00,7.20e-01,
469,-1.00e+00,8.00e-01,
470,-1.08e+00,7.20e-01,
471,-1.00e+00,8.80e-01,
472,-1.08e+00,8.00e-01,
473,-1.00e+00,9.60e-01,
474,-1.00e+00,9.60e-01,
475,-1.08e+00,8.00e-01,
476,-1.08e+00,8.80e-01,
477,-9.60e-01,1.04e+00,
478,-9.60e-01,1.04e+00,
479,-1.08e+00,9.60e-01,
480,-1.04e+00,9.60e-01,
481,-9.60e-01,1.12e+00,
482,-1.04e+00,1.12e+00,
483,-9.60e-01,1.04e+00,
484,-9.60e-01,1.04e+00,
485,-1.04e+00,1.20e+00,
486,-9.60e-01,1.20e+00,
487,-1.04e+00,1.12e+00,
488,-9.60e-01,1.12e+00,
489,-1.04e+00,1.28e+00,
490,-9.60e-01,1.28e+00,
491,-1.04e+00,1.20e+00,
492,-1.04e+00,1.36e+00,
493,-9.60e-01,1.20e+00,
494,-9.60e-01,1.36e+00,
495,-1.04e+00,1.28e+00,
496,-1.04e+00,1.28e+00,
497,-9.60e-01,1.44e+00,
498,-9.60e-01,1.44e+00,
499,-1.04e+00,1.36e+00,
500,-9.60e-01,1.44e+00,
501,-1.04e+00,1.36e+00,
502,-1.04e+00,1.36e+00,
503,-9.60e-01,1.60e+00,
504,-1.04e+00,1.52e+00,
505,-9.60e-01,1.60e+00,
506,-9.60e-01,1.52e+00,
507,-1.04e+00,1.68e+00,
508,-1.04e+00,1.52e+00,
509,-9.20e-01,1.68e+00,
510,-1.00e+00,1.60e+00,
511,-9.20e-01,1.76e+00,
512,-1.00e+00,1.60e+00,
513,-9.20e-01,1.76e+00,
514,-9.20e-01,1.68e+00,
515,-1.00e+00,1.84e+00,
516,-9.20e-01,1.68e+00,
517,-1.00e+00,1.84e+00,
518,-9.20e-01,1.76e+00,
519,-1.00e+00,1.84e+00,
520,-9.20e-01,1.76e+00,
521,-1.00e+00,1.92e+00,
522,-1.00e+00,1.92e+00,
523,-9.20e-01,1.76e+00,
524,-1.00e+00,1.92e+00,
525,-9.20e-01,1.84e+00,
526,-1.00e+00,1.84e+00,
527,-9.20e-01,2.00e+00,
528,-1.00e+00,2.00e+00,
529,-9.20e-01,1.84e+00,
530,-9.20e-01,1.92e+00,
531,-1.00e+00,2.00e+00,
532,-9.20e-01,1.92e+00,
533,-1.00e+00,2.08e+00,
534,-8.80e-01,2.00e+00,
535,-1.00e+00,2.08e+00,
536,-9.60e-01,2.00e+00,
537,-8.80e-01,2.08e+00,
538,-8.80e-01,2.08e+00,
539,-9.60e-01,2.00e+00,
540,-9.60e-01,2.00e+00,
541,-8.80e-01,2.16e+00,
542,-8.80e-01,2.08e+00,
543,-9.60e-01,2.16e+00,
544,-8.80e-01,2.16e+00,
545,-9.60e-01,2.08e+00,
546,-9.60e-01,2.08e+00,
547,-8.80e-01,2.24e+00,
548,-8.80e-01,2.24e+00,
549,-9.60e-01,2.16e+00,
550,-8.80e-01,2.16e+00,
551,-9.60e-01,2.24e+00,
552,-9.60e-01,2.24e+00,
553,-8.80e-01,2.16e+00,
554,-9.60e-01,2.16e+00,
555,-8.80e-01,2.32e+00,
556,-9.60e-01,2.32e+00,
557,-8.80e-01,2.24e+00,
558,-9.60e-01,2.32e+00,
559,-8.80e-01,2.24e+00,
560,-8.80e-01,2.32e+00,
561,-9.60e-01,2.24e+00,
562,-9.60e-01,2.24e+00,
563,-8.40e-01,2.40e+00,
564,-9.20e-01,2.40e+00,
565,-8.40e-01,2.24e+00,
566,-8.40e-01,2.40e+00,
567,-9.60e-01,2.24e+00,
568,-9.20e-01,2.40e+00,
569,-8.40e-01,2.32e+00,
570,-8.40e-01,2.32e+00,
571,-9.20e-01,2.48e+00,
572,-8.40e-01,2.48e+00,
573,-9.20e-01,2.32e+00,
574,-9.20e-01,2.48e+00,
575,-8.40e-01,2.40e+00,
576,-8.40e-01,2.48e+00,
577,-9.20e-01,2.40e+00,
578,-8.40e-01,2.48e+00,
579,-9.20e-01,2.40e+00,
580,-8.40e-01,2.40e+00,
581,-9.20e-01,2.56e+00,
582,-8.40e-01,2.56e+00,
583,-9.20e-01,2.40e+00,
584,-9.20e-01,2.56e+00,
585,-8.40e-01,2.48e+00,
586,-8.40e-01,2.56e+00,
587,-9.20e-01,2.48e+00,
588,-9.20e-01,2.48e+00,
589,-8.40e-01,2.72e+00,
590,-9.20e-01,2.72e+00,
591,-8.40e-01,2.48e+00,
592,-8.40e-01,2.48e+00,
593,-9.20e-01,2.72e+00,
594,-8.80e-01,2.64e+00,
595,-8.00e-01,2.72e+00,
596,-8.80e-01,2.64e+00,
597,-8.00e-01,2.72e+00,
598,-8.80e-01,2.64e+00,
599,2.40e-01,2.72e+00,
600,2.00e-01,2.64e+00,
601,5.20e-01,2.72e+00,
602,4.80e-01,2.64e+00,
603,6.00e-01,2.48e+00,
604,5.20e-01,2.56e+00,
605,6.80e-01,2.32e+00,
606,6.40e-01,2.40e+00,
607,7.60e-01,2.08e+00,
608,6.80e-01,2.16e+00,
609,8.00e-01,1.60e+00,
610,7.20e-01,1.68e+00,
611,8.80e-01,9.60e-01,
612,8.00e-01,1.04e+00,
613,9.20e-01,1.60e-01,
614,8.40e-01,1.60e-01,
615,9.60e-01,-9.60e-01,
616,8.80e-01,-8.80e-01,
617,1.00e+00,-1.92e+00,
618,9.60e-01,-1.92e+00,
619,1.04e+00,-2.64e+00,
620,9.60e-01,-2.56e+00,
621,1.08e+00,-3.04e+00,
622,1.00e+00,-2.96e+00,
623,1.12e+00,-3.28e+00,
624,1.04e+00,-3.20e+00,
625,1.16e+00,-3.36e+00,
626,1.16e+00,-3.28e+00,
627,1.08e+00,-3.36e+00,
628,1.08e+00,-3.28e+00,
629,1.20e+00,-3.36e+00,
630,1.20e+00,-3.36e+00,
631,1.12e+00,-3.20e+00,
632,1.20e+00,-3.20e+00,
633,1.12e+00,-3.28e+00,
634,1.12e+00,-3.28e+00,
635,1.24e+00,-3.12e+00,
636,1.24e+00,-3.20e+00,
637,1.16e+00,-3.04e+00,
638,1.24e+00,-3.04e+00,
639,1.16e+00,-2.96e+00,
640,1.24e+00,-3.04e+00,
641,1.16e+00,-2.88e+00,
642,1.24e+00,-2.96e+00,
643,1.16e+00,-2.80e+00,
644,1.24e+00,-2.88e+00,
645,1.16e+00,-2.72e+00,
646,1.24e+00,-2.80e+00,
647,1.16e+00,-2.64e+00,
648,1.24e+00,-2.64e+00,
649,1.16e+00,-2.72e+00,
650,1.24e+00,-2.72e+00,
651,1.16e+00,-2.56e+00,
652,1.24e+00,-2.64e+00,
653,1.16e+00,-2.48e+00,
654,1.24e+00,-2.56e+00,
655,1.16e+00,-2.40e+00,
656,1.24e+00,-2.48e+00,
657,1.16e+00,-2.32e+00,
658,1.20e+00,-2.32e+00,
659,1.12e+00,-2.48e+00,
660,1.20e+00,-2.40e+00,
661,1.12e+00,-2.24e+00,
662,1.20e+00,-2.32e+00,
663,1.12e+00,-2.16e+00,
664,1.12e+00,-2.32e+00,
665,1.20e+00,-2.16e+00,
666,1.20e+00,-2.24e+00,
667,1.12e+00,-2.08e+00,
668,1.12e+00,-2.16e+00,
669,1.20e+00,-2.00e+00,
670,1.20e+00,-2.00e+00,
671,1.12e+00,-2.16e+00,
672,1.20e+00,-2.08e+00,
673,1.08e+00,-1.92e+00,
674,1.20e+00,-1.92e+00,
675,1.08e+00,-1.84e+00,
676,1.08e+00,-1.76e+00,
677,1.20e+00,-1.92e+00,
678,1.08e+00,-1.84e+00,
679,1.16e+00,-1.68e+00,
680,1.16e+00,-1.76e+00,
681,1.08e+00,-1.60e+00,
682,1.16e+00,-1.68e+00,
683,1.08e+00,-1.60e+00,
684,1.08e+00,-1.68e+00,
685,1.16e+00,-1.52e+00,
686,1.16e+00,-1.60e+00,
687,1.08e+00,-1.44e+00,
688,1.16e+00,-1.44e+00,
689,1.08e+00,-1.52e+00,
690,1.16e+00,-1.52e+00,
691,1.04e+00,-1.36e+00,
692,1.12e+00,-1.44e+00,
693,1.04e+00,-1.36e+00,
694,1.12e+00,-1.44e+00,
695,1.04e+00,-1.28e+00,
696,1.12e+00,-1.36e+00,
697,1.04e+00,-1.20e+00,
698,1.12e+00,-1.20e+00,
699,1.04e+00,-1.28e+00,
700,1.12e+00,-1.28e+00,
701,1.04e+00,-1.12e+00,
702,1.12e+00,-1.20e+00,
703,1.04e+00,-1.04e+00,
704,1.12e+00,-1.04e+00,
705,1.04e+00,-1.20e+00,
706,1.12e+00,-1.12e+00,
707,1.04e+00,-9.60e-01,
708,1.12e+00,-1.04e+00,
709,1.04e+00,-9.60e-01,
710,1.04e+00,-1.04e+00,
711,1.12e+00,-8.80e-01,
712,1.12e+00,-8.80e-01,
713,1.00e+00,-9.60e-01,
714,1.12e+00,-9.60e-01,
715,1.00e+00,-8.00e-01,
716,1.08e+00,-8.00e-01,
717,1.00e+00,-8.80e-01,
718,1.08e+00,-8.80e-01,
719,1.00e+00,-6.40e-01,
720,1.00e+00,-7.20e-01,
721,1.08e+00,-6.40e-01,
722,1.08e+00,-7.20e-01,
723,1.00e+00,-5.60e-01,
724,1.00e+00,-6.40e-01,
725,1.08e+00,-5.60e-01,
726,1.08e+00,-6.40e-01,
727,1.00e+00,-4.80e-01,
728,1.08e+00,-5.60e-01,
729,1.00e+00,-4.80e-01,
730,1.08e+00,-5.60e-01,
731,1.00e+00,-4.00e-01,
732,1.00e+00,-4.80e-01,
733,1.08e+00,-3.20e-01,
734,1.08e+00,-3.20e-01,
735,1.00e+00,-4.80e-01,
736,1.08e+00,-4.00e-01,
737,1.00e+00,-3.20e-01,
738,1.08e+00,-4.00e-01,
739,9.60e-01,-2.40e-01,
740,1.00e+00,-2.40e-01,
741,1.08e+00,-3.20e-01,
742,1.04e+00,-3.20e-01,
743,9.60e-01,-1.60e-01,
744,9.60e-01,-2.40e-01,
745,1.08e+00,-1.60e-01,
746,9.60e-01,-2.40e-01,
747,1.04e+00,-8.00e-02,
748,9.60e-01,-1.60e-01,
749,1.04e+00,-8.00e-02,
750,9.60e-01,-1.60e-01,
751,1.04e+00,0.00e+00,
752,9.60e-01,0.00e+00,
753,1.04e+00,-1.60e-01,
754,1.04e+00,-8.00e-02,
755,9.60e-01,0.00e+00,
756,1.04e+00,-8.00e-02,
757,9.60e-01,8.00e-02,
758,1.04e+00,0.00e+00,
759,9.60e-01,8.00e-02,
760,9.60e-01,8.00e-02,
761,1.04e+00,0.00e+00,
762,1.04e+00,1.60e-01,
763,9.60e-01,0.00e+00,
764,1.04e+00,1.60e-01,
765,9.60e-01,8.00e-02,
766,9.60e-01,8.00e-02,
767,1.04e+00,2.40e-01,
768,1.04e+00,2.40e-01,
769,9.60e-01,1.60e-01,
770,9.20e-01,2.40e-01,
771,1.04e+00,1.60e-01,
772,9.20e-01,1.60e-01,
773,1.00e+00,3.20e-01,
774,1.00e+00,3.20e-01,
775,9.20e-01,2.40e-01,
776,1.00e+00,3.20e-01,
777,9.20e-01,4.80e-01,
778,1.00e+00,3.20e-01,
779,9.20e-01,4.80e-01,
780,1.00e+00,4.80e-01,
781,9.20e-01,4.00e-01,
782,1.00e+00,4.00e-01,
783,9.20e-01,5.60e-01,
784,1.00e+00,4.80e-01,
785,9.20e-01,5.60e-01,
786,1.00e+00,4.80e-01,
787,9.20e-01,5.60e-01,
788,1.00e+00,4.80e-01,
789,9.20e-01,6.40e-01,
790,1.00e+00,5.60e-01,
791,9.20e-01,6.40e-01,
792,1.00e+00,5.60e-01,
793,9.20e-01,6.40e-01,
794,1.00e+00,5.60e-01,
795,8.80e-01,6.40e-01,
796,9.60e-01,5.60e-01,
797,8.80e-01,7.20e-01,
798,9.60e-01,5.60e-01,
799,8.80e-01,7.20e-01,
800,9.60e-01,7.20e-01,
801,8.80e-01,6.40e-01,
802,9.60e-01,6.40e-01,
803,8.80e-01,8.00e-01,
804,8.80e-01,8.00e-01,
805,9.60e-01,7.20e-01,
806,9.60e-01,7.20e-01,
807,8.80e-01,8.00e-01,
808,8.80e-01,7.20e-01,
809,9.60e-01,8.00e-01,
810,8.80e-01,7.20e-01,
811,9.60e-01,8.80e-01,
812,8.80e-01,8.80e-01,
813,9.60e-01,7.20e-01,
814,8.80e-01,8.00e-01,
815,9.60e-01,8.80e-01,
816,8.80e-01,8.80e-01,
817,9.60e-01,8.00e-01,
818,8.80e-01,8.00e-01,
819,9.60e-01,9.60e-01,
820,9.60e-01,9.60e-01,
821,8.80e-01,8.00e-01,
822,8.80e-01,9.60e-01,
823,9.60e-01,8.80e-01,
824,9.60e-01,8.80e-01,
825,8.80e-01,9.60e-01,
826,9.60e-01,8.80e-01,
827,8.40e-01,1.04e+00,
828,8.40e-01,1.04e+00,
829,9.60e-01,8.80e-01,
830,8.40e-01,9.60e-01,
831,9.20e-01,1.04e+00,
832,9.20e-01,1.04e+00,
833,8.40e-01,9.60e-01,
834,8.40e-01,9.60e-01,
835,9.20e-01,1.12e+00,
836,9.20e-01,9.60e-01,
837,8.40e-01,1.12e+00,
838,8.40e-01,1.12e+00,
839,9.20e-01,1.04e+00,
