APL/APL2-3/data/丰度TaLEs/新建文件2.csv

X,CH1,CH3,Start,Increment,
Sequence,Volt,Volt,2.320000e-01,5.000000e-04
0,-8.40e-02,1.92e+00,
1,-6.00e-02,2.00e+00,
2,-6.40e-02,2.00e+00,
3,-8.80e-02,1.84e+00,
4,-8.80e-02,2.00e+00,
5,-6.40e-02,1.84e+00,
6,-6.80e-02,1.84e+00,
7,-8.80e-02,2.00e+00,
8,-6.80e-02,1.84e+00,
9,-8.80e-02,1.92e+00,
10,-6.80e-02,1.92e+00,
11,-9.20e-02,1.84e+00,
12,-9.20e-02,1.84e+00,
13,-7.20e-02,1.92e+00,
14,-7.20e-02,1.92e+00,
15,-9.20e-02,1.76e+00,
16,-7.20e-02,1.76e+00,
17,-9.20e-02,1.92e+00,
18,-7.20e-02,1.76e+00,
19,-1.00e-01,1.84e+00,
20,-7.20e-02,1.76e+00,
21,-9.60e-02,1.84e+00,
22,-9.60e-02,1.84e+00,
23,-7.60e-02,1.68e+00,
24,-7.60e-02,1.84e+00,
25,-9.60e-02,1.68e+00,
26,-7.60e-02,1.68e+00,
27,-9.60e-02,1.84e+00,
28,-7.60e-02,1.68e+00,
29,-9.60e-02,1.76e+00,
30,-1.00e-01,1.76e+00,
31,-7.60e-02,1.60e+00,
32,-1.04e-01,1.76e+00,
33,-6.80e-02,1.60e+00,
34,-1.00e-01,1.60e+00,
35,-8.00e-02,1.76e+00,
36,-8.00e-02,1.60e+00,
37,-1.00e-01,1.68e+00,
38,-8.00e-02,1.60e+00,
39,-1.00e-01,1.68e+00,
40,-8.00e-02,1.60e+00,
41,-1.08e-01,1.68e+00,
42,-8.00e-02,1.68e+00,
43,-1.04e-01,1.44e+00,
44,-1.04e-01,1.44e+00,
45,-8.40e-02,1.60e+00,
46,-8.40e-02,1.68e+00,
47,-1.20e-01,1.44e+00,
48,-1.04e-01,1.52e+00,
49,-8.40e-02,1.36e+00,
50,-1.04e-01,1.52e+00,
51,-8.00e-02,1.36e+00,
52,-8.40e-02,1.36e+00,
53,-1.04e-01,1.52e+00,
54,-1.04e-01,1.36e+00,
55,-8.40e-02,1.52e+00,
56,-1.04e-01,1.44e+00,
57,-8.00e-02,1.36e+00,
58,-8.00e-02,1.44e+00,
59,-1.04e-01,1.28e+00,
60,-1.00e-01,1.44e+00,
61,-7.60e-02,1.28e+00,
62,-1.00e-01,1.36e+00,
63,-7.60e-02,1.28e+00,
64,-7.60e-02,1.36e+00,
65,-1.00e-01,1.28e+00,
66,-9.60e-02,1.36e+00,
67,-7.20e-02,1.20e+00,
68,-9.20e-02,1.36e+00,
69,-7.20e-02,1.20e+00,
70,-9.20e-02,1.28e+00,
71,-6.80e-02,1.20e+00,
72,-8.80e-02,1.28e+00,
73,-6.80e-02,1.20e+00,
74,-8.80e-02,1.28e+00,
75,-6.00e-02,1.12e+00,
76,-5.20e-02,1.28e+00,
77,-1.04e-01,1.12e+00,
78,-8.40e-02,1.12e+00,
79,-6.00e-02,1.28e+00,
80,-8.40e-02,1.20e+00,
81,-5.60e-02,1.12e+00,
82,-5.60e-02,1.20e+00,
83,-8.00e-02,1.04e+00,
84,-8.00e-02,1.20e+00,
85,-5.20e-02,1.04e+00,
86,-5.20e-02,1.12e+00,
87,-7.60e-02,1.04e+00,
88,-7.20e-02,1.12e+00,
89,-4.80e-02,9.60e-01,
90,-4.80e-02,1.12e+00,
91,-7.20e-02,9.60e-01,
92,-6.80e-02,1.12e+00,
93,-4.40e-02,9.60e-01,
94,-4.40e-02,9.60e-01,
95,-6.40e-02,1.12e+00,
96,-6.40e-02,1.04e+00,
97,-4.00e-02,9.60e-01,
98,-4.00e-02,9.60e-01,
99,-6.00e-02,1.04e+00,
100,-6.00e-02,1.04e+00,
101,-3.60e-02,8.80e-01,
102,-5.60e-02,1.04e+00,
103,-3.60e-02,8.80e-01,
104,-3.60e-02,9.60e-01,
105,-6.00e-02,8.80e-01,
106,-5.20e-02,9.60e-01,
107,-3.20e-02,8.80e-01,
108,-3.20e-02,9.60e-01,
109,-5.20e-02,8.00e-01,
110,-5.20e-02,9.60e-01,
111,-2.80e-02,8.00e-01,
112,-4.80e-02,9.60e-01,
113,-2.40e-02,8.00e-01,
114,-4.40e-02,8.00e-01,
115,-2.40e-02,8.80e-01,
116,-4.40e-02,8.00e-01,
117,-2.40e-02,8.80e-01,
118,-4.80e-02,8.80e-01,
119,-4.00e-03,7.20e-01,
120,-4.00e-02,7.20e-01,
121,-2.00e-02,8.80e-01,
122,-4.00e-02,7.20e-01,
123,-2.00e-02,8.00e-01,
124,-3.60e-02,8.00e-01,
125,-1.20e-02,7.20e-01,
126,-1.60e-02,8.00e-01,
127,-3.60e-02,6.40e-01,
128,-3.20e-02,6.40e-01,
129,-8.00e-03,8.00e-01,
130,-3.20e-02,7.20e-01,
131,-8.00e-03,6.40e-01,
132,-4.80e-02,7.20e-01,
133,-4.00e-03,5.60e-01,
134,-4.00e-03,6.40e-01,
135,-2.80e-02,7.20e-01,
136,-2.80e-02,7.20e-01,
137,0.00e+00,5.60e-01,
138,0.00e+00,5.60e-01,
139,-2.40e-02,6.40e-01,
140,-2.40e-02,5.60e-01,
141,0.00e+00,6.40e-01,
142,-1.60e-02,5.60e-01,
143,4.00e-03,6.40e-01,
144,-1.60e-02,6.40e-01,
145,4.00e-03,4.80e-01,
146,-2.00e-02,4.80e-01,
147,8.00e-03,6.40e-01,
148,-1.20e-02,4.80e-01,
149,8.00e-03,5.60e-01,
150,-1.20e-02,4.80e-01,
151,1.20e-02,5.60e-01,
152,1.20e-02,4.80e-01,
153,-8.00e-03,5.60e-01,
154,1.20e-02,4.00e-01,
155,-3.60e-02,5.60e-01,
156,-8.00e-03,4.00e-01,
157,1.60e-02,3.20e-01,
158,1.60e-02,3.20e-01,
159,-4.00e-03,5.60e-01,
160,2.40e-02,4.00e-01,
161,-1.60e-02,3.20e-01,
162,0.00e+00,4.00e-01,
163,2.00e-02,3.20e-01,
164,0.00e+00,4.00e-01,
165,2.00e-02,3.20e-01,
166,4.00e-03,4.00e-01,
167,2.40e-02,2.40e-01,
168,2.40e-02,2.40e-01,
169,4.00e-03,4.00e-01,
170,4.00e-03,3.20e-01,
171,2.80e-02,2.40e-01,
172,4.00e-03,3.20e-01,
173,2.80e-02,1.60e-01,
174,8.00e-03,3.20e-01,
175,3.20e-02,1.60e-01,
176,3.20e-02,3.20e-01,
177,1.20e-02,1.60e-01,
178,3.20e-02,3.20e-01,
179,1.20e-02,1.60e-01,
180,3.20e-02,2.40e-01,
181,1.20e-02,1.60e-01,
182,1.60e-02,2.40e-01,
183,4.00e-02,1.60e-01,
184,1.60e-02,2.40e-01,
185,4.00e-02,1.60e-01,
186,2.00e-02,2.40e-01,
187,4.00e-02,8.00e-02,
188,4.80e-02,1.60e-01,
189,1.60e-02,8.00e-02,
190,2.00e-02,1.60e-01,
191,4.80e-02,8.00e-02,
192,2.40e-02,1.60e-01,
193,4.80e-02,0.00e+00,
194,4.80e-02,0.00e+00,
195,2.40e-02,1.60e-01,
196,2.40e-02,8.00e-02,
197,4.80e-02,0.00e+00,
198,2.80e-02,8.00e-02,
199,5.20e-02,0.00e+00,
200,3.20e-02,8.00e-02,
201,5.20e-02,0.00e+00,
202,3.20e-02,8.00e-02,
203,5.20e-02,-8.00e-02,
204,3.60e-02,-8.00e-02,
205,5.60e-02,8.00e-02,
206,3.60e-02,0.00e+00,
207,5.60e-02,-8.00e-02,
208,3.60e-02,0.00e+00,
209,6.00e-02,-8.00e-02,
210,4.00e-02,0.00e+00,
211,6.00e-02,-1.60e-01,
212,6.00e-02,-1.60e-01,
213,4.00e-02,0.00e+00,
214,4.00e-02,-1.60e-01,
215,6.40e-02,-8.00e-02,
216,6.40e-02,-1.60e-01,
217,2.80e-02,-8.00e-02,
218,4.40e-02,-8.00e-02,
219,6.80e-02,-1.60e-01,
220,4.80e-02,-2.40e-01,
221,6.80e-02,-8.00e-02,
222,4.80e-02,-2.40e-01,
223,6.80e-02,-1.60e-01,
224,6.80e-02,-2.40e-01,
225,4.80e-02,-1.60e-01,
226,4.80e-02,-3.20e-01,
227,7.20e-02,-1.60e-01,
228,5.20e-02,-3.20e-01,
229,7.20e-02,-1.60e-01,
230,5.20e-02,-2.40e-01,
231,8.00e-02,-4.00e-01,
232,7.60e-02,-4.00e-01,
233,5.20e-02,-2.40e-01,
234,5.60e-02,-4.00e-01,
235,7.60e-02,-3.20e-01,
236,5.60e-02,-3.20e-01,
237,7.60e-02,-4.80e-01,
238,5.60e-02,-4.80e-01,
239,8.00e-02,-4.00e-01,
240,6.00e-02,-4.00e-01,
241,8.00e-02,-5.60e-01,
242,6.00e-02,-4.80e-01,
243,8.00e-02,-6.40e-01,
244,8.00e-02,-6.40e-01,
245,6.40e-02,-4.80e-01,
246,6.40e-02,-5.60e-01,
247,8.80e-02,-8.00e-01,
248,8.80e-02,-7.20e-01,
249,6.40e-02,-8.00e-01,
250,8.80e-02,-7.20e-01,
251,6.40e-02,-8.80e-01,
252,6.40e-02,-8.80e-01,
253,9.20e-02,-8.00e-01,
254,9.20e-02,-8.00e-01,
255,6.80e-02,-9.60e-01,
256,6.80e-02,-8.80e-01,
257,9.20e-02,-1.04e+00,
258,6.80e-02,-9.60e-01,
259,1.04e-01,-1.12e+00,
260,7.20e-02,-1.04e+00,
261,9.60e-02,-1.12e+00,
262,9.60e-02,-1.04e+00,
263,7.20e-02,-1.20e+00,
264,9.60e-02,-1.12e+00,
265,7.60e-02,-1.28e+00,
266,7.60e-02,-1.20e+00,
267,1.00e-01,-1.44e+00,
268,1.00e-01,-1.28e+00,
269,7.60e-02,-1.52e+00,
270,7.60e-02,-1.44e+00,
271,1.00e-01,-1.60e+00,
272,1.08e-01,-1.52e+00,
273,7.20e-02,-1.76e+00,
274,1.04e-01,-1.68e+00,
275,8.40e-02,-1.84e+00,
276,8.40e-02,-1.84e+00,
277,1.04e-01,-2.16e+00,
278,8.40e-02,-2.08e+00,
279,1.04e-01,-2.40e+00,
280,8.00e-02,-2.32e+00,
281,1.08e-01,-2.64e+00,
282,8.80e-02,-2.56e+00,
283,1.08e-01,-2.88e+00,
284,1.08e-01,-2.88e+00,
285,8.80e-02,-3.20e+00,
286,8.80e-02,-3.12e+00,
287,1.16e-01,-3.44e+00,
288,9.20e-02,-3.36e+00,
289,1.12e-01,-3.68e+00,
290,9.20e-02,-3.60e+00,
291,1.12e-01,-4.00e+00,
292,9.20e-02,-3.92e+00,
293,1.12e-01,-4.40e+00,
294,1.16e-01,-4.32e+00,
295,9.20e-02,-4.80e+00,
296,9.60e-02,-4.64e+00,
297,1.16e-01,-5.04e+00,
298,9.60e-02,-5.04e+00,
299,1.16e-01,-5.36e+00,
300,9.60e-02,-5.28e+00,
301,1.24e-01,-5.60e+00,
302,1.00e-01,-5.52e+00,
303,1.20e-01,-5.92e+00,
304,1.16e-01,-5.84e+00,
305,9.60e-02,-6.24e+00,
306,1.16e-01,-6.16e+00,
307,9.60e-02,-6.56e+00,
308,9.60e-02,-6.48e+00,
309,1.16e-01,-6.56e+00,
310,1.12e-01,-6.56e+00,
311,9.20e-02,-6.32e+00,
312,9.20e-02,-6.32e+00,
313,1.12e-01,-6.08e+00,
314,1.08e-01,-6.16e+00,
315,8.40e-02,-5.92e+00,
316,1.08e-01,-6.00e+00,
317,8.40e-02,-5.76e+00,
318,1.04e-01,-5.84e+00,
319,8.40e-02,-5.60e+00,
320,1.04e-01,-5.68e+00,
321,7.60e-02,-5.44e+00,
322,1.00e-01,-5.52e+00,
323,7.60e-02,-5.28e+00,
324,9.60e-02,-5.28e+00,
325,7.20e-02,-5.04e+00,
326,9.60e-02,-5.12e+00,
327,6.80e-02,-4.72e+00,
328,6.80e-02,-4.88e+00,
329,9.20e-02,-4.56e+00,
330,6.40e-02,-4.64e+00,
331,8.80e-02,-4.24e+00,
332,8.40e-02,-4.32e+00,
333,6.40e-02,-3.92e+00,
334,8.00e-02,-4.00e+00,
335,6.00e-02,-3.68e+00,
336,8.00e-02,-3.76e+00,
337,5.60e-02,-3.36e+00,
338,7.60e-02,-3.44e+00,
339,5.60e-02,-3.12e+00,
340,7.60e-02,-3.20e+00,
341,5.20e-02,-2.80e+00,
342,7.20e-02,-2.88e+00,
343,5.20e-02,-2.56e+00,
344,4.00e-02,-2.64e+00,
345,7.20e-02,-2.40e+00,
346,4.80e-02,-2.48e+00,
347,6.80e-02,-2.16e+00,
348,6.40e-02,-2.24e+00,
349,4.40e-02,-2.00e+00,
350,6.40e-02,-2.08e+00,
351,4.40e-02,-1.84e+00,
352,6.00e-02,-1.84e+00,
353,4.00e-02,-1.60e+00,
354,4.00e-02,-1.68e+00,
355,6.00e-02,-1.44e+00,
356,5.60e-02,-1.52e+00,
357,3.60e-02,-1.28e+00,
358,6.40e-02,-1.36e+00,
359,3.20e-02,-1.12e+00,
360,5.20e-02,-1.20e+00,
361,2.80e-02,-9.60e-01,
362,3.20e-02,-1.04e+00,
363,5.20e-02,-8.80e-01,
364,4.80e-02,-9.60e-01,
365,2.40e-02,-7.20e-01,
366,4.80e-02,-7.20e-01,
367,2.00e-02,-4.80e-01,
368,4.40e-02,-5.60e-01,
369,2.00e-02,-3.20e-01,
370,4.00e-02,-4.00e-01,
371,1.60e-02,-2.40e-01,
372,1.60e-02,-3.20e-01,
373,6.00e-02,-8.00e-02,
374,1.60e-02,-1.60e-01,
375,4.00e-02,0.00e+00,
376,1.20e-02,-8.00e-02,
377,3.20e-02,1.60e-01,
378,3.20e-02,8.00e-02,
379,1.20e-02,2.40e-01,
380,3.20e-02,1.60e-01,
381,8.00e-03,4.00e-01,
382,8.00e-03,2.40e-01,
383,2.80e-02,5.60e-01,
384,2.40e-02,4.80e-01,
385,4.00e-03,6.40e-01,
386,2.40e-02,5.60e-01,
387,0.00e+00,7.20e-01,
388,2.00e-02,6.40e-01,
389,0.00e+00,8.00e-01,
390,0.00e+00,7.20e-01,
391,2.00e-02,8.80e-01,
392,2.00e-02,8.00e-01,
393,-4.00e-03,9.60e-01,
394,1.60e-02,8.80e-01,
395,-4.00e-03,1.04e+00,
396,1.60e-02,9.60e-01,
397,-8.00e-03,1.12e+00,
398,-8.00e-03,1.04e+00,
399,1.20e-02,1.20e+00,
400,-1.20e-02,1.12e+00,
401,2.00e-02,1.28e+00,
402,8.00e-03,1.12e+00,
403,-1.20e-02,1.28e+00,
404,-1.20e-02,1.20e+00,
405,8.00e-03,1.36e+00,
406,4.00e-03,1.28e+00,
407,-1.60e-02,1.44e+00,
408,-1.60e-02,1.44e+00,
409,4.00e-03,1.36e+00,
410,4.00e-03,1.36e+00,
411,-2.40e-02,1.52e+00,
412,0.00e+00,1.52e+00,
413,-2.40e-02,1.44e+00,
414,-2.40e-02,1.44e+00,
415,1.20e-02,1.68e+00,
416,0.00e+00,1.60e+00,
417,-2.80e-02,1.76e+00,
418,-4.00e-03,1.76e+00,
419,-2.80e-02,1.68e+00,
420,-4.00e-03,1.68e+00,
421,-2.80e-02,1.84e+00,
422,-8.00e-03,1.68e+00,
423,-3.20e-02,1.92e+00,
424,-8.00e-03,1.92e+00,
425,-3.20e-02,1.76e+00,
426,-1.20e-02,1.84e+00,
427,-3.60e-02,1.92e+00,
428,-3.60e-02,1.84e+00,
429,-1.20e-02,2.00e+00,
430,-1.60e-02,2.00e+00,
431,-4.00e-02,1.84e+00,
432,-1.60e-02,1.92e+00,
433,-4.00e-02,2.00e+00,
434,-2.00e-02,1.92e+00,
435,-4.00e-02,2.00e+00,
436,-2.00e-02,1.92e+00,
437,-4.40e-02,2.08e+00,
438,-2.40e-02,2.08e+00,
439,-4.40e-02,1.92e+00,
440,-4.40e-02,2.08e+00,
441,-2.40e-02,2.00e+00,
442,-2.40e-02,2.08e+00,
443,-4.80e-02,2.00e+00,
444,-2.80e-02,2.00e+00,
445,-4.80e-02,2.16e+00,
446,-2.80e-02,2.00e+00,
447,-4.80e-02,2.16e+00,
448,-3.20e-02,2.00e+00,
449,-5.20e-02,2.16e+00,
450,-5.20e-02,2.00e+00,
451,-3.20e-02,2.16e+00,
452,-5.20e-02,2.00e+00,
453,-3.20e-02,2.16e+00,
454,-3.60e-02,2.16e+00,
455,-5.60e-02,2.08e+00,
456,-3.60e-02,2.16e+00,
457,-6.40e-02,2.08e+00,
458,-5.60e-02,2.16e+00,
459,-3.60e-02,2.08e+00,
460,-3.60e-02,2.16e+00,
461,-6.00e-02,2.08e+00,
462,-6.00e-02,2.08e+00,
463,-4.00e-02,2.24e+00,
464,-6.00e-02,2.24e+00,
465,-4.00e-02,2.08e+00,
466,-4.40e-02,2.08e+00,
467,-6.40e-02,2.24e+00,
468,-4.40e-02,2.08e+00,
469,-6.40e-02,2.16e+00,
470,-4.40e-02,2.16e+00,
471,-7.60e-02,2.08e+00,
472,-4.40e-02,2.16e+00,
473,-6.80e-02,2.00e+00,
474,-4.80e-02,2.00e+00,
475,-7.20e-02,2.16e+00,
476,-4.80e-02,2.00e+00,
477,-7.20e-02,2.16e+00,
478,-4.80e-02,2.16e+00,
479,-7.60e-02,2.00e+00,
480,-8.00e-02,2.00e+00,
481,-4.40e-02,2.08e+00,
482,-7.60e-02,2.00e+00,
483,-5.20e-02,2.08e+00,
484,-5.20e-02,2.00e+00,
485,-8.00e-02,2.08e+00,
486,-5.20e-02,2.08e+00,
487,-8.00e-02,2.00e+00,
488,-5.60e-02,2.08e+00,
489,-8.00e-02,1.92e+00,
490,-5.60e-02,2.08e+00,
491,-8.00e-02,1.92e+00,
492,-5.60e-02,1.92e+00,
493,-8.00e-02,2.08e+00,
494,-8.40e-02,2.00e+00,
495,-6.00e-02,1.92e+00,
496,-8.40e-02,1.92e+00,
497,-6.00e-02,2.00e+00,
498,-9.20e-02,2.00e+00,
499,-6.00e-02,1.92e+00,
500,-8.40e-02,1.92e+00,
501,-6.00e-02,2.00e+00,
502,-6.00e-02,1.92e+00,
503,-8.80e-02,2.00e+00,
504,-8.80e-02,2.00e+00,
505,-6.80e-02,1.84e+00,
506,-6.80e-02,2.00e+00,
507,-8.80e-02,1.84e+00,
508,-8.80e-02,2.00e+00,
509,-6.80e-02,1.84e+00,
510,-7.20e-02,1.92e+00,
511,-9.20e-02,1.84e+00,
512,-6.00e-02,1.92e+00,
513,-1.20e-01,1.76e+00,
514,-7.20e-02,1.76e+00,
515,-9.20e-02,1.92e+00,
516,-7.20e-02,1.76e+00,
517,-9.20e-02,1.84e+00,
518,-7.20e-02,1.84e+00,
519,-9.60e-02,1.68e+00,
520,-7.60e-02,1.84e+00,
521,-9.60e-02,1.68e+00,
522,-7.60e-02,1.68e+00,
523,-9.60e-02,1.84e+00,
524,-7.60e-02,1.68e+00,
525,-9.60e-02,1.76e+00,
526,-9.60e-02,1.68e+00,
527,-6.00e-02,1.76e+00,
528,-7.60e-02,1.68e+00,
529,-9.60e-02,1.76e+00,
530,-8.00e-02,1.68e+00,
531,-1.00e-01,1.76e+00,
532,-1.00e-01,1.76e+00,
533,-8.00e-02,1.60e+00,
534,-1.00e-01,1.68e+00,
535,-8.00e-02,1.60e+00,
536,-1.00e-01,1.60e+00,
537,-8.00e-02,1.68e+00,
538,-1.00e-01,1.68e+00,
539,-8.00e-02,1.52e+00,
540,-8.00e-02,1.44e+00,
541,-1.08e-01,1.68e+00,
542,-8.00e-02,1.44e+00,
543,-1.04e-01,1.68e+00,
544,-1.04e-01,1.68e+00,
545,-8.00e-02,1.44e+00,
546,-1.04e-01,1.52e+00,
547,-8.40e-02,1.44e+00,
548,-8.40e-02,1.52e+00,
549,-1.04e-01,1.36e+00,
550,-1.04e-01,1.52e+00,
551,-8.40e-02,1.36e+00,
552,-8.40e-02,1.44e+00,
553,-1.04e-01,1.36e+00,
554,-1.16e-01,1.44e+00,
555,-7.20e-02,1.28e+00,
556,-1.04e-01,1.44e+00,
557,-8.00e-02,1.28e+00,
558,-1.00e-01,1.44e+00,
559,-8.00e-02,1.28e+00,
560,-1.00e-01,1.28e+00,
561,-8.00e-02,1.44e+00,
562,-1.00e-01,1.36e+00,
563,-7.60e-02,1.28e+00,
564,-7.60e-02,1.36e+00,
565,-9.60e-02,1.20e+00,
566,-9.60e-02,1.20e+00,
567,-7.20e-02,1.36e+00,
568,-1.00e-01,1.36e+00,
569,-5.20e-02,1.20e+00,
570,-9.20e-02,1.20e+00,
571,-7.20e-02,1.28e+00,
572,-8.80e-02,1.28e+00,
573,-6.80e-02,1.20e+00,
574,-8.80e-02,1.28e+00,
575,-6.00e-02,1.12e+00,
576,-6.00e-02,1.12e+00,
577,-8.40e-02,1.28e+00,
578,-8.40e-02,1.20e+00,
579,-5.60e-02,1.12e+00,
580,-5.60e-02,1.20e+00,
581,-8.00e-02,1.12e+00,
582,-8.00e-02,1.20e+00,
583,-5.60e-02,1.12e+00,
584,-8.40e-02,1.20e+00,
585,-5.20e-02,1.04e+00,
586,-5.20e-02,1.20e+00,
587,-7.60e-02,1.04e+00,
588,-7.60e-02,1.12e+00,
589,-4.80e-02,1.04e+00,
590,-4.80e-02,1.12e+00,
591,-7.20e-02,9.60e-01,
592,-7.20e-02,1.04e+00,
593,-4.40e-02,9.60e-01,
594,-4.40e-02,1.04e+00,
595,-6.40e-02,9.60e-01,
596,-6.40e-02,9.60e-01,
597,-4.00e-02,1.04e+00,
598,-4.00e-02,1.04e+00,
599,-7.60e-02,8.80e-01,
600,-6.40e-02,8.80e-01,
601,-3.60e-02,1.04e+00,
602,-5.60e-02,9.60e-01,
603,-3.60e-02,8.80e-01,
604,-3.60e-02,9.60e-01,
605,-5.60e-02,8.80e-01,
606,-3.20e-02,9.60e-01,
607,-5.20e-02,8.80e-01,
608,-3.20e-02,9.60e-01,
609,-5.20e-02,8.00e-01,
610,-4.80e-02,9.60e-01,
611,-2.80e-02,8.00e-01,
612,-2.80e-02,8.80e-01,
613,-5.20e-02,8.00e-01,
614,-4.80e-02,8.80e-01,
615,-2.40e-02,8.00e-01,
616,-2.40e-02,8.00e-01,
617,-4.40e-02,8.80e-01,
618,-4.40e-02,8.80e-01,
619,-2.00e-02,7.20e-01,
620,-4.00e-02,7.20e-01,
621,-2.00e-02,8.80e-01,
622,-2.00e-02,7.20e-01,
623,-4.00e-02,8.80e-01,
624,-3.60e-02,8.80e-01,
625,-1.20e-02,7.20e-01,
626,-3.60e-02,7.20e-01,
627,-1.20e-02,8.00e-01,
628,-3.20e-02,8.00e-01,
629,-8.00e-03,6.40e-01,
630,-3.20e-02,6.40e-01,
631,-8.00e-03,8.00e-01,
632,-2.80e-02,7.20e-01,
633,-4.00e-03,6.40e-01,
634,-2.80e-02,6.40e-01,
635,-4.00e-03,7.20e-01,
636,-2.80e-02,6.40e-01,
637,-4.00e-03,7.20e-01,
638,-2.40e-02,6.40e-01,
639,0.00e+00,7.20e-01,
640,0.00e+00,7.20e-01,
641,-3.20e-02,5.60e-01,
642,-2.00e-02,6.40e-01,
643,4.00e-03,5.60e-01,
644,-1.60e-02,5.60e-01,
645,4.00e-03,6.40e-01,
646,0.00e+00,6.40e-01,
647,8.00e-03,4.80e-01,
648,8.00e-03,6.40e-01,
649,-1.20e-02,4.80e-01,
650,-1.20e-02,4.80e-01,
651,1.20e-02,5.60e-01,
652,-8.00e-03,4.80e-01,
653,1.20e-02,5.60e-01,
654,1.20e-02,4.80e-01,
655,-2.00e-02,5.60e-01,
656,-8.00e-03,5.60e-01,
657,1.60e-02,3.20e-01,
658,-4.00e-03,4.80e-01,
659,1.60e-02,3.20e-01,
660,1.60e-02,4.00e-01,
661,-4.00e-03,3.20e-01,
662,0.00e+00,4.00e-01,
663,2.00e-02,3.20e-01,
664,0.00e+00,4.00e-01,
665,2.00e-02,3.20e-01,
666,0.00e+00,4.00e-01,
667,2.40e-02,2.40e-01,
668,2.40e-02,3.20e-01,
669,0.00e+00,2.40e-01,
670,4.00e-03,3.20e-01,
671,3.20e-02,2.40e-01,
672,2.80e-02,3.20e-01,
673,8.00e-03,2.40e-01,
674,2.80e-02,3.20e-01,
675,8.00e-03,1.60e-01,
676,1.20e-02,1.60e-01,
677,3.20e-02,3.20e-01,
678,3.20e-02,1.60e-01,
679,1.20e-02,3.20e-01,
680,1.20e-02,2.40e-01,
681,3.60e-02,1.60e-01,
682,4.00e-02,2.40e-01,
683,1.20e-02,1.60e-01,
684,1.60e-02,2.40e-01,
685,4.00e-02,1.60e-01,
686,2.00e-02,2.40e-01,
687,4.00e-02,8.00e-02,
688,4.40e-02,2.40e-01,
689,2.00e-02,8.00e-02,
690,2.00e-02,2.40e-01,
691,4.40e-02,8.00e-02,
692,2.00e-02,1.60e-01,
693,4.80e-02,8.00e-02,
694,4.80e-02,1.60e-01,
695,2.40e-02,0.00e+00,
696,1.60e-02,1.60e-01,
697,5.20e-02,0.00e+00,
698,3.20e-02,1.60e-01,
699,5.20e-02,0.00e+00,
700,5.20e-02,8.00e-02,
701,2.80e-02,0.00e+00,
702,5.20e-02,8.00e-02,
703,3.20e-02,-8.00e-02,
704,3.60e-02,8.00e-02,
705,5.60e-02,-8.00e-02,
706,5.60e-02,0.00e+00,
707,3.60e-02,-8.00e-02,
708,3.60e-02,0.00e+00,
709,5.60e-02,-8.00e-02,
710,6.00e-02,0.00e+00,
711,2.80e-02,-1.60e-01,
712,4.00e-02,-1.60e-01,
713,6.00e-02,0.00e+00,
714,4.00e-02,-8.00e-02,
715,6.40e-02,-1.60e-01,
716,4.40e-02,-8.00e-02,
717,6.40e-02,-1.60e-01,
718,6.40e-02,-8.00e-02,
719,4.40e-02,-2.40e-01,
720,4.40e-02,-2.40e-01,
721,6.40e-02,-8.00e-02,
722,4.80e-02,-2.40e-01,
723,6.80e-02,-1.60e-01,
724,6.80e-02,-1.60e-01,
725,4.40e-02,-3.20e-01,
726,5.20e-02,-3.20e-01,
727,7.20e-02,-2.40e-01,
728,7.20e-02,-3.20e-01,
729,5.20e-02,-2.40e-01,
730,7.20e-02,-2.40e-01,
731,5.20e-02,-4.00e-01,
732,5.20e-02,-3.20e-01,
733,7.60e-02,-4.80e-01,
734,5.60e-02,-4.80e-01,
735,7.60e-02,-3.20e-01,
736,7.60e-02,-4.00e-01,
737,5.60e-02,-4.80e-01,
738,8.00e-02,-4.80e-01,
739,4.80e-02,-4.00e-01,
740,8.00e-02,-4.00e-01,
741,6.00e-02,-5.60e-01,
742,8.00e-02,-4.00e-01,
743,6.00e-02,-5.60e-01,
744,8.00e-02,-4.80e-01,
745,6.00e-02,-6.40e-01,
746,6.40e-02,-6.40e-01,
747,8.40e-02,-5.60e-01,
748,6.40e-02,-5.60e-01,
749,8.80e-02,-8.00e-01,
750,6.40e-02,-7.20e-01,
751,8.80e-02,-8.80e-01,
752,6.80e-02,-7.20e-01,
753,9.20e-02,-8.80e-01,
754,9.20e-02,-8.00e-01,
755,6.80e-02,-9.60e-01,
756,9.20e-02,-8.80e-01,
757,6.80e-02,-1.04e+00,
758,6.80e-02,-9.60e-01,
759,9.20e-02,-1.12e+00,
760,7.20e-02,-1.04e+00,
761,9.60e-02,-1.20e+00,
762,9.60e-02,-1.12e+00,
763,7.20e-02,-1.28e+00,
764,9.60e-02,-1.20e+00,
765,7.60e-02,-1.36e+00,
766,7.60e-02,-1.28e+00,
767,1.04e-01,-1.52e+00,
768,1.00e-01,-1.36e+00,
769,7.60e-02,-1.60e+00,
770,7.60e-02,-1.52e+00,
771,1.00e-01,-1.68e+00,
772,1.04e-01,-1.60e+00,
773,7.60e-02,-1.84e+00,
774,8.40e-02,-1.84e+00,
775,1.48e-01,-2.08e+00,
776,8.40e-02,-2.00e+00,
777,1.04e-01,-2.16e+00,
778,8.80e-02,-2.08e+00,
779,1.08e-01,-2.32e+00,
780,1.08e-01,-2.24e+00,
781,7.60e-02,-2.40e+00,
782,8.80e-02,-2.32e+00,
783,1.08e-01,-2.56e+00,
784,8.80e-02,-2.48e+00,
785,1.12e-01,-2.80e+00,
786,1.08e-01,-2.72e+00,
787,8.80e-02,-3.12e+00,
788,9.20e-02,-3.04e+00,
789,1.12e-01,-3.44e+00,
790,1.12e-01,-3.36e+00,
791,9.20e-02,-3.76e+00,
792,9.20e-02,-3.68e+00,
793,1.16e-01,-4.08e+00,
794,8.40e-02,-4.08e+00,
795,1.20e-01,-4.56e+00,
796,9.60e-02,-4.48e+00,
797,1.16e-01,-5.04e+00,
798,9.60e-02,-4.96e+00,
799,1.16e-01,-5.68e+00,
800,1.16e-01,-5.60e+00,
801,9.60e-02,-6.24e+00,
802,1.00e-01,-6.24e+00,
803,1.20e-01,-6.64e+00,
804,1.20e-01,-6.56e+00,
805,9.60e-02,-6.80e+00,
806,1.16e-01,-6.80e+00,
807,9.60e-02,-6.64e+00,
808,1.16e-01,-6.80e+00,
809,8.80e-02,-6.56e+00,
810,1.12e-01,-6.64e+00,
811,9.20e-02,-6.32e+00,
812,1.12e-01,-6.32e+00,
813,8.80e-02,-6.08e+00,
814,8.80e-02,-6.16e+00,
815,1.08e-01,-5.92e+00,
816,1.08e-01,-6.00e+00,
817,8.40e-02,-5.76e+00,
818,1.04e-01,-5.92e+00,
819,8.40e-02,-5.60e+00,
820,1.04e-01,-5.76e+00,
821,7.60e-02,-5.44e+00,
822,1.00e-01,-5.52e+00,
823,7.20e-02,-5.20e+00,
824,9.60e-02,-5.20e+00,
825,7.20e-02,-4.80e+00,
826,9.60e-02,-4.96e+00,
827,6.80e-02,-4.56e+00,
828,6.80e-02,-4.72e+00,
829,9.20e-02,-4.32e+00,
830,8.80e-02,-4.40e+00,
831,6.40e-02,-4.00e+00,
832,6.40e-02,-4.08e+00,
833,8.80e-02,-3.76e+00,
834,8.00e-02,-3.84e+00,
835,6.00e-02,-3.52e+00,
836,8.80e-02,-3.60e+00,
837,4.80e-02,-3.28e+00,
838,7.60e-02,-3.36e+00,
839,5.60e-02,-3.04e+00,
840,7.20e-02,-3.12e+00,
