APL/APL2-3/data/丰度TaLEs/新建文件1.csv

X,CH1,CH3,Start,Increment,
Sequence,Volt,Volt,2.320000e-01,5.000000e-04
0,-5.60e-02,9.60e-01,
1,-3.20e-02,8.00e-01,
2,-3.60e-02,8.00e-01,
3,-5.60e-02,9.60e-01,
4,-5.60e-02,9.60e-01,
5,-3.60e-02,8.00e-01,
6,-4.00e-02,8.00e-01,
7,-6.00e-02,9.60e-01,
8,-6.00e-02,8.00e-01,
9,-4.00e-02,9.60e-01,
10,-6.00e-02,8.00e-01,
11,-4.00e-02,8.80e-01,
12,-4.40e-02,8.00e-01,
13,-6.40e-02,8.80e-01,
14,-6.40e-02,8.00e-01,
15,-4.40e-02,8.80e-01,
16,-4.40e-02,8.80e-01,
17,-6.40e-02,8.00e-01,
18,-4.40e-02,8.00e-01,
19,-6.80e-02,8.80e-01,
20,-3.60e-02,8.80e-01,
21,-9.20e-02,7.20e-01,
22,-4.80e-02,8.80e-01,
23,-7.20e-02,7.20e-01,
24,-7.20e-02,7.20e-01,
25,-4.80e-02,8.80e-01,
26,-7.60e-02,7.20e-01,
27,-4.80e-02,8.80e-01,
28,-7.60e-02,8.80e-01,
29,-5.20e-02,7.20e-01,
30,-5.20e-02,7.20e-01,
31,-7.60e-02,8.00e-01,
32,-5.20e-02,7.20e-01,
33,-7.60e-02,8.00e-01,
34,-5.60e-02,7.20e-01,
35,-8.00e-02,8.00e-01,
36,-8.00e-02,8.00e-01,
37,-5.60e-02,6.40e-01,
38,-8.00e-02,6.40e-01,
39,-5.60e-02,8.00e-01,
40,-6.00e-02,7.20e-01,
41,-8.40e-02,8.00e-01,
42,-8.40e-02,8.00e-01,
43,-6.00e-02,6.40e-01,
44,-6.00e-02,6.40e-01,
45,-8.40e-02,8.00e-01,
46,-8.40e-02,6.40e-01,
47,-6.00e-02,8.00e-01,
48,-6.00e-02,6.40e-01,
49,-9.20e-02,7.20e-01,
50,-6.80e-02,7.20e-01,
51,-8.80e-02,6.40e-01,
52,-6.80e-02,6.40e-01,
53,-8.80e-02,7.20e-01,
54,-6.80e-02,6.40e-01,
55,-8.80e-02,7.20e-01,
56,-6.80e-02,7.20e-01,
57,-9.20e-02,6.40e-01,
58,-9.20e-02,6.40e-01,
59,-7.20e-02,7.20e-01,
60,-7.20e-02,7.20e-01,
61,-9.20e-02,5.60e-01,
62,-1.00e-01,5.60e-01,
63,-4.80e-02,7.20e-01,
64,-7.20e-02,5.60e-01,
65,-9.20e-02,7.20e-01,
66,-7.20e-02,5.60e-01,
67,-9.60e-02,7.20e-01,
68,-9.60e-02,5.60e-01,
69,-7.60e-02,7.20e-01,
70,-7.60e-02,5.60e-01,
71,-9.60e-02,7.20e-01,
72,-7.60e-02,5.60e-01,
73,-9.60e-02,7.20e-01,
74,-7.60e-02,5.60e-01,
75,-9.60e-02,6.40e-01,
76,-6.80e-02,5.60e-01,
77,-1.24e-01,6.40e-01,
78,-8.00e-02,5.60e-01,
79,-1.00e-01,6.40e-01,
80,-1.00e-01,5.60e-01,
81,-8.00e-02,6.40e-01,
82,-8.00e-02,6.40e-01,
83,-1.04e-01,4.80e-01,
84,-8.00e-02,4.80e-01,
85,-1.00e-01,6.40e-01,
86,-8.00e-02,4.80e-01,
87,-1.00e-01,6.40e-01,
88,-1.04e-01,4.80e-01,
89,-8.00e-02,5.60e-01,
90,-1.04e-01,4.80e-01,
91,-7.60e-02,5.60e-01,
92,-1.04e-01,4.80e-01,
93,-8.00e-02,5.60e-01,
94,-8.00e-02,4.80e-01,
95,-1.04e-01,5.60e-01,
96,-8.40e-02,4.80e-01,
97,-1.04e-01,5.60e-01,
98,-1.04e-01,4.80e-01,
99,-8.40e-02,5.60e-01,
100,-1.04e-01,5.60e-01,
101,-8.00e-02,3.20e-01,
102,-1.04e-01,4.80e-01,
103,-8.00e-02,3.20e-01,
104,-1.08e-01,3.20e-01,
105,-7.60e-02,5.60e-01,
106,-8.00e-02,4.00e-01,
107,-1.00e-01,3.20e-01,
108,-1.00e-01,3.20e-01,
109,-7.60e-02,4.80e-01,
110,-7.60e-02,5.60e-01,
111,-9.60e-02,3.20e-01,
112,-9.60e-02,4.00e-01,
113,-7.20e-02,3.20e-01,
114,-7.20e-02,4.00e-01,
115,-9.60e-02,3.20e-01,
116,-9.20e-02,4.00e-01,
117,-6.80e-02,3.20e-01,
118,-6.00e-02,4.00e-01,
119,-1.04e-01,3.20e-01,
120,-8.80e-02,4.00e-01,
121,-6.40e-02,3.20e-01,
122,-8.40e-02,4.00e-01,
123,-6.00e-02,3.20e-01,
124,-8.40e-02,4.00e-01,
125,-5.60e-02,3.20e-01,
126,-5.60e-02,4.00e-01,
127,-8.00e-02,3.20e-01,
128,-8.00e-02,4.00e-01,
129,-5.20e-02,3.20e-01,
130,-5.20e-02,4.00e-01,
131,-7.60e-02,2.40e-01,
132,-7.60e-02,2.40e-01,
133,-4.80e-02,4.00e-01,
134,-7.60e-02,4.00e-01,
135,-4.80e-02,2.40e-01,
136,-4.80e-02,3.20e-01,
137,-6.80e-02,2.40e-01,
138,-6.80e-02,4.00e-01,
139,-4.40e-02,2.40e-01,
140,-6.40e-02,4.00e-01,
141,-4.00e-02,2.40e-01,
142,-6.00e-02,3.20e-01,
143,-4.00e-02,2.40e-01,
144,-6.00e-02,3.20e-01,
145,-4.00e-02,2.40e-01,
146,-6.00e-02,3.20e-01,
147,-3.20e-02,2.40e-01,
148,-3.60e-02,3.20e-01,
149,-5.60e-02,2.40e-01,
150,-5.60e-02,3.20e-01,
151,-3.20e-02,2.40e-01,
152,-5.20e-02,2.40e-01,
153,-3.20e-02,3.20e-01,
154,-5.20e-02,3.20e-01,
155,-2.80e-02,1.60e-01,
156,-2.80e-02,3.20e-01,
157,-4.80e-02,1.60e-01,
158,-4.80e-02,3.20e-01,
159,-2.40e-02,1.60e-01,
160,-6.80e-02,3.20e-01,
161,-8.00e-03,1.60e-01,
162,-4.40e-02,2.40e-01,
163,-1.60e-02,1.60e-01,
164,-4.40e-02,2.40e-01,
165,-2.00e-02,1.60e-01,
166,-2.00e-02,2.40e-01,
167,-4.00e-02,1.60e-01,
168,-4.00e-02,2.40e-01,
169,-1.20e-02,1.60e-01,
170,-1.60e-02,2.40e-01,
171,-3.60e-02,1.60e-01,
172,-3.60e-02,2.40e-01,
173,-1.20e-02,1.60e-01,
174,-8.00e-03,2.40e-01,
175,-4.00e-02,8.00e-02,
176,-3.20e-02,2.40e-01,
177,-8.00e-03,8.00e-02,
178,-3.20e-02,2.40e-01,
179,-4.00e-03,8.00e-02,
180,-4.00e-03,2.40e-01,
181,-3.20e-02,8.00e-02,
182,-2.40e-02,8.00e-02,
183,0.00e+00,2.40e-01,
184,0.00e+00,8.00e-02,
185,-2.40e-02,2.40e-01,
186,0.00e+00,8.00e-02,
187,-2.00e-02,2.40e-01,
188,-1.60e-02,8.00e-02,
189,4.00e-03,2.40e-01,
190,-1.60e-02,2.40e-01,
191,4.00e-03,8.00e-02,
192,-1.20e-02,8.00e-02,
193,8.00e-03,1.60e-01,
194,8.00e-03,8.00e-02,
195,-1.20e-02,1.60e-01,
196,-1.20e-02,1.60e-01,
197,1.20e-02,8.00e-02,
198,-8.00e-03,1.60e-01,
199,1.20e-02,8.00e-02,
200,-8.00e-03,1.60e-01,
201,1.20e-02,8.00e-02,
202,-3.60e-02,8.00e-02,
203,1.60e-02,1.60e-01,
204,1.60e-02,8.00e-02,
205,-4.00e-03,1.60e-01,
206,0.00e+00,1.60e-01,
207,2.00e-02,8.00e-02,
208,2.00e-02,1.60e-01,
209,0.00e+00,8.00e-02,
210,0.00e+00,1.60e-01,
211,2.00e-02,0.00e+00,
212,4.00e-03,0.00e+00,
213,2.40e-02,1.60e-01,
214,2.40e-02,1.60e-01,
215,0.00e+00,0.00e+00,
216,4.00e-03,1.60e-01,
217,2.80e-02,0.00e+00,
218,2.80e-02,8.00e-02,
219,8.00e-03,0.00e+00,
220,8.00e-03,8.00e-02,
221,3.20e-02,0.00e+00,
222,3.20e-02,8.00e-02,
223,1.20e-02,0.00e+00,
224,3.20e-02,0.00e+00,
225,1.20e-02,1.60e-01,
226,1.20e-02,0.00e+00,
227,3.20e-02,1.60e-01,
228,1.60e-02,0.00e+00,
229,4.00e-02,8.00e-02,
230,1.60e-02,8.00e-02,
231,4.00e-02,0.00e+00,
232,4.00e-02,8.00e-02,
233,2.00e-02,-8.00e-02,
234,1.60e-02,-8.00e-02,
235,4.40e-02,8.00e-02,
236,4.40e-02,-8.00e-02,
237,2.00e-02,8.00e-02,
238,4.80e-02,0.00e+00,
239,2.40e-02,-8.00e-02,
240,4.80e-02,-8.00e-02,
241,2.40e-02,8.00e-02,
242,2.40e-02,8.00e-02,
243,4.80e-02,-8.00e-02,
244,5.20e-02,8.00e-02,
245,2.80e-02,-8.00e-02,
246,5.20e-02,0.00e+00,
247,2.80e-02,-8.00e-02,
248,3.60e-02,-8.00e-02,
249,5.60e-02,0.00e+00,
250,3.60e-02,-8.00e-02,
251,5.60e-02,0.00e+00,
252,5.60e-02,0.00e+00,
253,3.60e-02,-8.00e-02,
254,3.60e-02,0.00e+00,
255,6.00e-02,-8.00e-02,
256,4.00e-02,0.00e+00,
257,6.00e-02,-1.60e-01,
258,4.00e-02,0.00e+00,
259,7.20e-02,-1.60e-01,
260,4.40e-02,0.00e+00,
261,6.40e-02,-1.60e-01,
262,6.40e-02,-1.60e-01,
263,4.40e-02,0.00e+00,
264,6.40e-02,-1.60e-01,
265,4.40e-02,0.00e+00,
266,4.80e-02,0.00e+00,
267,6.80e-02,-1.60e-01,
268,4.80e-02,-1.60e-01,
269,6.80e-02,0.00e+00,
270,6.80e-02,-1.60e-01,
271,4.80e-02,-8.00e-02,
272,5.20e-02,-8.00e-02,
273,7.20e-02,-1.60e-01,
274,7.20e-02,-8.00e-02,
275,5.20e-02,-1.60e-01,
276,5.20e-02,-1.60e-01,
277,7.20e-02,-8.00e-02,
278,5.20e-02,-1.60e-01,
279,7.60e-02,-8.00e-02,
280,5.60e-02,-8.00e-02,
281,7.60e-02,-2.40e-01,
282,5.60e-02,-8.00e-02,
283,8.00e-02,-2.40e-01,
284,5.60e-02,-2.40e-01,
285,8.00e-02,-8.00e-02,
286,6.00e-02,-1.60e-01,
287,8.00e-02,-2.40e-01,
288,6.00e-02,-1.60e-01,
289,8.00e-02,-2.40e-01,
290,6.40e-02,-1.60e-01,
291,8.40e-02,-3.20e-01,
292,6.40e-02,-3.20e-01,
293,8.40e-02,-1.60e-01,
294,8.80e-02,-1.60e-01,
295,6.40e-02,-3.20e-01,
296,6.40e-02,-3.20e-01,
297,8.80e-02,-1.60e-01,
298,6.40e-02,-2.40e-01,
299,9.20e-02,-3.20e-01,
300,1.04e-01,-2.40e-01,
301,6.40e-02,-3.20e-01,
302,6.80e-02,-2.40e-01,
303,9.20e-02,-3.20e-01,
304,7.20e-02,-2.40e-01,
305,9.60e-02,-4.00e-01,
306,9.60e-02,-4.00e-01,
307,7.20e-02,-3.20e-01,
308,7.20e-02,-3.20e-01,
309,9.60e-02,-4.80e-01,
310,9.60e-02,-3.20e-01,
311,7.20e-02,-4.80e-01,
312,7.60e-02,-4.80e-01,
313,1.00e-01,-4.00e-01,
314,1.00e-01,-4.00e-01,
315,5.20e-02,-5.60e-01,
316,8.00e-02,-5.60e-01,
317,1.00e-01,-4.80e-01,
318,8.00e-02,-4.80e-01,
319,1.04e-01,-6.40e-01,
320,8.40e-02,-5.60e-01,
321,1.04e-01,-7.20e-01,
322,1.04e-01,-6.40e-01,
323,8.40e-02,-8.80e-01,
324,8.40e-02,-8.00e-01,
325,1.04e-01,-9.60e-01,
326,8.80e-02,-8.80e-01,
327,1.08e-01,-1.04e+00,
328,1.12e-01,-9.60e-01,
329,8.00e-02,-1.12e+00,
330,8.80e-02,-1.04e+00,
331,1.08e-01,-1.28e+00,
332,9.20e-02,-1.12e+00,
333,1.12e-01,-1.36e+00,
334,9.20e-02,-1.28e+00,
335,1.12e-01,-1.44e+00,
336,1.12e-01,-1.36e+00,
337,9.20e-02,-1.60e+00,
338,1.12e-01,-1.52e+00,
339,9.20e-02,-1.76e+00,
340,1.16e-01,-1.68e+00,
341,9.60e-02,-2.00e+00,
342,1.20e-01,-1.92e+00,
343,8.40e-02,-2.08e+00,
344,1.16e-01,-2.00e+00,
345,9.60e-02,-2.32e+00,
346,1.16e-01,-2.16e+00,
347,9.60e-02,-2.48e+00,
348,1.16e-01,-2.40e+00,
349,1.00e-01,-2.72e+00,
350,1.16e-01,-2.64e+00,
351,9.60e-02,-3.04e+00,
352,1.16e-01,-3.04e+00,
353,9.60e-02,-3.28e+00,
354,1.16e-01,-3.20e+00,
355,9.20e-02,-3.44e+00,
356,8.00e-02,-3.28e+00,
357,1.16e-01,-3.44e+00,
358,1.12e-01,-3.28e+00,
359,8.80e-02,-3.44e+00,
360,1.08e-01,-3.36e+00,
361,8.40e-02,-3.20e+00,
362,1.12e-01,-3.28e+00,
363,7.60e-02,-3.12e+00,
364,1.04e-01,-3.20e+00,
365,7.60e-02,-2.96e+00,
366,1.00e-01,-2.96e+00,
367,7.60e-02,-2.72e+00,
368,1.00e-01,-2.80e+00,
369,7.20e-02,-2.64e+00,
370,7.20e-02,-2.64e+00,
371,9.60e-02,-2.40e+00,
372,9.20e-02,-2.48e+00,
373,6.80e-02,-2.16e+00,
374,9.20e-02,-2.24e+00,
375,6.40e-02,-2.00e+00,
376,6.40e-02,-2.08e+00,
377,8.80e-02,-1.84e+00,
378,8.40e-02,-1.84e+00,
379,6.00e-02,-1.60e+00,
380,8.00e-02,-1.68e+00,
381,6.00e-02,-1.36e+00,
382,8.00e-02,-1.44e+00,
383,5.60e-02,-1.20e+00,
384,8.40e-02,-1.28e+00,
385,5.20e-02,-1.04e+00,
386,7.20e-02,-1.12e+00,
387,5.20e-02,-8.80e-01,
388,7.20e-02,-9.60e-01,
389,5.20e-02,-8.00e-01,
390,6.80e-02,-8.00e-01,
391,4.80e-02,-5.60e-01,
392,6.80e-02,-6.40e-01,
393,4.40e-02,-4.00e-01,
394,6.40e-02,-5.60e-01,
395,4.40e-02,-3.20e-01,
396,6.40e-02,-4.00e-01,
397,4.00e-02,-2.40e-01,
398,4.00e-02,-3.20e-01,
399,6.40e-02,-1.60e-01,
400,6.00e-02,-2.40e-01,
401,3.60e-02,-8.00e-02,
402,3.60e-02,-1.60e-01,
403,5.60e-02,0.00e+00,
404,5.20e-02,-8.00e-02,
405,3.20e-02,1.60e-01,
406,3.20e-02,1.60e-01,
407,5.20e-02,0.00e+00,
408,5.20e-02,8.00e-02,
409,2.40e-02,2.40e-01,
410,4.80e-02,1.60e-01,
411,2.40e-02,3.20e-01,
412,6.00e-02,2.40e-01,
413,2.00e-02,4.00e-01,
414,4.40e-02,4.00e-01,
415,2.00e-02,3.20e-01,
416,4.00e-02,3.20e-01,
417,1.60e-02,5.60e-01,
418,1.60e-02,4.80e-01,
419,4.00e-02,6.40e-01,
420,4.00e-02,4.80e-01,
421,1.20e-02,6.40e-01,
422,3.20e-02,5.60e-01,
423,1.20e-02,6.40e-01,
424,3.20e-02,5.60e-01,
425,8.00e-03,7.20e-01,
426,8.00e-03,6.40e-01,
427,3.20e-02,7.20e-01,
428,2.80e-02,6.40e-01,
429,8.00e-03,8.00e-01,
430,2.40e-02,8.00e-01,
431,4.00e-03,6.40e-01,
432,2.40e-02,7.20e-01,
433,4.00e-03,8.00e-01,
434,2.40e-02,7.20e-01,
435,0.00e+00,8.80e-01,
436,0.00e+00,8.80e-01,
437,2.00e-02,7.20e-01,
438,1.60e-02,8.80e-01,
439,-4.00e-03,7.20e-01,
440,2.00e-02,8.00e-01,
441,-2.00e-02,8.80e-01,
442,1.20e-02,8.00e-01,
443,-8.00e-03,9.60e-01,
444,-8.00e-03,8.00e-01,
445,1.20e-02,9.60e-01,
446,-8.00e-03,9.60e-01,
447,1.20e-02,8.00e-01,
448,8.00e-03,9.60e-01,
449,-1.20e-02,8.80e-01,
450,-1.20e-02,8.80e-01,
451,8.00e-03,9.60e-01,
452,4.00e-03,9.60e-01,
453,-1.60e-02,8.00e-01,
454,-1.60e-02,8.80e-01,
455,4.00e-03,9.60e-01,
456,4.00e-03,8.80e-01,
457,-2.00e-02,9.60e-01,
458,-2.40e-02,8.80e-01,
459,0.00e+00,9.60e-01,
460,0.00e+00,8.80e-01,
461,-2.40e-02,1.04e+00,
462,0.00e+00,8.80e-01,
463,-2.80e-02,1.04e+00,
464,-4.00e-03,1.04e+00,
465,-8.00e-02,8.80e-01,
466,-8.00e-03,8.80e-01,
467,-3.20e-02,1.04e+00,
468,0.00e+00,9.60e-01,
469,-3.20e-02,8.80e-01,
470,-3.20e-02,8.80e-01,
471,-8.00e-03,9.60e-01,
472,-1.20e-02,8.80e-01,
473,-3.60e-02,9.60e-01,
474,-3.60e-02,8.80e-01,
475,-1.20e-02,1.04e+00,
476,-1.60e-02,8.80e-01,
477,-4.00e-02,1.04e+00,
478,-4.00e-02,8.80e-01,
479,-1.60e-02,1.04e+00,
480,-2.00e-02,1.04e+00,
481,-4.00e-02,8.80e-01,
482,-5.60e-02,1.04e+00,
483,-2.00e-02,8.80e-01,
484,-2.40e-02,8.80e-01,
485,-4.40e-02,1.04e+00,
486,-2.40e-02,8.80e-01,
487,-4.40e-02,1.04e+00,
488,-2.40e-02,8.80e-01,
489,-4.80e-02,1.04e+00,
490,-2.80e-02,8.80e-01,
491,-4.80e-02,9.60e-01,
492,-2.80e-02,9.60e-01,
493,-4.80e-02,8.00e-01,
494,-5.20e-02,8.00e-01,
495,-2.40e-02,9.60e-01,
496,-5.20e-02,8.80e-01,
497,-3.20e-02,9.60e-01,
498,-3.20e-02,8.80e-01,
499,-5.20e-02,9.60e-01,
500,-3.20e-02,9.60e-01,
501,-5.60e-02,8.00e-01,
502,-5.60e-02,8.00e-01,
503,-3.60e-02,9.60e-01,
504,-3.60e-02,9.60e-01,
505,-5.60e-02,8.00e-01,
506,-4.00e-02,9.60e-01,
507,-6.00e-02,8.00e-01,
508,-4.00e-02,9.60e-01,
509,-6.40e-02,8.00e-01,
510,-4.00e-02,8.00e-01,
511,-6.00e-02,8.80e-01,
512,-4.40e-02,8.00e-01,
513,-6.40e-02,8.80e-01,
514,-6.40e-02,8.00e-01,
515,-4.40e-02,8.80e-01,
516,-4.40e-02,8.00e-01,
517,-6.80e-02,8.80e-01,
518,-4.40e-02,8.00e-01,
519,-6.80e-02,8.80e-01,
520,-4.80e-02,8.80e-01,
521,-7.20e-02,8.00e-01,
522,-4.80e-02,8.80e-01,
523,-7.20e-02,8.00e-01,
524,-5.20e-02,8.80e-01,
525,-7.20e-02,7.20e-01,
526,-5.20e-02,7.20e-01,
527,-7.60e-02,8.80e-01,
528,-7.60e-02,7.20e-01,
529,-5.20e-02,8.80e-01,
530,-7.60e-02,7.20e-01,
531,-5.20e-02,8.80e-01,
532,-5.20e-02,7.20e-01,
533,-8.00e-02,8.80e-01,
534,-8.00e-02,7.20e-01,
535,-5.20e-02,8.80e-01,
536,-5.60e-02,7.20e-01,
537,-9.20e-02,8.00e-01,
538,-5.60e-02,7.20e-01,
539,-8.00e-02,8.00e-01,
540,-8.00e-02,7.20e-01,
541,-5.60e-02,8.00e-01,
542,-6.00e-02,8.00e-01,
543,-8.40e-02,6.40e-01,
544,-6.00e-02,6.40e-01,
545,-8.40e-02,8.00e-01,
546,-6.00e-02,7.20e-01,
547,-8.40e-02,8.00e-01,
548,-6.80e-02,8.00e-01,
549,-8.80e-02,6.40e-01,
550,-8.80e-02,8.00e-01,
551,-6.00e-02,6.40e-01,
552,-6.80e-02,8.00e-01,
553,-8.80e-02,6.40e-01,
554,-6.80e-02,6.40e-01,
555,-8.80e-02,8.00e-01,
556,-6.80e-02,6.40e-01,
557,-8.80e-02,8.00e-01,
558,-7.20e-02,6.40e-01,
559,-9.20e-02,7.20e-01,
560,-7.20e-02,6.40e-01,
561,-9.20e-02,7.20e-01,
562,-9.60e-02,6.40e-01,
563,-6.40e-02,7.20e-01,
564,-7.20e-02,6.40e-01,
565,-1.00e-01,7.20e-01,
566,-7.20e-02,7.20e-01,
567,-9.60e-02,6.40e-01,
568,-9.60e-02,7.20e-01,
569,-3.60e-02,5.60e-01,
570,-9.60e-02,5.60e-01,
571,-7.60e-02,7.20e-01,
572,-7.60e-02,5.60e-01,
573,-9.60e-02,7.20e-01,
574,-7.60e-02,5.60e-01,
575,-1.00e-01,7.20e-01,
576,-7.60e-02,5.60e-01,
577,-1.00e-01,6.40e-01,
578,-6.80e-02,5.60e-01,
579,-1.12e-01,6.40e-01,
580,-1.00e-01,5.60e-01,
581,-8.00e-02,6.40e-01,
582,-1.00e-01,5.60e-01,
583,-8.00e-02,6.40e-01,
584,-8.00e-02,5.60e-01,
585,-1.00e-01,6.40e-01,
586,-8.00e-02,5.60e-01,
587,-1.04e-01,6.40e-01,
588,-8.00e-02,5.60e-01,
589,-1.04e-01,6.40e-01,
590,-1.04e-01,6.40e-01,
591,-8.00e-02,4.80e-01,
592,-8.40e-02,4.80e-01,
593,-1.04e-01,6.40e-01,
594,-1.04e-01,6.40e-01,
595,-8.00e-02,4.80e-01,
596,-1.04e-01,4.80e-01,
597,-8.40e-02,5.60e-01,
598,-8.40e-02,4.80e-01,
599,-1.04e-01,5.60e-01,
600,-1.04e-01,4.80e-01,
601,-8.40e-02,5.60e-01,
602,-1.04e-01,5.60e-01,
603,-8.00e-02,4.00e-01,
604,-8.00e-02,5.60e-01,
605,-1.00e-01,4.00e-01,
606,-1.00e-01,4.80e-01,
607,-7.60e-02,5.60e-01,
608,-7.60e-02,5.60e-01,
609,-1.00e-01,3.20e-01,
610,-9.60e-02,5.60e-01,
611,-7.20e-02,3.20e-01,
612,-9.60e-02,5.60e-01,
613,-7.20e-02,3.20e-01,
614,-7.20e-02,3.20e-01,
615,-9.20e-02,5.60e-01,
616,-9.20e-02,3.20e-01,
617,-6.80e-02,5.60e-01,
618,-6.80e-02,5.60e-01,
619,-8.80e-02,3.20e-01,
620,-9.60e-02,4.00e-01,
621,-5.20e-02,3.20e-01,
622,-8.40e-02,4.00e-01,
623,-6.00e-02,3.20e-01,
624,-8.40e-02,4.00e-01,
625,-6.00e-02,2.40e-01,
626,-8.00e-02,4.00e-01,
627,-5.60e-02,2.40e-01,
628,-8.00e-02,2.40e-01,
629,-5.20e-02,4.00e-01,
630,-7.60e-02,4.00e-01,
631,-5.20e-02,2.40e-01,
632,-7.60e-02,2.40e-01,
633,-5.20e-02,4.00e-01,
634,-4.40e-02,2.40e-01,
635,-7.60e-02,4.00e-01,
636,-4.80e-02,4.00e-01,
637,-7.20e-02,2.40e-01,
638,-6.80e-02,2.40e-01,
639,-4.40e-02,3.20e-01,
640,-6.40e-02,3.20e-01,
641,-4.40e-02,2.40e-01,
642,-6.40e-02,2.40e-01,
643,-4.00e-02,3.20e-01,
644,-6.00e-02,3.20e-01,
645,-3.60e-02,2.40e-01,
646,-6.00e-02,2.40e-01,
647,-3.60e-02,3.20e-01,
648,-5.60e-02,3.20e-01,
649,-3.20e-02,1.60e-01,
650,-5.60e-02,3.20e-01,
651,-3.20e-02,1.60e-01,
652,-5.20e-02,3.20e-01,
653,-3.20e-02,1.60e-01,
654,-5.20e-02,3.20e-01,
655,-2.80e-02,1.60e-01,
656,-5.20e-02,2.40e-01,
657,-2.80e-02,1.60e-01,
658,-4.80e-02,1.60e-01,
659,-2.80e-02,2.40e-01,
660,-4.40e-02,2.40e-01,
661,-2.40e-02,1.60e-01,
662,-8.00e-03,2.40e-01,
663,-4.80e-02,1.60e-01,
664,-4.00e-02,1.60e-01,
665,-2.00e-02,2.40e-01,
666,-2.00e-02,2.40e-01,
667,-4.00e-02,1.60e-01,
668,-3.60e-02,2.40e-01,
669,-1.60e-02,8.00e-02,
670,-1.60e-02,8.00e-02,
671,-6.00e-02,2.40e-01,
672,-3.60e-02,8.00e-02,
673,-1.20e-02,2.40e-01,
674,-3.20e-02,2.40e-01,
675,-8.00e-03,8.00e-02,
676,-3.20e-02,2.40e-01,
677,-8.00e-03,8.00e-02,
678,-2.80e-02,8.00e-02,
679,-4.00e-03,2.40e-01,
680,-2.80e-02,2.40e-01,
681,-4.00e-03,8.00e-02,
682,-2.80e-02,8.00e-02,
683,0.00e+00,2.40e-01,
684,-2.40e-02,2.40e-01,
685,0.00e+00,8.00e-02,
686,-2.00e-02,1.60e-01,
687,0.00e+00,8.00e-02,
688,-1.60e-02,1.60e-01,
689,4.00e-03,8.00e-02,
690,4.00e-03,1.60e-01,
691,-2.40e-02,8.00e-02,
692,-1.20e-02,1.60e-01,
693,8.00e-03,8.00e-02,
694,8.00e-03,1.60e-01,
695,-1.20e-02,8.00e-02,
696,-1.20e-02,1.60e-01,
697,1.20e-02,8.00e-02,
698,-8.00e-03,8.00e-02,
699,1.20e-02,1.60e-01,
700,-8.00e-03,1.60e-01,
701,1.60e-02,0.00e+00,
702,1.60e-02,0.00e+00,
703,-4.00e-03,1.60e-01,
704,-4.00e-03,1.60e-01,
705,2.80e-02,0.00e+00,
706,0.00e+00,1.60e-01,
707,2.00e-02,0.00e+00,
708,2.00e-02,1.60e-01,
709,0.00e+00,0.00e+00,
710,0.00e+00,8.00e-02,
711,2.00e-02,0.00e+00,
712,4.00e-03,0.00e+00,
713,2.40e-02,1.60e-01,
714,2.40e-02,0.00e+00,
715,4.00e-03,1.60e-01,
716,2.80e-02,0.00e+00,
717,4.00e-03,8.00e-02,
718,3.20e-02,0.00e+00,
719,-8.00e-03,8.00e-02,
720,2.80e-02,8.00e-02,
721,8.00e-03,0.00e+00,
722,8.00e-03,8.00e-02,
723,3.20e-02,0.00e+00,
724,1.20e-02,8.00e-02,
725,3.20e-02,0.00e+00,
726,1.20e-02,8.00e-02,
727,3.60e-02,-8.00e-02,
728,1.60e-02,-8.00e-02,
729,4.00e-02,8.00e-02,
730,1.60e-02,8.00e-02,
731,4.00e-02,0.00e+00,
732,1.20e-02,8.00e-02,
733,4.40e-02,0.00e+00,
734,4.40e-02,0.00e+00,
735,2.00e-02,8.00e-02,
736,2.00e-02,8.00e-02,
737,4.40e-02,-8.00e-02,
738,4.80e-02,8.00e-02,
739,2.40e-02,-8.00e-02,
740,4.80e-02,-8.00e-02,
741,2.40e-02,8.00e-02,
742,2.80e-02,-8.00e-02,
743,5.20e-02,8.00e-02,
744,3.20e-02,-8.00e-02,
745,5.20e-02,8.00e-02,
746,5.20e-02,8.00e-02,
747,2.80e-02,-8.00e-02,
748,2.80e-02,-8.00e-02,
749,5.60e-02,8.00e-02,
750,3.60e-02,-8.00e-02,
751,5.60e-02,8.00e-02,
752,5.60e-02,-8.00e-02,
753,3.60e-02,0.00e+00,
754,3.60e-02,-8.00e-02,
755,6.00e-02,0.00e+00,
756,6.00e-02,0.00e+00,
757,4.00e-02,-8.00e-02,
758,4.00e-02,0.00e+00,
759,6.00e-02,-8.00e-02,
760,3.60e-02,0.00e+00,
761,8.00e-02,-8.00e-02,
762,6.40e-02,0.00e+00,
763,3.60e-02,-1.60e-01,
764,6.40e-02,0.00e+00,
765,4.40e-02,-1.60e-01,
766,4.80e-02,-1.60e-01,
767,6.80e-02,0.00e+00,
768,4.80e-02,-1.60e-01,
769,6.80e-02,-8.00e-02,
770,4.80e-02,-8.00e-02,
771,6.80e-02,-1.60e-01,
772,5.20e-02,-1.60e-01,
773,7.20e-02,-8.00e-02,
774,5.20e-02,-8.00e-02,
775,8.00e-02,-1.60e-01,
776,5.20e-02,-8.00e-02,
777,7.20e-02,-2.40e-01,
778,5.20e-02,-8.00e-02,
779,7.60e-02,-2.40e-01,
780,5.60e-02,-2.40e-01,
781,8.00e-02,-8.00e-02,
782,5.60e-02,-2.40e-01,
783,7.60e-02,-8.00e-02,
784,5.60e-02,-2.40e-01,
785,8.00e-02,-8.00e-02,
786,8.00e-02,-8.00e-02,
787,6.00e-02,-2.40e-01,
788,6.00e-02,-8.00e-02,
789,8.40e-02,-2.40e-01,
790,8.00e-02,-1.60e-01,
791,6.00e-02,-2.40e-01,
792,6.40e-02,-1.60e-01,
793,8.80e-02,-3.20e-01,
794,6.40e-02,-1.60e-01,
795,8.80e-02,-3.20e-01,
796,6.40e-02,-3.20e-01,
797,8.80e-02,-1.60e-01,
798,6.80e-02,-3.20e-01,
799,9.20e-02,-1.60e-01,
800,9.20e-02,-2.40e-01,
801,6.80e-02,-3.20e-01,
802,6.00e-02,-2.40e-01,
803,9.20e-02,-4.00e-01,
804,9.20e-02,-2.40e-01,
805,7.20e-02,-4.00e-01,
806,7.20e-02,-4.00e-01,
807,9.60e-02,-3.20e-01,
808,9.60e-02,-3.20e-01,
809,7.20e-02,-4.80e-01,
810,7.20e-02,-4.80e-01,
811,1.00e-01,-3.20e-01,
812,7.60e-02,-4.00e-01,
813,1.00e-01,-5.60e-01,
814,1.00e-01,-5.60e-01,
815,7.60e-02,-4.00e-01,
816,1.00e-01,-4.80e-01,
817,7.60e-02,-6.40e-01,
818,1.04e-01,-6.40e-01,
819,7.60e-02,-4.80e-01,
820,8.40e-02,-5.60e-01,
821,1.04e-01,-8.00e-01,
822,1.04e-01,-5.60e-01,
823,8.40e-02,-8.00e-01,
824,8.80e-02,-7.20e-01,
825,1.08e-01,-8.80e-01,
826,8.80e-02,-7.20e-01,
827,1.08e-01,-8.80e-01,
828,8.80e-02,-8.00e-01,
829,1.08e-01,-1.04e+00,
830,8.40e-02,-9.60e-01,
831,1.12e-01,-1.12e+00,
832,8.80e-02,-1.04e+00,
833,1.12e-01,-1.28e+00,
834,1.12e-01,-1.12e+00,
835,9.20e-02,-1.36e+00,
836,9.20e-02,-1.28e+00,
837,1.12e-01,-1.52e+00,
838,9.20e-02,-1.44e+00,
839,1.12e-01,-1.68e+00,
840,9.20e-02,-1.60e+00,
