APL/APL2-3/data/E3_day1_data/实验2/noon/（二）-3-（e）-1/1.5Vpp.csv

X,CH1,CH3,Start,Increment,
Sequence,Volt,Volt,-1.200000e-01,2.000000e-04
0,-2.00e-01,1.04e+00,
1,-1.72e-01,1.00e+00,
2,-1.72e-01,1.00e+00,
3,-2.00e-01,1.04e+00,
4,-1.96e-01,1.00e+00,
5,-1.72e-01,1.08e+00,
6,-1.72e-01,1.00e+00,
7,-1.96e-01,1.08e+00,
8,-1.96e-01,1.08e+00,
9,-1.64e-01,1.04e+00,
10,-2.04e-01,1.08e+00,
11,-1.72e-01,1.04e+00,
12,-1.96e-01,1.04e+00,
13,-1.68e-01,1.08e+00,
14,-1.68e-01,1.04e+00,
15,-1.96e-01,1.12e+00,
16,-1.68e-01,1.12e+00,
17,-1.96e-01,1.04e+00,
18,-1.92e-01,1.12e+00,
19,-1.68e-01,1.04e+00,
20,-1.60e-01,1.12e+00,
21,-1.92e-01,1.04e+00,
22,-1.92e-01,1.04e+00,
23,-1.68e-01,1.12e+00,
24,-1.60e-01,1.04e+00,
25,-1.92e-01,1.12e+00,
26,-1.92e-01,1.08e+00,
27,-1.64e-01,1.12e+00,
28,-1.92e-01,1.08e+00,
29,-1.64e-01,1.12e+00,
30,-1.64e-01,1.08e+00,
31,-1.88e-01,1.12e+00,
32,-1.64e-01,1.08e+00,
33,-1.92e-01,1.16e+00,
34,-1.60e-01,1.16e+00,
35,-1.92e-01,1.08e+00,
36,-1.88e-01,1.08e+00,
37,-1.64e-01,1.16e+00,
38,-1.88e-01,1.16e+00,
39,-1.60e-01,1.08e+00,
40,-1.60e-01,1.12e+00,
41,-1.88e-01,1.08e+00,
42,-1.88e-01,1.12e+00,
43,-1.60e-01,1.08e+00,
44,-1.88e-01,1.12e+00,
45,-1.56e-01,1.08e+00,
46,-1.88e-01,1.12e+00,
47,-1.56e-01,1.08e+00,
48,-1.84e-01,1.12e+00,
49,-1.56e-01,1.08e+00,
50,-1.88e-01,1.12e+00,
51,-1.56e-01,1.08e+00,
52,-1.88e-01,1.12e+00,
53,-1.56e-01,1.08e+00,
54,-1.56e-01,1.12e+00,
55,-1.88e-01,1.08e+00,
56,-1.84e-01,1.12e+00,
57,-1.56e-01,1.08e+00,
58,-1.84e-01,1.08e+00,
59,-1.56e-01,1.16e+00,
60,-1.80e-01,1.08e+00,
61,-1.52e-01,1.16e+00,
62,-1.84e-01,1.16e+00,
63,-1.56e-01,1.08e+00,
64,-1.56e-01,1.16e+00,
65,-1.84e-01,1.08e+00,
66,-1.56e-01,1.16e+00,
67,-1.84e-01,1.08e+00,
68,-1.80e-01,1.08e+00,
69,-1.52e-01,1.16e+00,
70,-1.56e-01,1.16e+00,
71,-1.80e-01,1.08e+00,
72,-1.80e-01,1.16e+00,
73,-1.52e-01,1.12e+00,
74,-1.52e-01,1.16e+00,
75,-1.80e-01,1.12e+00,
76,-1.52e-01,1.16e+00,
77,-1.80e-01,1.12e+00,
78,-1.40e-01,1.12e+00,
79,-1.80e-01,1.20e+00,
80,-1.52e-01,1.16e+00,
81,-1.80e-01,1.08e+00,
82,-1.76e-01,1.16e+00,
83,-1.24e-01,1.08e+00,
84,-1.76e-01,1.16e+00,
85,-1.48e-01,1.08e+00,
86,-1.52e-01,1.16e+00,
87,-1.76e-01,1.08e+00,
88,-1.76e-01,1.16e+00,
89,-1.48e-01,1.08e+00,
90,-1.48e-01,1.16e+00,
91,-1.76e-01,1.08e+00,
92,-1.48e-01,1.08e+00,
93,-1.76e-01,1.16e+00,
94,-1.72e-01,1.08e+00,
95,-1.48e-01,1.16e+00,
96,-1.44e-01,1.08e+00,
97,-1.76e-01,1.16e+00,
98,-1.48e-01,1.16e+00,
99,-1.72e-01,1.08e+00,
100,-1.48e-01,1.08e+00,
101,-1.72e-01,1.16e+00,
102,-1.72e-01,1.08e+00,
103,-1.44e-01,1.16e+00,
104,-1.72e-01,1.16e+00,
105,-1.44e-01,1.08e+00,
106,-1.44e-01,1.16e+00,
107,-1.68e-01,1.08e+00,
108,-1.68e-01,1.16e+00,
109,-1.44e-01,1.12e+00,
110,-1.68e-01,1.16e+00,
111,-1.44e-01,1.08e+00,
112,-1.72e-01,1.08e+00,
113,-1.36e-01,1.16e+00,
114,-1.44e-01,1.16e+00,
115,-1.68e-01,1.12e+00,
116,-1.44e-01,1.12e+00,
117,-1.68e-01,1.20e+00,
118,-1.44e-01,1.16e+00,
119,-1.68e-01,1.12e+00,
120,-1.44e-01,1.12e+00,
121,-1.68e-01,1.16e+00,
122,-1.40e-01,1.16e+00,
123,-1.68e-01,1.12e+00,
124,-1.68e-01,1.12e+00,
125,-1.40e-01,1.20e+00,
126,-1.64e-01,1.16e+00,
127,-1.40e-01,1.12e+00,
128,-1.64e-01,1.08e+00,
129,-1.40e-01,1.16e+00,
130,-1.40e-01,1.08e+00,
131,-1.64e-01,1.16e+00,
132,-1.40e-01,1.08e+00,
133,-1.64e-01,1.16e+00,
134,-1.40e-01,1.16e+00,
135,-1.64e-01,1.08e+00,
136,-1.40e-01,1.16e+00,
137,-1.64e-01,1.08e+00,
138,-1.40e-01,1.16e+00,
139,-1.64e-01,1.08e+00,
140,-1.36e-01,1.16e+00,
141,-1.64e-01,1.08e+00,
142,-1.64e-01,1.08e+00,
143,-1.36e-01,1.16e+00,
144,-1.36e-01,1.16e+00,
145,-1.64e-01,1.08e+00,
146,-1.60e-01,1.08e+00,
147,-1.36e-01,1.16e+00,
148,-1.36e-01,1.12e+00,
149,-1.76e-01,1.04e+00,
150,-1.60e-01,1.12e+00,
151,-1.32e-01,1.04e+00,
152,-1.60e-01,1.04e+00,
153,-1.32e-01,1.12e+00,
154,-1.60e-01,1.04e+00,
155,-1.32e-01,1.12e+00,
156,-1.32e-01,1.04e+00,
157,-1.60e-01,1.12e+00,
158,-1.36e-01,1.12e+00,
159,-1.60e-01,1.04e+00,
160,-1.36e-01,1.12e+00,
161,-1.60e-01,1.04e+00,
162,-1.56e-01,1.12e+00,
163,-1.32e-01,1.04e+00,
164,-1.56e-01,1.12e+00,
165,-1.32e-01,1.04e+00,
166,-1.56e-01,1.12e+00,
167,-1.32e-01,1.04e+00,
168,-1.32e-01,1.12e+00,
169,-1.60e-01,1.04e+00,
170,-1.32e-01,1.12e+00,
171,-1.56e-01,1.04e+00,
172,-1.32e-01,1.04e+00,
173,-1.56e-01,1.12e+00,
174,-1.56e-01,1.04e+00,
175,-1.28e-01,1.12e+00,
176,-1.56e-01,1.04e+00,
177,-1.28e-01,1.08e+00,
178,-1.32e-01,1.04e+00,
179,-1.56e-01,1.08e+00,
180,-1.52e-01,1.08e+00,
181,-1.28e-01,1.04e+00,
182,-1.28e-01,1.08e+00,
183,-1.60e-01,1.04e+00,
184,-1.28e-01,1.08e+00,
185,-1.52e-01,1.00e+00,
186,-1.28e-01,1.00e+00,
187,-1.52e-01,1.08e+00,
188,-1.28e-01,1.00e+00,
189,-1.56e-01,1.08e+00,
190,-1.28e-01,1.08e+00,
191,-1.52e-01,1.00e+00,
192,-1.52e-01,1.00e+00,
193,-1.24e-01,1.08e+00,
194,-1.52e-01,1.00e+00,
195,-1.24e-01,1.04e+00,
196,-1.24e-01,1.00e+00,
197,-1.52e-01,1.04e+00,
198,-1.24e-01,1.00e+00,
199,-1.52e-01,1.08e+00,
200,-1.24e-01,1.08e+00,
201,-1.52e-01,1.00e+00,
202,-1.48e-01,1.04e+00,
203,-1.24e-01,1.00e+00,
204,-1.48e-01,1.00e+00,
205,-1.24e-01,1.04e+00,
206,-1.48e-01,1.08e+00,
207,-1.20e-01,1.00e+00,
208,-1.48e-01,1.08e+00,
209,-1.24e-01,1.00e+00,
210,-1.24e-01,1.08e+00,
211,-1.48e-01,1.00e+00,
212,-1.24e-01,1.00e+00,
213,-1.48e-01,1.08e+00,
214,-1.24e-01,1.00e+00,
215,-1.48e-01,1.04e+00,
216,-1.48e-01,1.04e+00,
217,-1.08e-01,1.00e+00,
218,-1.24e-01,1.04e+00,
219,-1.48e-01,1.00e+00,
220,-1.44e-01,1.04e+00,
221,-1.20e-01,9.60e-01,
222,-1.44e-01,9.60e-01,
223,-1.20e-01,1.04e+00,
224,-1.44e-01,9.60e-01,
225,-1.20e-01,1.00e+00,
226,-1.44e-01,9.60e-01,
227,-1.20e-01,1.00e+00,
228,-1.20e-01,9.60e-01,
229,-1.44e-01,1.00e+00,
230,-1.44e-01,9.60e-01,
231,-1.20e-01,1.00e+00,
232,-1.20e-01,9.60e-01,
233,-1.44e-01,1.04e+00,
234,-1.20e-01,1.00e+00,
235,-1.44e-01,9.60e-01,
236,-1.44e-01,1.00e+00,
237,-1.16e-01,9.20e-01,
238,-1.20e-01,9.20e-01,
239,-1.44e-01,1.00e+00,
240,-1.16e-01,9.20e-01,
241,-1.44e-01,1.00e+00,
242,-1.44e-01,9.20e-01,
243,-1.12e-01,1.00e+00,
244,-1.40e-01,1.00e+00,
245,-1.16e-01,9.20e-01,
246,-1.40e-01,9.20e-01,
247,-1.12e-01,1.00e+00,
248,-1.12e-01,9.20e-01,
249,-1.44e-01,1.00e+00,
250,-1.40e-01,9.20e-01,
251,-9.60e-02,1.00e+00,
252,-1.12e-01,9.60e-01,
253,-1.40e-01,8.80e-01,
254,-1.40e-01,8.80e-01,
255,-1.08e-01,9.60e-01,
256,-1.40e-01,8.80e-01,
257,-1.12e-01,9.60e-01,
258,-1.40e-01,8.80e-01,
259,-1.12e-01,9.60e-01,
260,-1.12e-01,8.80e-01,
261,-1.40e-01,9.60e-01,
262,-1.36e-01,8.80e-01,
263,-1.08e-01,9.60e-01,
264,-1.12e-01,8.80e-01,
265,-1.40e-01,9.60e-01,
266,-1.12e-01,9.60e-01,
267,-1.36e-01,8.80e-01,
268,-1.36e-01,9.60e-01,
269,-1.08e-01,8.80e-01,
270,-1.36e-01,8.80e-01,
271,-1.08e-01,9.60e-01,
272,-1.36e-01,8.80e-01,
273,-1.08e-01,9.60e-01,
274,-1.32e-01,9.20e-01,
275,-1.08e-01,8.80e-01,
276,-1.08e-01,8.80e-01,
277,-1.36e-01,9.20e-01,
278,-1.32e-01,8.80e-01,
279,-1.08e-01,9.20e-01,
280,-1.36e-01,9.20e-01,
281,-1.04e-01,8.80e-01,
282,-1.32e-01,9.20e-01,
283,-1.08e-01,8.80e-01,
284,-1.36e-01,9.20e-01,
285,-1.04e-01,8.40e-01,
286,-1.04e-01,8.40e-01,
287,-1.36e-01,9.20e-01,
288,-1.32e-01,9.20e-01,
289,-1.04e-01,8.40e-01,
290,-1.32e-01,9.20e-01,
291,-1.08e-01,8.40e-01,
292,-1.32e-01,8.40e-01,
293,-1.04e-01,9.20e-01,
294,-1.04e-01,8.40e-01,
295,-1.32e-01,9.20e-01,
296,-1.04e-01,8.40e-01,
297,-1.32e-01,9.20e-01,
298,-1.04e-01,8.40e-01,
299,-1.32e-01,9.20e-01,
300,-1.00e-01,9.20e-01,
301,-1.32e-01,8.40e-01,
302,-1.32e-01,8.40e-01,
303,-1.04e-01,9.20e-01,
304,-1.04e-01,8.40e-01,
305,-1.28e-01,9.20e-01,
306,-1.28e-01,9.20e-01,
307,-1.00e-01,8.40e-01,
308,-1.28e-01,8.40e-01,
309,-1.00e-01,9.20e-01,
310,-1.32e-01,9.20e-01,
311,-1.00e-01,8.40e-01,
312,-1.28e-01,8.40e-01,
313,-1.04e-01,9.20e-01,
314,-1.00e-01,8.40e-01,
315,-1.28e-01,8.80e-01,
316,-1.00e-01,8.40e-01,
317,-1.28e-01,8.80e-01,
318,-1.00e-01,8.40e-01,
319,-1.28e-01,9.20e-01,
320,-1.28e-01,8.40e-01,
321,-9.20e-02,8.80e-01,
322,-1.00e-01,8.80e-01,
323,-1.28e-01,8.00e-01,
324,-1.00e-01,8.80e-01,
325,-1.28e-01,8.40e-01,
326,-1.00e-01,8.80e-01,
327,-1.24e-01,8.00e-01,
328,-1.00e-01,8.00e-01,
329,-1.28e-01,8.80e-01,
330,-9.60e-02,8.00e-01,
331,-1.24e-01,8.40e-01,
332,-1.00e-01,8.00e-01,
333,-1.28e-01,8.80e-01,
334,-1.00e-01,8.00e-01,
335,-1.24e-01,8.80e-01,
336,-9.60e-02,8.00e-01,
337,-1.24e-01,8.80e-01,
338,-1.20e-01,8.00e-01,
339,-9.60e-02,8.80e-01,
340,-1.24e-01,8.00e-01,
341,-8.80e-02,8.40e-01,
342,-1.20e-01,8.00e-01,
343,-9.60e-02,8.40e-01,
344,-1.20e-01,8.00e-01,
345,-9.60e-02,8.40e-01,
346,-9.20e-02,8.40e-01,
347,-1.20e-01,7.60e-01,
348,-9.60e-02,7.60e-01,
349,-1.20e-01,8.40e-01,
350,-1.20e-01,7.60e-01,
351,-9.20e-02,8.40e-01,
352,-9.20e-02,7.60e-01,
353,-1.20e-01,8.40e-01,
354,-1.28e-01,7.60e-01,
355,-7.60e-02,8.40e-01,
356,-9.20e-02,7.60e-01,
357,-1.20e-01,8.00e-01,
358,-1.20e-01,7.60e-01,
359,-9.20e-02,8.40e-01,
360,-1.16e-01,7.60e-01,
361,-9.20e-02,8.00e-01,
362,-1.16e-01,7.60e-01,
363,-9.20e-02,8.00e-01,
364,-9.20e-02,7.60e-01,
365,-1.20e-01,8.00e-01,
366,-1.16e-01,7.60e-01,
367,-9.20e-02,8.40e-01,
368,-9.20e-02,7.60e-01,
369,-1.16e-01,8.40e-01,
370,-9.20e-02,8.00e-01,
371,-1.16e-01,6.80e-01,
372,-1.16e-01,8.00e-01,
373,-8.80e-02,6.80e-01,
374,-9.20e-02,6.80e-01,
375,-1.16e-01,8.00e-01,
376,-1.16e-01,8.00e-01,
377,-8.80e-02,6.80e-01,
378,-8.80e-02,8.00e-01,
379,-1.16e-01,6.80e-01,
380,-1.16e-01,8.00e-01,
381,-8.80e-02,6.80e-01,
382,-9.20e-02,7.60e-01,
383,-1.16e-01,6.80e-01,
384,-8.80e-02,7.20e-01,
385,-1.16e-01,6.80e-01,
386,-1.16e-01,7.20e-01,
387,-8.40e-02,6.40e-01,
388,-1.12e-01,7.20e-01,
389,-8.80e-02,6.40e-01,
390,-8.00e-02,7.20e-01,
391,-1.24e-01,6.40e-01,
392,-1.12e-01,7.20e-01,
393,-8.80e-02,6.40e-01,
394,-1.12e-01,7.20e-01,
395,-8.80e-02,6.80e-01,
396,-1.12e-01,7.20e-01,
397,-8.80e-02,6.40e-01,
398,-8.80e-02,7.20e-01,
399,-1.12e-01,6.40e-01,
400,-8.80e-02,7.20e-01,
401,-1.12e-01,6.40e-01,
402,-1.12e-01,7.20e-01,
403,-8.40e-02,6.40e-01,
404,-8.40e-02,7.20e-01,
405,-1.12e-01,6.80e-01,
406,-8.40e-02,7.20e-01,
407,-1.12e-01,6.80e-01,
408,-1.12e-01,7.20e-01,
409,-8.40e-02,6.40e-01,
410,-1.12e-01,7.20e-01,
411,1.68e-01,6.40e-01,
412,3.60e-02,7.20e-01,
413,1.16e-01,6.40e-01,
414,9.20e-02,7.20e-01,
415,1.24e-01,6.40e-01,
416,1.04e-01,6.80e-01,
417,1.40e-01,6.40e-01,
418,1.44e-01,6.80e-01,
419,1.12e-01,6.40e-01,
420,1.24e-01,6.80e-01,
421,1.56e-01,6.40e-01,
422,1.60e-01,6.80e-01,
423,1.32e-01,6.00e-01,
424,1.40e-01,6.80e-01,
425,1.76e-01,6.00e-01,
426,1.48e-01,6.40e-01,
427,1.76e-01,5.60e-01,
428,1.56e-01,6.00e-01,
429,1.84e-01,5.20e-01,
430,1.60e-01,6.00e-01,
431,1.92e-01,4.80e-01,
432,1.68e-01,5.20e-01,
433,1.96e-01,4.40e-01,
434,1.72e-01,4.80e-01,
435,2.00e-01,3.60e-01,
436,1.80e-01,4.00e-01,
437,2.04e-01,2.80e-01,
438,1.80e-01,3.20e-01,
439,2.08e-01,2.00e-01,
440,2.12e-01,2.40e-01,
441,1.80e-01,4.00e-02,
442,1.84e-01,8.00e-02,
443,2.12e-01,-8.00e-02,
444,1.88e-01,-4.00e-02,
445,2.12e-01,-2.80e-01,
446,1.88e-01,-2.40e-01,
447,2.16e-01,-5.20e-01,
448,1.88e-01,-4.80e-01,
449,2.16e-01,-7.60e-01,
450,2.16e-01,-7.20e-01,
451,1.92e-01,-1.00e+00,
452,1.92e-01,-1.00e+00,
453,2.20e-01,-1.24e+00,
454,2.16e-01,-1.20e+00,
455,1.92e-01,-1.44e+00,
456,1.92e-01,-1.40e+00,
457,2.20e-01,-1.60e+00,
458,1.92e-01,-1.52e+00,
459,2.24e-01,-1.64e+00,
460,2.16e-01,-1.60e+00,
461,1.92e-01,-1.68e+00,
462,1.92e-01,-1.64e+00,
463,2.16e-01,-1.68e+00,
464,2.16e-01,-1.64e+00,
465,1.88e-01,-1.68e+00,
466,2.16e-01,-1.64e+00,
467,1.88e-01,-1.72e+00,
468,2.16e-01,-1.72e+00,
469,1.88e-01,-1.60e+00,
470,1.88e-01,-1.68e+00,
471,2.12e-01,-1.60e+00,
472,1.84e-01,-1.68e+00,
473,2.16e-01,-1.60e+00,
474,2.12e-01,-1.64e+00,
475,1.84e-01,-1.56e+00,
476,1.84e-01,-1.60e+00,
477,2.12e-01,-1.48e+00,
478,1.84e-01,-1.52e+00,
479,2.12e-01,-1.44e+00,
480,2.08e-01,-1.48e+00,
481,1.84e-01,-1.44e+00,
482,1.84e-01,-1.48e+00,
483,2.08e-01,-1.44e+00,
484,2.08e-01,-1.48e+00,
485,1.80e-01,-1.40e+00,
486,1.80e-01,-1.40e+00,
487,2.08e-01,-1.44e+00,
488,1.80e-01,-1.44e+00,
489,2.04e-01,-1.40e+00,
490,2.04e-01,-1.44e+00,
491,1.80e-01,-1.36e+00,
492,2.04e-01,-1.44e+00,
493,1.80e-01,-1.36e+00,
494,2.24e-01,-1.40e+00,
495,1.80e-01,-1.28e+00,
496,1.76e-01,-1.36e+00,
497,2.04e-01,-1.24e+00,
498,2.04e-01,-1.28e+00,
499,1.76e-01,-1.16e+00,
500,2.00e-01,-1.24e+00,
501,1.72e-01,-1.12e+00,
502,2.00e-01,-1.16e+00,
503,1.76e-01,-1.08e+00,
504,2.00e-01,-1.12e+00,
505,1.72e-01,-1.04e+00,
506,2.00e-01,-1.08e+00,
507,1.72e-01,-1.00e+00,
508,2.00e-01,-1.00e+00,
509,1.72e-01,-1.08e+00,
510,1.96e-01,-1.08e+00,
511,1.72e-01,-1.04e+00,
512,1.72e-01,-1.04e+00,
513,2.00e-01,-1.12e+00,
514,2.00e-01,-1.04e+00,
515,1.68e-01,-1.12e+00,
516,1.96e-01,-1.08e+00,
517,1.72e-01,-1.16e+00,
518,1.96e-01,-1.12e+00,
519,1.72e-01,-1.16e+00,
520,1.96e-01,-1.12e+00,
521,1.68e-01,-1.20e+00,
522,1.96e-01,-1.20e+00,
523,1.68e-01,-1.12e+00,
524,1.92e-01,-1.20e+00,
525,1.68e-01,-1.12e+00,
526,1.68e-01,-1.12e+00,
527,1.96e-01,-1.20e+00,
528,1.96e-01,-1.16e+00,
529,1.64e-01,-1.20e+00,
530,1.92e-01,-1.20e+00,
531,1.64e-01,-1.16e+00,
532,1.68e-01,-1.20e+00,
533,1.96e-01,-1.16e+00,
534,1.64e-01,-1.16e+00,
535,1.92e-01,-1.20e+00,
536,1.96e-01,-1.20e+00,
537,1.64e-01,-1.12e+00,
538,1.88e-01,-1.20e+00,
539,1.60e-01,-1.16e+00,
540,1.60e-01,-1.20e+00,
541,1.88e-01,-1.12e+00,
542,1.64e-01,-1.12e+00,
543,1.92e-01,-1.20e+00,
544,1.88e-01,-1.16e+00,
545,1.60e-01,-1.24e+00,
546,1.92e-01,-1.16e+00,
547,1.60e-01,-1.28e+00,
548,1.60e-01,-1.20e+00,
549,1.88e-01,-1.32e+00,
550,1.88e-01,-1.24e+00,
551,1.56e-01,-1.36e+00,
552,1.60e-01,-1.32e+00,
553,1.88e-01,-1.40e+00,
554,1.88e-01,-1.36e+00,
555,1.60e-01,-1.44e+00,
556,1.88e-01,-1.36e+00,
557,1.56e-01,-1.44e+00,
558,1.88e-01,-1.44e+00,
559,1.56e-01,-1.36e+00,
560,1.60e-01,-1.44e+00,
561,1.84e-01,-1.36e+00,
562,1.88e-01,-1.44e+00,
563,1.44e-01,-1.36e+00,
564,1.56e-01,-1.40e+00,
565,1.84e-01,-1.32e+00,
566,1.52e-01,-1.36e+00,
567,1.84e-01,-1.32e+00,
568,1.84e-01,-1.36e+00,
569,1.52e-01,-1.28e+00,
570,1.80e-01,-1.28e+00,
571,1.52e-01,-1.32e+00,
572,1.56e-01,-1.32e+00,
573,1.80e-01,-1.24e+00,
574,1.56e-01,-1.32e+00,
575,1.76e-01,-1.24e+00,
576,1.76e-01,-1.32e+00,
577,1.52e-01,-1.24e+00,
578,1.76e-01,-1.32e+00,
579,1.52e-01,-1.24e+00,
580,1.76e-01,-1.24e+00,
581,1.52e-01,-1.28e+00,
582,1.76e-01,-1.24e+00,
583,1.52e-01,-1.32e+00,
584,1.76e-01,-1.32e+00,
585,1.52e-01,-1.24e+00,
586,1.76e-01,-1.32e+00,
587,1.48e-01,-1.24e+00,
588,1.76e-01,-1.24e+00,
589,1.52e-01,-1.32e+00,
590,1.76e-01,-1.32e+00,
591,1.52e-01,-1.24e+00,
592,1.48e-01,-1.24e+00,
593,1.76e-01,-1.32e+00,
594,1.76e-01,-1.28e+00,
595,1.48e-01,-1.20e+00,
596,1.84e-01,-1.28e+00,
597,1.32e-01,-1.16e+00,
598,1.48e-01,-1.24e+00,
599,2.32e-01,-1.12e+00,
600,1.44e-01,-1.16e+00,
601,1.72e-01,-1.08e+00,
602,1.72e-01,-1.12e+00,
603,1.48e-01,-1.04e+00,
604,1.72e-01,-1.08e+00,
605,1.44e-01,-1.00e+00,
606,1.68e-01,-1.00e+00,
607,1.44e-01,-1.04e+00,
608,1.48e-01,-1.00e+00,
609,1.72e-01,-1.08e+00,
610,1.44e-01,-1.00e+00,
611,1.72e-01,-1.08e+00,
612,1.68e-01,-1.00e+00,
613,1.44e-01,-1.08e+00,
614,1.68e-01,-1.04e+00,
615,1.44e-01,-1.08e+00,
616,1.44e-01,-1.04e+00,
617,1.72e-01,-1.08e+00,
618,1.44e-01,-1.04e+00,
619,1.68e-01,-1.12e+00,
620,1.68e-01,-1.12e+00,
621,1.44e-01,-1.04e+00,
622,1.40e-01,-1.08e+00,
623,1.68e-01,-1.16e+00,
624,1.68e-01,-1.08e+00,
625,1.40e-01,-1.16e+00,
626,1.68e-01,-1.08e+00,
627,1.40e-01,-1.16e+00,
628,1.64e-01,-1.16e+00,
629,1.40e-01,-1.08e+00,
630,1.64e-01,-1.08e+00,
631,1.40e-01,-1.16e+00,
632,1.40e-01,-1.16e+00,
633,1.76e-01,-1.08e+00,
634,1.40e-01,-1.08e+00,
635,1.64e-01,-1.16e+00,
636,1.36e-01,-1.08e+00,
637,1.64e-01,-1.12e+00,
638,1.64e-01,-1.12e+00,
639,1.36e-01,-1.04e+00,
640,1.40e-01,-1.12e+00,
641,1.64e-01,-1.04e+00,
642,1.64e-01,-1.04e+00,
643,1.36e-01,-1.12e+00,
644,1.60e-01,-1.08e+00,
645,1.36e-01,-1.16e+00,
646,1.36e-01,-1.08e+00,
647,1.64e-01,-1.20e+00,
648,1.36e-01,-1.12e+00,
649,1.64e-01,-1.24e+00,
650,1.36e-01,-1.20e+00,
651,1.64e-01,-1.28e+00,
652,1.60e-01,-1.20e+00,
653,1.36e-01,-1.32e+00,
654,1.64e-01,-1.28e+00,
655,1.36e-01,-1.36e+00,
656,1.60e-01,-1.36e+00,
657,1.32e-01,-1.28e+00,
658,1.36e-01,-1.36e+00,
659,1.60e-01,-1.28e+00,
660,1.36e-01,-1.32e+00,
661,1.60e-01,-1.24e+00,
662,1.32e-01,-1.24e+00,
663,1.60e-01,-1.32e+00,
664,1.32e-01,-1.28e+00,
665,1.60e-01,-1.20e+00,
666,1.20e-01,-1.24e+00,
667,1.60e-01,-1.16e+00,
668,1.56e-01,-1.24e+00,
669,1.32e-01,-1.16e+00,
670,1.32e-01,-1.20e+00,
671,1.56e-01,-1.16e+00,
672,1.32e-01,-1.20e+00,
673,1.56e-01,-1.12e+00,
674,1.32e-01,-1.12e+00,
675,1.56e-01,-1.16e+00,
676,1.56e-01,-1.16e+00,
677,1.28e-01,-1.12e+00,
678,1.28e-01,-1.12e+00,
679,1.56e-01,-1.16e+00,
680,1.28e-01,-1.16e+00,
681,1.56e-01,-1.08e+00,
682,1.28e-01,-1.16e+00,
683,1.56e-01,-1.08e+00,
684,1.52e-01,-1.16e+00,
685,1.28e-01,-1.08e+00,
686,1.52e-01,-1.16e+00,
687,1.28e-01,-1.08e+00,
688,1.52e-01,-1.08e+00,
689,1.28e-01,-1.16e+00,
690,1.52e-01,-1.16e+00,
691,1.28e-01,-1.12e+00,
692,1.52e-01,-1.16e+00,
693,1.28e-01,-1.08e+00,
694,1.28e-01,-1.12e+00,
695,1.52e-01,-1.04e+00,
696,1.52e-01,-1.08e+00,
697,1.28e-01,-1.00e+00,
698,1.28e-01,-1.04e+00,
699,1.52e-01,-9.60e-01,
700,1.60e-01,-9.60e-01,
701,1.00e-01,-8.40e-01,
702,1.24e-01,-9.20e-01,
703,1.52e-01,-8.00e-01,
704,1.24e-01,-8.00e-01,
705,1.52e-01,-8.80e-01,
706,1.48e-01,-8.40e-01,
707,1.20e-01,-7.60e-01,
708,1.24e-01,-8.40e-01,
709,1.48e-01,-7.60e-01,
710,1.48e-01,-7.60e-01,
711,1.24e-01,-8.40e-01,
712,1.20e-01,-7.60e-01,
713,1.52e-01,-8.40e-01,
714,1.48e-01,-8.40e-01,
715,1.24e-01,-8.00e-01,
716,1.20e-01,-8.00e-01,
717,1.48e-01,-8.80e-01,
718,1.44e-01,-8.80e-01,
719,1.20e-01,-8.00e-01,
720,1.44e-01,-8.40e-01,
721,1.20e-01,-9.20e-01,
722,1.48e-01,-9.20e-01,
723,1.16e-01,-8.40e-01,
724,1.44e-01,-9.20e-01,
725,1.16e-01,-8.40e-01,
726,1.16e-01,-9.20e-01,
727,1.48e-01,-8.40e-01,
728,1.44e-01,-9.20e-01,
729,1.20e-01,-8.40e-01,
730,1.48e-01,-8.40e-01,
731,1.16e-01,-9.20e-01,
732,1.44e-01,-8.40e-01,
733,1.16e-01,-9.20e-01,
734,1.44e-01,-9.20e-01,
735,1.08e-01,-8.40e-01,
736,1.44e-01,-9.20e-01,
737,1.12e-01,-8.40e-01,
738,1.40e-01,-8.80e-01,
739,1.16e-01,-8.00e-01,
740,1.12e-01,-8.80e-01,
741,1.44e-01,-8.00e-01,
742,1.16e-01,-8.00e-01,
743,1.44e-01,-8.80e-01,
744,1.16e-01,-8.40e-01,
745,1.44e-01,-9.20e-01,
746,1.40e-01,-8.40e-01,
747,1.16e-01,-9.60e-01,
748,1.12e-01,-1.00e+00,
749,1.44e-01,-8.80e-01,
750,1.16e-01,-9.60e-01,
751,1.40e-01,-1.08e+00,
752,1.40e-01,-1.08e+00,
753,1.12e-01,-1.00e+00,
754,1.40e-01,-1.04e+00,
755,1.12e-01,-1.12e+00,
756,1.12e-01,-1.08e+00,
757,1.40e-01,-1.16e+00,
758,1.40e-01,-1.08e+00,
759,1.12e-01,-1.16e+00,
760,1.12e-01,-1.08e+00,
761,1.40e-01,-1.16e+00,
762,1.12e-01,-1.12e+00,
763,1.36e-01,-1.04e+00,
764,1.12e-01,-1.04e+00,
765,1.40e-01,-1.12e+00,
766,1.36e-01,-1.08e+00,
767,1.08e-01,-1.00e+00,
768,1.36e-01,-1.00e+00,
769,1.08e-01,-1.08e+00,
770,1.36e-01,-1.04e+00,
771,1.04e-01,-9.60e-01,
772,1.08e-01,-1.04e+00,
773,1.36e-01,-9.60e-01,
774,1.40e-01,-1.00e+00,
775,1.08e-01,-9.60e-01,
776,1.08e-01,-9.60e-01,
777,1.36e-01,-9.60e-01,
778,1.36e-01,-9.60e-01,
779,1.08e-01,-1.00e+00,
780,1.08e-01,-9.60e-01,
781,1.32e-01,-9.60e-01,
782,1.32e-01,-9.60e-01,
783,1.04e-01,-9.60e-01,
784,1.08e-01,-9.60e-01,
785,1.32e-01,-9.60e-01,
786,1.08e-01,-9.60e-01,
787,1.36e-01,-9.60e-01,
788,1.08e-01,-9.60e-01,
789,1.36e-01,-9.20e-01,
790,1.04e-01,-9.60e-01,
791,1.32e-01,-9.20e-01,
792,1.08e-01,-9.60e-01,
793,1.32e-01,-9.20e-01,
794,1.28e-01,-8.80e-01,
795,1.04e-01,-9.60e-01,
796,1.32e-01,-9.20e-01,
797,1.04e-01,-8.40e-01,
798,1.04e-01,-8.80e-01,
799,1.32e-01,-8.00e-01,
800,1.04e-01,-8.40e-01,
801,1.32e-01,-7.20e-01,
802,1.28e-01,-7.60e-01,
803,1.04e-01,-6.80e-01,
804,1.32e-01,-7.20e-01,
805,8.80e-02,-6.80e-01,
806,1.04e-01,-7.20e-01,
807,1.28e-01,-6.40e-01,
808,1.00e-01,-6.80e-01,
809,1.28e-01,-6.40e-01,
810,1.32e-01,-6.40e-01,
811,1.04e-01,-7.20e-01,
812,1.28e-01,-6.40e-01,
813,1.00e-01,-7.20e-01,
814,1.00e-01,-6.80e-01,
815,1.28e-01,-7.20e-01,
816,1.00e-01,-6.80e-01,
817,1.28e-01,-7.60e-01,
818,1.28e-01,-7.60e-01,
819,1.00e-01,-7.20e-01,
820,1.24e-01,-7.60e-01,
821,1.00e-01,-7.20e-01,
822,1.00e-01,-7.20e-01,
823,1.24e-01,-8.00e-01,
824,1.28e-01,-7.20e-01,
825,1.00e-01,-8.00e-01,
826,1.24e-01,-8.00e-01,
827,1.00e-01,-7.60e-01,
828,1.00e-01,-8.00e-01,
829,1.28e-01,-7.20e-01,
830,1.00e-01,-8.00e-01,
831,1.24e-01,-7.20e-01,
832,1.24e-01,-8.00e-01,
833,9.60e-02,-7.20e-01,
834,1.00e-01,-8.00e-01,
835,1.24e-01,-7.20e-01,
