APL/APL2-3/data/E3_day1_data/实验2/noon/（二）-3-（e）-1/5Vpp.csv

X,CH1,CH3,Start,Increment,
Sequence,Volt,Volt,-1.200000e-01,2.000000e-04
0,3.00e-01,2.24e+00,
1,2.40e-01,2.16e+00,
2,3.00e-01,2.16e+00,
3,2.40e-01,2.32e+00,
4,3.00e-01,2.32e+00,
5,2.40e-01,2.16e+00,
6,3.00e-01,2.16e+00,
7,2.40e-01,2.32e+00,
8,3.00e-01,2.32e+00,
9,2.40e-01,2.16e+00,
10,3.00e-01,2.32e+00,
11,2.40e-01,2.16e+00,
12,3.00e-01,2.32e+00,
13,2.40e-01,2.16e+00,
14,3.00e-01,2.32e+00,
15,2.40e-01,2.16e+00,
16,2.40e-01,2.32e+00,
17,3.00e-01,2.16e+00,
18,3.00e-01,2.32e+00,
19,2.40e-01,2.24e+00,
20,3.00e-01,2.32e+00,
21,2.40e-01,2.24e+00,
22,3.00e-01,2.32e+00,
23,2.40e-01,2.24e+00,
24,3.00e-01,2.32e+00,
25,2.40e-01,2.24e+00,
26,3.00e-01,2.32e+00,
27,2.40e-01,2.24e+00,
28,3.00e-01,2.32e+00,
29,2.40e-01,2.24e+00,
30,3.00e-01,2.32e+00,
31,2.40e-01,2.24e+00,
32,3.00e-01,2.24e+00,
33,2.40e-01,2.32e+00,
34,3.00e-01,2.32e+00,
35,2.40e-01,2.24e+00,
36,3.00e-01,2.32e+00,
37,2.40e-01,2.24e+00,
38,3.00e-01,2.32e+00,
39,2.40e-01,2.24e+00,
40,3.00e-01,2.32e+00,
41,2.40e-01,2.24e+00,
42,3.00e-01,2.24e+00,
43,2.20e-01,2.32e+00,
44,2.20e-01,2.24e+00,
45,3.00e-01,2.32e+00,
46,3.00e-01,2.24e+00,
47,2.20e-01,2.32e+00,
48,2.80e-01,2.32e+00,
49,2.20e-01,2.24e+00,
50,2.80e-01,2.32e+00,
51,2.20e-01,2.24e+00,
52,2.80e-01,2.32e+00,
53,2.20e-01,2.24e+00,
54,2.80e-01,2.24e+00,
55,2.20e-01,2.32e+00,
56,2.80e-01,2.32e+00,
57,2.20e-01,2.24e+00,
58,2.80e-01,2.24e+00,
59,2.20e-01,2.40e+00,
60,2.20e-01,2.32e+00,
61,2.80e-01,2.24e+00,
62,2.80e-01,2.32e+00,
63,2.20e-01,2.24e+00,
64,2.80e-01,2.24e+00,
65,2.20e-01,2.40e+00,
66,2.80e-01,2.40e+00,
67,2.20e-01,2.24e+00,
68,2.80e-01,2.32e+00,
69,2.20e-01,2.24e+00,
70,2.80e-01,2.32e+00,
71,2.20e-01,2.24e+00,
72,2.80e-01,2.24e+00,
73,2.20e-01,2.32e+00,
74,2.80e-01,2.32e+00,
75,2.20e-01,2.24e+00,
76,2.80e-01,2.32e+00,
77,2.20e-01,2.24e+00,
78,2.80e-01,2.24e+00,
79,2.20e-01,2.32e+00,
80,2.80e-01,2.32e+00,
81,2.20e-01,2.24e+00,
82,2.80e-01,2.32e+00,
83,2.20e-01,2.24e+00,
84,2.80e-01,2.24e+00,
85,2.20e-01,2.40e+00,
86,2.20e-01,2.40e+00,
87,2.80e-01,2.24e+00,
88,2.20e-01,2.32e+00,
89,2.80e-01,2.24e+00,
90,2.20e-01,2.32e+00,
91,2.80e-01,2.24e+00,
92,2.20e-01,2.32e+00,
93,2.80e-01,2.24e+00,
94,2.20e-01,2.24e+00,
95,2.80e-01,2.32e+00,
96,2.00e-01,2.24e+00,
97,2.80e-01,2.32e+00,
98,2.00e-01,2.24e+00,
99,2.80e-01,2.32e+00,
100,2.40e-01,2.32e+00,
101,-3.00e-01,2.24e+00,
102,-2.40e-01,2.24e+00,
103,-3.40e-01,2.32e+00,
104,-2.80e-01,2.32e+00,
105,-3.80e-01,2.24e+00,
106,-3.00e-01,2.32e+00,
107,-4.00e-01,2.24e+00,
108,-3.40e-01,2.32e+00,
109,-4.20e-01,2.16e+00,
110,-3.60e-01,2.24e+00,
111,-4.40e-01,2.00e+00,
112,-3.80e-01,2.08e+00,
113,-4.60e-01,1.20e+00,
114,-4.00e-01,1.20e+00,
115,-4.80e-01,-3.92e+00,
116,-4.20e-01,-4.00e+00,
117,-5.00e-01,-5.68e+00,
118,-4.40e-01,-5.60e+00,
119,-5.20e-01,-5.84e+00,
120,-4.60e-01,-5.68e+00,
121,-5.20e-01,-5.84e+00,
122,-4.60e-01,-5.76e+00,
123,-5.40e-01,-5.68e+00,
124,-4.80e-01,-5.76e+00,
125,-5.40e-01,-5.68e+00,
126,-5.40e-01,-5.76e+00,
127,-4.80e-01,-5.68e+00,
128,-5.40e-01,-5.76e+00,
129,-4.80e-01,-5.60e+00,
130,-5.40e-01,-5.76e+00,
131,-4.80e-01,-5.60e+00,
132,-5.40e-01,-5.68e+00,
133,-4.80e-01,-5.52e+00,
134,-5.40e-01,-5.68e+00,
135,-4.80e-01,-5.52e+00,
136,-5.40e-01,-5.60e+00,
137,-4.80e-01,-5.44e+00,
138,-5.40e-01,-5.52e+00,
139,-4.80e-01,-5.44e+00,
140,-5.40e-01,-5.52e+00,
141,-4.80e-01,-5.36e+00,
142,-4.80e-01,-5.44e+00,
143,-5.40e-01,-5.28e+00,
144,-4.80e-01,-5.28e+00,
145,-5.40e-01,-5.12e+00,
146,-4.80e-01,-5.28e+00,
147,-5.40e-01,-5.12e+00,
148,-5.40e-01,-5.20e+00,
149,-4.80e-01,-5.04e+00,
150,-5.40e-01,-5.12e+00,
151,-4.80e-01,-4.96e+00,
152,-4.80e-01,-5.04e+00,
153,-5.40e-01,-4.96e+00,
154,-5.40e-01,-4.88e+00,
155,-4.60e-01,-5.04e+00,
156,-5.40e-01,-4.96e+00,
157,-4.60e-01,-4.80e+00,
158,-4.60e-01,-4.88e+00,
159,-5.40e-01,-4.72e+00,
160,-5.40e-01,-4.80e+00,
161,-4.60e-01,-4.64e+00,
162,-5.20e-01,-4.72e+00,
163,-4.60e-01,-4.56e+00,
164,-5.20e-01,-4.72e+00,
165,-4.60e-01,-4.48e+00,
166,-4.60e-01,-4.64e+00,
167,-5.20e-01,-4.40e+00,
168,-5.20e-01,-4.56e+00,
169,-4.60e-01,-4.32e+00,
170,-4.60e-01,-4.32e+00,
171,-5.20e-01,-4.48e+00,
172,-5.20e-01,-4.40e+00,
173,-4.60e-01,-4.24e+00,
174,-5.20e-01,-4.32e+00,
175,-4.60e-01,-4.08e+00,
176,-4.60e-01,-4.16e+00,
177,-5.20e-01,-4.00e+00,
178,-5.20e-01,-4.08e+00,
179,-4.60e-01,-3.92e+00,
180,-4.60e-01,-4.00e+00,
181,-5.20e-01,-3.84e+00,
182,-5.20e-01,-3.92e+00,
183,-4.40e-01,-3.76e+00,
184,-5.20e-01,-3.84e+00,
185,-4.40e-01,-3.68e+00,
186,-5.00e-01,-3.76e+00,
187,-4.40e-01,-3.60e+00,
188,-4.40e-01,-3.68e+00,
189,-5.00e-01,-3.52e+00,
190,-5.00e-01,-3.60e+00,
191,-4.40e-01,-3.44e+00,
192,-5.00e-01,-3.52e+00,
193,-4.40e-01,-3.36e+00,
194,-4.40e-01,-3.44e+00,
195,-5.00e-01,-3.28e+00,
196,-4.40e-01,-3.36e+00,
197,-5.00e-01,-3.20e+00,
198,-4.40e-01,-3.28e+00,
199,-5.00e-01,-3.12e+00,
200,-5.00e-01,-3.20e+00,
201,-4.40e-01,-3.04e+00,
202,-4.40e-01,-3.20e+00,
203,-5.00e-01,-2.88e+00,
204,-4.40e-01,-3.04e+00,
205,-5.00e-01,-2.88e+00,
206,-5.00e-01,-2.96e+00,
207,-4.40e-01,-2.80e+00,
208,-4.40e-01,-2.88e+00,
209,-5.00e-01,-2.72e+00,
210,-5.00e-01,-2.80e+00,
211,-4.20e-01,-2.64e+00,
212,-4.40e-01,-2.72e+00,
213,-5.00e-01,-2.56e+00,
214,-4.20e-01,-2.64e+00,
215,-5.00e-01,-2.48e+00,
216,-4.20e-01,-2.56e+00,
217,-5.00e-01,-2.40e+00,
218,-4.80e-01,-2.48e+00,
219,-4.20e-01,-2.32e+00,
220,-4.20e-01,-2.32e+00,
221,-4.80e-01,-2.48e+00,
222,-4.20e-01,-2.40e+00,
223,-4.80e-01,-2.24e+00,
224,-4.20e-01,-2.32e+00,
225,-4.80e-01,-2.16e+00,
226,-4.80e-01,-2.24e+00,
227,-4.20e-01,-2.08e+00,
228,-4.20e-01,-2.16e+00,
229,-4.80e-01,-2.00e+00,
230,-4.20e-01,-2.08e+00,
231,-4.80e-01,-1.92e+00,
232,-4.20e-01,-1.92e+00,
233,-4.80e-01,-1.92e+00,
234,-4.80e-01,-1.92e+00,
235,-4.20e-01,-1.76e+00,
236,-4.80e-01,-1.84e+00,
237,-4.20e-01,-1.68e+00,
238,-4.20e-01,-1.76e+00,
239,-4.80e-01,-1.60e+00,
240,-4.80e-01,-1.68e+00,
241,-4.00e-01,-1.52e+00,
242,-4.20e-01,-1.60e+00,
243,-4.80e-01,-1.44e+00,
244,-4.20e-01,-1.44e+00,
245,-4.80e-01,-1.60e+00,
246,-4.20e-01,-1.52e+00,
247,-4.80e-01,-1.36e+00,
248,-4.80e-01,-1.44e+00,
249,-4.00e-01,-1.28e+00,
250,-4.00e-01,-1.28e+00,
251,-4.60e-01,-1.36e+00,
252,-4.60e-01,-1.36e+00,
253,-4.00e-01,-1.20e+00,
254,-4.60e-01,-1.28e+00,
255,-4.00e-01,-1.12e+00,
256,-4.00e-01,-1.20e+00,
257,-4.60e-01,-1.04e+00,
258,-4.00e-01,-1.04e+00,
259,-4.60e-01,-1.20e+00,
260,-4.00e-01,-1.12e+00,
261,-4.60e-01,-9.60e-01,
262,-4.00e-01,-1.04e+00,
263,-4.60e-01,-8.80e-01,
264,-4.00e-01,-8.80e-01,
265,-4.60e-01,-9.60e-01,
266,-4.60e-01,-9.60e-01,
267,-4.00e-01,-8.00e-01,
268,-4.00e-01,-8.00e-01,
269,-4.60e-01,-8.80e-01,
270,-4.60e-01,-8.00e-01,
271,-4.00e-01,-6.40e-01,
272,-4.00e-01,-7.20e-01,
273,-4.60e-01,-5.60e-01,
274,-4.60e-01,-6.40e-01,
275,-3.80e-01,-4.80e-01,
276,-4.60e-01,-6.40e-01,
277,-3.80e-01,-4.80e-01,
278,-3.80e-01,-5.60e-01,
279,-4.60e-01,-4.00e-01,
280,-4.40e-01,-4.80e-01,
281,-3.80e-01,-3.20e-01,
282,-3.80e-01,-3.20e-01,
283,-4.40e-01,-4.00e-01,
284,-3.80e-01,-4.00e-01,
285,-4.40e-01,-2.40e-01,
286,-3.80e-01,-3.20e-01,
287,-4.40e-01,-1.60e-01,
288,-3.80e-01,-1.60e-01,
289,-4.40e-01,-3.20e-01,
290,-3.80e-01,-2.40e-01,
291,-4.40e-01,-8.00e-02,
292,-4.40e-01,-2.40e-01,
293,-3.80e-01,-8.00e-02,
294,-4.40e-01,-1.60e-01,
295,-3.80e-01,0.00e+00,
296,-3.80e-01,0.00e+00,
297,-4.40e-01,-8.00e-02,
298,-3.80e-01,-8.00e-02,
299,-4.40e-01,8.00e-02,
300,-3.80e-01,0.00e+00,
301,-4.40e-01,8.00e-02,
302,-3.80e-01,0.00e+00,
303,-4.40e-01,1.60e-01,
304,-4.40e-01,1.60e-01,
305,-3.80e-01,8.00e-02,
306,-4.40e-01,8.00e-02,
307,-3.80e-01,2.40e-01,
308,-4.40e-01,2.40e-01,
309,-3.80e-01,1.60e-01,
310,-4.40e-01,1.60e-01,
311,-3.60e-01,3.20e-01,
312,-4.40e-01,3.20e-01,
313,-3.60e-01,3.20e-01,
314,-4.40e-01,2.40e-01,
315,-3.60e-01,4.80e-01,
316,-3.60e-01,4.00e-01,
317,-4.40e-01,4.80e-01,
318,-4.20e-01,4.00e-01,
319,-3.60e-01,5.60e-01,
320,-3.60e-01,4.80e-01,
321,-4.20e-01,5.60e-01,
322,-3.60e-01,4.80e-01,
323,-4.20e-01,6.40e-01,
324,-3.60e-01,6.40e-01,
325,-4.20e-01,4.80e-01,
326,-3.60e-01,5.60e-01,
327,-4.20e-01,7.20e-01,
328,-3.60e-01,6.40e-01,
329,-4.20e-01,7.20e-01,
330,-4.20e-01,6.40e-01,
331,-3.60e-01,7.20e-01,
332,-4.20e-01,6.40e-01,
333,-3.60e-01,8.00e-01,
334,-4.20e-01,7.20e-01,
335,-3.60e-01,8.00e-01,
336,-3.60e-01,7.20e-01,
337,-4.20e-01,8.80e-01,
338,-3.60e-01,8.00e-01,
339,-4.20e-01,8.80e-01,
340,-3.60e-01,8.00e-01,
341,-4.20e-01,8.80e-01,
342,-3.60e-01,8.00e-01,
343,-4.20e-01,9.60e-01,
344,-3.60e-01,8.80e-01,
345,-4.20e-01,9.60e-01,
346,-4.20e-01,8.80e-01,
347,-3.40e-01,9.60e-01,
348,-3.60e-01,8.80e-01,
349,-4.20e-01,1.04e+00,
350,-3.60e-01,1.04e+00,
351,-4.20e-01,9.60e-01,
352,-3.60e-01,9.60e-01,
353,-4.20e-01,1.12e+00,
354,-3.60e-01,1.12e+00,
355,-4.20e-01,9.60e-01,
356,-4.00e-01,1.04e+00,
357,-3.40e-01,1.12e+00,
358,-4.00e-01,1.04e+00,
359,-3.40e-01,1.20e+00,
360,-3.40e-01,1.20e+00,
361,-4.20e-01,1.12e+00,
362,-4.00e-01,1.20e+00,
363,-3.40e-01,1.12e+00,
364,-4.00e-01,1.12e+00,
365,-3.40e-01,1.28e+00,
366,-3.40e-01,1.12e+00,
367,-4.00e-01,1.28e+00,
368,-3.40e-01,1.28e+00,
369,-4.00e-01,1.20e+00,
370,-3.40e-01,1.20e+00,
371,-4.00e-01,1.28e+00,
372,-3.40e-01,1.36e+00,
373,-4.00e-01,1.20e+00,
374,-3.40e-01,1.36e+00,
375,-4.00e-01,1.28e+00,
376,-3.40e-01,1.36e+00,
377,-4.00e-01,1.28e+00,
378,-3.40e-01,1.36e+00,
379,-4.00e-01,1.28e+00,
380,-3.00e-01,1.28e+00,
381,-4.00e-01,1.44e+00,
382,-4.00e-01,1.44e+00,
383,-3.20e-01,1.36e+00,
384,-3.40e-01,1.44e+00,
385,-4.00e-01,1.36e+00,
386,-3.40e-01,1.36e+00,
387,-4.00e-01,1.60e+00,
388,-3.20e-01,1.44e+00,
389,-4.00e-01,1.60e+00,
390,-4.00e-01,1.52e+00,
391,-3.20e-01,1.60e+00,
392,-3.80e-01,1.52e+00,
393,-3.00e-01,1.68e+00,
394,-3.80e-01,1.52e+00,
395,-3.00e-01,1.68e+00,
396,-3.80e-01,1.52e+00,
397,-3.00e-01,1.68e+00,
398,-3.80e-01,1.60e+00,
399,-3.00e-01,1.68e+00,
400,-3.00e-01,1.60e+00,
401,-3.80e-01,1.68e+00,
402,-3.80e-01,1.60e+00,
403,-3.00e-01,1.68e+00,
404,-3.80e-01,1.60e+00,
405,-3.00e-01,1.76e+00,
406,-3.80e-01,1.68e+00,
407,-3.00e-01,1.76e+00,
408,-3.00e-01,1.68e+00,
409,-3.80e-01,1.76e+00,
410,-3.80e-01,1.68e+00,
411,-3.00e-01,1.84e+00,
412,-3.80e-01,1.68e+00,
413,-3.00e-01,1.84e+00,
414,-3.00e-01,1.68e+00,
415,-3.80e-01,1.84e+00,
416,-3.80e-01,1.84e+00,
417,-3.00e-01,1.76e+00,
418,-3.00e-01,1.76e+00,
419,-3.80e-01,1.84e+00,
420,-3.80e-01,1.76e+00,
421,-3.00e-01,1.84e+00,
422,-3.80e-01,1.76e+00,
423,-3.00e-01,1.92e+00,
424,-3.80e-01,1.92e+00,
425,-3.00e-01,1.76e+00,
426,-3.80e-01,1.84e+00,
427,-3.00e-01,1.92e+00,
428,-2.80e-01,1.92e+00,
429,-3.80e-01,1.84e+00,
430,-3.80e-01,1.84e+00,
431,-2.80e-01,1.92e+00,
432,-3.60e-01,1.84e+00,
433,-3.00e-01,1.92e+00,
434,-3.80e-01,1.84e+00,
435,-2.80e-01,1.92e+00,
436,-3.40e-01,1.84e+00,
437,-2.80e-01,2.00e+00,
438,-3.60e-01,1.84e+00,
439,-2.80e-01,2.00e+00,
440,-3.00e-01,1.84e+00,
441,-3.60e-01,2.00e+00,
442,-2.80e-01,1.92e+00,
443,-3.60e-01,2.00e+00,
444,-3.60e-01,1.92e+00,
445,-2.80e-01,2.00e+00,
446,-2.80e-01,1.92e+00,
447,-3.60e-01,2.00e+00,
448,-2.80e-01,1.92e+00,
449,-3.60e-01,2.00e+00,
450,-2.80e-01,1.92e+00,
451,-3.60e-01,2.08e+00,
452,-2.80e-01,1.92e+00,
453,-4.00e-01,2.00e+00,
454,-3.60e-01,1.92e+00,
455,-2.80e-01,2.08e+00,
456,-3.40e-01,2.08e+00,
457,-2.80e-01,2.00e+00,
458,-3.40e-01,2.08e+00,
459,-2.80e-01,2.00e+00,
460,-2.80e-01,2.00e+00,
461,-3.60e-01,2.08e+00,
462,-3.60e-01,2.00e+00,
463,-2.80e-01,2.08e+00,
464,-2.80e-01,2.00e+00,
465,-3.60e-01,2.08e+00,
466,-2.80e-01,2.08e+00,
467,-3.60e-01,2.00e+00,
468,-3.40e-01,2.08e+00,
469,-2.80e-01,2.00e+00,
470,-2.80e-01,2.00e+00,
471,-3.60e-01,2.08e+00,
472,-3.40e-01,2.00e+00,
473,-2.80e-01,2.08e+00,
474,-3.40e-01,2.00e+00,
475,-2.60e-01,2.08e+00,
476,-2.80e-01,2.00e+00,
477,-3.40e-01,2.16e+00,
478,-3.40e-01,2.16e+00,
479,-2.60e-01,2.08e+00,
480,-3.20e-01,2.08e+00,
481,-2.60e-01,2.16e+00,
482,-3.40e-01,2.16e+00,
483,-2.60e-01,2.08e+00,
484,-2.60e-01,2.16e+00,
485,-3.40e-01,2.08e+00,
486,-3.20e-01,2.16e+00,
487,-2.60e-01,2.08e+00,
488,-3.20e-01,2.16e+00,
489,-2.60e-01,2.08e+00,
490,-3.20e-01,2.08e+00,
491,-2.60e-01,2.24e+00,
492,-2.60e-01,2.08e+00,
493,-3.20e-01,2.24e+00,
494,-3.20e-01,2.08e+00,
495,-2.60e-01,2.24e+00,
496,-3.20e-01,2.24e+00,
497,-2.60e-01,2.08e+00,
498,-3.20e-01,2.08e+00,
499,-2.60e-01,2.24e+00,
500,-3.20e-01,2.08e+00,
501,-2.60e-01,2.24e+00,
502,-3.20e-01,2.08e+00,
503,-2.60e-01,2.24e+00,
504,-3.20e-01,2.24e+00,
505,-2.60e-01,2.08e+00,
506,-3.20e-01,2.24e+00,
507,-2.60e-01,2.08e+00,
508,-3.20e-01,2.08e+00,
509,-2.60e-01,2.24e+00,
510,-3.20e-01,2.24e+00,
511,-2.60e-01,2.08e+00,
512,-3.20e-01,2.24e+00,
513,-2.60e-01,2.08e+00,
514,-3.20e-01,2.24e+00,
515,-2.60e-01,2.08e+00,
516,-3.20e-01,2.24e+00,
517,-2.60e-01,2.16e+00,
518,-3.20e-01,2.24e+00,
519,-2.60e-01,2.16e+00,
520,-3.20e-01,2.16e+00,
521,-2.60e-01,2.24e+00,
522,-3.20e-01,2.24e+00,
523,-2.60e-01,2.16e+00,
524,-3.20e-01,2.24e+00,
525,-2.40e-01,2.16e+00,
526,-3.20e-01,2.24e+00,
527,-2.40e-01,2.16e+00,
528,-3.20e-01,2.24e+00,
529,-2.40e-01,2.16e+00,
530,-2.40e-01,2.24e+00,
531,-3.20e-01,2.16e+00,
532,-3.20e-01,2.16e+00,
533,-2.40e-01,2.24e+00,
534,-2.40e-01,2.16e+00,
535,-3.20e-01,2.24e+00,
536,-3.20e-01,2.24e+00,
537,-2.40e-01,2.16e+00,
538,-3.00e-01,2.16e+00,
539,-2.40e-01,2.24e+00,
540,-2.40e-01,2.24e+00,
541,-3.20e-01,2.16e+00,
542,-3.00e-01,2.24e+00,
543,-2.40e-01,2.16e+00,
544,-3.00e-01,2.16e+00,
545,-2.40e-01,2.24e+00,
546,-3.00e-01,2.24e+00,
547,-2.40e-01,2.16e+00,
548,-3.00e-01,2.24e+00,
549,-2.40e-01,2.16e+00,
550,-2.40e-01,2.24e+00,
551,-3.00e-01,2.16e+00,
552,-2.40e-01,2.16e+00,
553,-3.00e-01,2.24e+00,
554,-3.00e-01,2.16e+00,
555,-2.40e-01,2.24e+00,
556,-2.40e-01,2.16e+00,
557,-3.00e-01,2.24e+00,
558,-3.00e-01,2.24e+00,
559,-2.40e-01,2.16e+00,
560,-3.00e-01,2.16e+00,
561,-2.40e-01,2.24e+00,
562,-3.00e-01,2.16e+00,
563,-2.40e-01,2.24e+00,
564,-3.00e-01,2.24e+00,
565,-2.40e-01,2.16e+00,
566,-3.00e-01,2.16e+00,
567,-2.40e-01,2.24e+00,
568,-3.00e-01,2.24e+00,
569,-2.40e-01,2.16e+00,
570,-3.00e-01,2.16e+00,
571,-2.40e-01,2.24e+00,
572,-2.40e-01,2.24e+00,
573,-3.00e-01,2.08e+00,
574,-3.00e-01,2.24e+00,
575,-2.20e-01,2.16e+00,
576,-3.00e-01,2.24e+00,
577,-2.20e-01,2.16e+00,
578,-3.00e-01,2.24e+00,
579,-2.20e-01,2.16e+00,
580,-2.20e-01,2.24e+00,
581,-3.00e-01,2.16e+00,
582,-2.20e-01,2.24e+00,
583,-3.00e-01,2.16e+00,
584,-3.00e-01,2.24e+00,
585,-2.20e-01,2.16e+00,
586,-2.80e-01,2.24e+00,
587,-2.20e-01,2.16e+00,
588,-2.80e-01,2.24e+00,
589,-2.20e-01,2.16e+00,
590,-2.80e-01,2.24e+00,
591,-2.20e-01,2.16e+00,
592,-2.80e-01,2.24e+00,
593,-2.20e-01,2.08e+00,
594,-2.80e-01,2.24e+00,
595,-2.20e-01,2.16e+00,
596,-2.80e-01,2.16e+00,
597,-2.20e-01,2.24e+00,
598,-2.20e-01,2.24e+00,
599,-6.00e-01,2.08e+00,
600,4.20e-01,2.08e+00,
601,-2.40e-01,2.24e+00,
602,2.00e-01,2.08e+00,
603,2.80e-01,2.16e+00,
604,2.20e-01,2.16e+00,
605,3.00e-01,2.08e+00,
606,2.60e-01,2.08e+00,
607,3.40e-01,2.16e+00,
608,2.80e-01,2.16e+00,
609,3.60e-01,2.00e+00,
610,3.20e-01,2.08e+00,
611,3.80e-01,1.92e+00,
612,3.40e-01,2.00e+00,
613,4.20e-01,1.52e+00,
614,3.60e-01,1.44e+00,
615,4.20e-01,-2.88e+00,
616,3.80e-01,-2.88e+00,
617,4.40e-01,-5.76e+00,
618,3.80e-01,-5.68e+00,
619,4.60e-01,-5.92e+00,
620,4.00e-01,-5.92e+00,
621,4.80e-01,-5.76e+00,
622,4.20e-01,-5.76e+00,
623,4.80e-01,-5.92e+00,
624,4.20e-01,-5.76e+00,
625,5.00e-01,-5.92e+00,
626,5.00e-01,-5.84e+00,
627,4.40e-01,-5.76e+00,
628,5.00e-01,-5.84e+00,
629,4.40e-01,-5.68e+00,
630,4.40e-01,-5.68e+00,
631,5.20e-01,-5.84e+00,
632,5.20e-01,-5.68e+00,
633,4.60e-01,-5.76e+00,
634,4.60e-01,-5.76e+00,
635,5.20e-01,-5.60e+00,
636,5.20e-01,-5.68e+00,
637,4.60e-01,-5.52e+00,
638,4.60e-01,-5.52e+00,
639,5.40e-01,-5.68e+00,
640,4.60e-01,-5.60e+00,
641,5.40e-01,-5.44e+00,
642,4.60e-01,-5.52e+00,
643,5.40e-01,-5.36e+00,
644,5.40e-01,-5.36e+00,
645,4.60e-01,-5.52e+00,
646,5.40e-01,-5.44e+00,
647,4.60e-01,-5.20e+00,
648,4.60e-01,-5.28e+00,
649,5.40e-01,-5.12e+00,
650,4.60e-01,-5.20e+00,
651,5.40e-01,-5.04e+00,
652,5.20e-01,-5.20e+00,
653,4.60e-01,-5.04e+00,
654,5.20e-01,-5.12e+00,
655,4.60e-01,-4.96e+00,
656,5.20e-01,-5.04e+00,
657,4.60e-01,-4.88e+00,
658,5.20e-01,-4.96e+00,
659,4.60e-01,-4.80e+00,
660,4.60e-01,-4.88e+00,
661,5.20e-01,-4.72e+00,
662,5.20e-01,-4.88e+00,
663,4.60e-01,-4.64e+00,
664,5.20e-01,-4.80e+00,
665,4.60e-01,-4.56e+00,
666,4.60e-01,-4.72e+00,
667,5.20e-01,-4.56e+00,
668,5.20e-01,-4.64e+00,
669,4.40e-01,-4.48e+00,
670,5.20e-01,-4.56e+00,
671,4.40e-01,-4.40e+00,
672,5.00e-01,-4.48e+00,
673,4.40e-01,-4.32e+00,
674,4.40e-01,-4.40e+00,
675,5.00e-01,-4.24e+00,
676,4.40e-01,-4.32e+00,
677,5.00e-01,-4.08e+00,
678,4.40e-01,-4.16e+00,
679,5.00e-01,-4.00e+00,
680,5.00e-01,-4.08e+00,
681,4.40e-01,-3.92e+00,
682,5.00e-01,-4.00e+00,
683,4.40e-01,-3.84e+00,
684,5.00e-01,-3.92e+00,
685,4.40e-01,-3.76e+00,
686,5.00e-01,-3.84e+00,
687,4.20e-01,-3.68e+00,
688,4.40e-01,-3.76e+00,
689,5.00e-01,-3.60e+00,
690,5.00e-01,-3.68e+00,
691,4.20e-01,-3.52e+00,
692,4.20e-01,-3.60e+00,
693,5.00e-01,-3.44e+00,
694,5.00e-01,-3.52e+00,
695,4.20e-01,-3.36e+00,
696,4.80e-01,-3.44e+00,
697,4.20e-01,-3.28e+00,
698,4.20e-01,-3.36e+00,
699,4.80e-01,-3.20e+00,
700,4.20e-01,-3.28e+00,
701,5.00e-01,-3.12e+00,
702,4.20e-01,-3.20e+00,
703,4.80e-01,-3.04e+00,
704,4.80e-01,-3.04e+00,
705,4.20e-01,-2.96e+00,
706,4.20e-01,-3.04e+00,
707,4.80e-01,-2.88e+00,
708,4.80e-01,-2.96e+00,
709,4.20e-01,-2.80e+00,
710,4.20e-01,-2.88e+00,
711,4.80e-01,-2.72e+00,
712,4.80e-01,-2.80e+00,
713,4.20e-01,-2.64e+00,
714,4.80e-01,-2.72e+00,
715,4.20e-01,-2.56e+00,
716,4.80e-01,-2.64e+00,
717,4.20e-01,-2.48e+00,
718,4.20e-01,-2.56e+00,
719,4.80e-01,-2.40e+00,
720,4.00e-01,-2.48e+00,
721,4.80e-01,-2.32e+00,
722,4.80e-01,-2.48e+00,
723,4.00e-01,-2.32e+00,
724,4.00e-01,-2.40e+00,
725,4.80e-01,-2.24e+00,
726,4.60e-01,-2.32e+00,
727,4.00e-01,-2.16e+00,
728,4.00e-01,-2.24e+00,
729,4.80e-01,-2.08e+00,
730,4.00e-01,-2.16e+00,
731,4.60e-01,-2.00e+00,
732,4.00e-01,-2.08e+00,
733,4.60e-01,-1.92e+00,
734,4.00e-01,-1.92e+00,
735,4.60e-01,-2.08e+00,
736,4.00e-01,-1.92e+00,
737,4.60e-01,-1.76e+00,
738,4.00e-01,-1.84e+00,
739,4.60e-01,-1.68e+00,
740,4.60e-01,-1.76e+00,
741,4.00e-01,-1.60e+00,
742,4.00e-01,-1.68e+00,
743,4.60e-01,-1.60e+00,
744,4.60e-01,-1.68e+00,
745,4.00e-01,-1.52e+00,
746,4.60e-01,-1.60e+00,
747,4.00e-01,-1.44e+00,
748,4.60e-01,-1.52e+00,
749,3.80e-01,-1.36e+00,
750,4.60e-01,-1.44e+00,
751,4.00e-01,-1.28e+00,
752,4.00e-01,-1.28e+00,
753,4.60e-01,-1.44e+00,
754,3.80e-01,-1.36e+00,
755,4.60e-01,-1.20e+00,
756,3.80e-01,-1.28e+00,
757,4.60e-01,-1.12e+00,
758,3.80e-01,-1.20e+00,
759,4.60e-01,-1.12e+00,
760,3.80e-01,-1.20e+00,
761,4.40e-01,-1.04e+00,
762,3.80e-01,-1.12e+00,
763,4.40e-01,-9.60e-01,
764,3.80e-01,-1.04e+00,
765,4.40e-01,-8.80e-01,
766,3.80e-01,-1.04e+00,
767,4.40e-01,-8.00e-01,
768,4.40e-01,-8.00e-01,
769,3.80e-01,-9.60e-01,
770,3.80e-01,-7.20e-01,
771,4.40e-01,-8.80e-01,
772,4.40e-01,-7.20e-01,
773,3.80e-01,-6.40e-01,
774,3.80e-01,-7.20e-01,
775,4.40e-01,-5.60e-01,
776,3.80e-01,-6.40e-01,
777,4.40e-01,-4.80e-01,
778,3.80e-01,-5.60e-01,
779,4.40e-01,-4.80e-01,
780,3.80e-01,-5.60e-01,
781,4.40e-01,-4.00e-01,
782,4.40e-01,-4.80e-01,
783,3.80e-01,-3.20e-01,
784,3.80e-01,-4.00e-01,
785,4.40e-01,-3.20e-01,
786,3.80e-01,-4.00e-01,
787,4.40e-01,-2.40e-01,
788,3.60e-01,-3.20e-01,
789,4.40e-01,-2.40e-01,
790,4.40e-01,-3.20e-01,
791,3.60e-01,-1.60e-01,
792,4.20e-01,-2.40e-01,
793,3.60e-01,-8.00e-02,
794,4.20e-01,-8.00e-02,
795,3.60e-01,-1.60e-01,
796,4.20e-01,-1.60e-01,
797,3.60e-01,0.00e+00,
798,3.60e-01,0.00e+00,
799,4.20e-01,-8.00e-02,
800,4.20e-01,-8.00e-02,
801,3.60e-01,8.00e-02,
802,4.20e-01,8.00e-02,
803,3.60e-01,0.00e+00,
804,3.60e-01,0.00e+00,
805,4.20e-01,1.60e-01,
806,3.60e-01,1.60e-01,
807,4.20e-01,8.00e-02,
808,3.60e-01,8.00e-02,
809,4.20e-01,2.40e-01,
810,4.20e-01,2.40e-01,
811,3.60e-01,1.60e-01,
812,3.60e-01,1.60e-01,
813,4.20e-01,3.20e-01,
814,3.60e-01,3.20e-01,
815,4.20e-01,3.20e-01,
816,4.20e-01,3.20e-01,
817,3.40e-01,4.80e-01,
818,4.20e-01,4.00e-01,
819,3.40e-01,4.80e-01,
820,4.20e-01,4.00e-01,
821,3.40e-01,5.60e-01,
822,4.20e-01,4.80e-01,
823,3.40e-01,5.60e-01,
824,4.20e-01,4.80e-01,
825,3.40e-01,6.40e-01,
826,3.40e-01,5.60e-01,
827,4.20e-01,6.40e-01,
828,3.40e-01,5.60e-01,
829,4.20e-01,7.20e-01,
830,3.40e-01,6.40e-01,
831,4.20e-01,7.20e-01,
832,4.20e-01,6.40e-01,
