ETLabR/ET-design/data/Data/shutter1-old/Data2.csv

X,CH1,CH2,Start,Increment,
Sequence,Volt,Volt,2.492000e-01,1.000000e-05
0,0.00e+00,1.60e-01,
1,-4.00e-01,0.00e+00,
2,0.00e+00,1.60e-01,
3,-4.00e-01,8.00e-02,
4,0.00e+00,1.60e-01,
5,-4.00e-01,8.00e-02,
6,-4.00e-01,1.60e-01,
7,0.00e+00,0.00e+00,
8,0.00e+00,1.60e-01,
9,-4.00e-01,0.00e+00,
10,0.00e+00,1.60e-01,
11,-4.00e-01,0.00e+00,
12,0.00e+00,1.60e-01,
13,-4.00e-01,0.00e+00,
14,0.00e+00,1.60e-01,
15,-4.00e-01,8.00e-02,
16,0.00e+00,1.60e-01,
17,-4.00e-01,0.00e+00,
18,0.00e+00,1.60e-01,
19,-4.00e-01,0.00e+00,
20,0.00e+00,1.60e-01,
21,-4.00e-01,0.00e+00,
22,0.00e+00,1.60e-01,
23,-4.00e-01,0.00e+00,
24,0.00e+00,1.60e-01,
25,-4.00e-01,0.00e+00,
26,0.00e+00,1.60e-01,
27,-4.00e-01,0.00e+00,
28,0.00e+00,1.60e-01,
29,-4.00e-01,0.00e+00,
30,0.00e+00,1.60e-01,
31,-4.00e-01,0.00e+00,
32,-4.00e-01,1.60e-01,
33,4.00e-01,0.00e+00,
34,0.00e+00,1.60e-01,
35,-4.00e-01,0.00e+00,
36,-4.00e-01,1.60e-01,
37,4.00e-01,0.00e+00,
38,0.00e+00,1.60e-01,
39,-4.00e-01,0.00e+00,
40,0.00e+00,1.60e-01,
41,-4.00e-01,0.00e+00,
42,0.00e+00,1.60e-01,
43,-4.00e-01,0.00e+00,
44,0.00e+00,1.60e-01,
45,-4.00e-01,0.00e+00,
46,0.00e+00,1.60e-01,
47,-4.00e-01,8.00e-02,
48,0.00e+00,1.60e-01,
49,-4.00e-01,0.00e+00,
50,0.00e+00,8.00e-02,
51,-4.00e-01,1.60e-01,
52,-4.00e-01,1.60e-01,
53,4.00e-01,8.00e-02,
54,-4.00e-01,1.60e-01,
55,4.00e-01,8.00e-02,
56,0.00e+00,1.60e-01,
57,-4.00e-01,0.00e+00,
58,-4.00e-01,1.60e-01,
59,0.00e+00,8.00e-02,
60,0.00e+00,1.60e-01,
61,-4.00e-01,0.00e+00,
62,-4.00e-01,1.60e-01,
63,4.00e-01,0.00e+00,
64,0.00e+00,0.00e+00,
65,-4.00e-01,1.60e-01,
66,-4.00e-01,1.60e-01,
67,0.00e+00,0.00e+00,
68,0.00e+00,1.60e-01,
69,-4.00e-01,0.00e+00,
70,-4.00e-01,0.00e+00,
71,4.00e-01,1.60e-01,
72,0.00e+00,1.60e-01,
73,-4.00e-01,0.00e+00,
74,0.00e+00,1.60e-01,
75,-4.00e-01,0.00e+00,
76,0.00e+00,1.60e-01,
77,-4.00e-01,0.00e+00,
78,-4.00e-01,1.60e-01,
79,3.88e+01,0.00e+00,
80,3.20e+01,1.60e-01,
81,3.36e+01,0.00e+00,
82,3.36e+01,1.60e-01,
83,3.24e+01,8.00e-02,
84,3.36e+01,1.60e-01,
85,3.24e+01,8.00e-02,
86,3.36e+01,8.00e-02,
87,3.24e+01,1.60e-01,
88,3.36e+01,1.60e-01,
89,3.20e+01,8.00e-02,
90,3.32e+01,1.60e-01,
91,3.20e+01,8.00e-02,
92,3.32e+01,1.60e-01,
93,3.20e+01,8.00e-02,
94,3.20e+01,8.00e-02,
95,3.36e+01,1.60e-01,
96,3.24e+01,1.60e-01,
97,3.36e+01,8.00e-02,
98,3.36e+01,1.60e-01,
99,3.24e+01,0.00e+00,
100,3.36e+01,1.60e-01,
101,3.24e+01,0.00e+00,
102,3.36e+01,1.60e-01,
103,3.20e+01,0.00e+00,
104,3.32e+01,1.60e-01,
105,3.20e+01,0.00e+00,
106,3.24e+01,1.60e-01,
107,3.36e+01,0.00e+00,
108,3.36e+01,1.60e-01,
109,3.24e+01,0.00e+00,
110,3.36e+01,1.60e-01,
111,3.24e+01,0.00e+00,
112,3.36e+01,1.60e-01,
113,3.24e+01,0.00e+00,
114,3.36e+01,1.60e-01,
115,3.20e+01,0.00e+00,
116,3.32e+01,1.60e-01,
117,3.20e+01,0.00e+00,
118,3.32e+01,1.60e-01,
119,3.20e+01,0.00e+00,
120,3.20e+01,1.60e-01,
121,3.36e+01,0.00e+00,
122,3.36e+01,1.60e-01,
123,3.24e+01,8.00e-02,
124,3.36e+01,1.60e-01,
125,3.24e+01,8.00e-02,
126,3.24e+01,1.60e-01,
127,3.36e+01,8.00e-02,
128,3.36e+01,1.60e-01,
129,3.20e+01,8.00e-02,
130,3.32e+01,1.60e-01,
131,3.20e+01,8.00e-02,
132,3.32e+01,1.60e-01,
133,3.20e+01,8.00e-02,
134,3.24e+01,1.60e-01,
135,3.36e+01,8.00e-02,
136,3.36e+01,1.60e-01,
137,3.24e+01,8.00e-02,
138,3.36e+01,1.60e-01,
139,3.24e+01,0.00e+00,
140,3.36e+01,0.00e+00,
141,3.24e+01,1.60e-01,
142,3.32e+01,1.60e-01,
143,3.20e+01,0.00e+00,
144,3.32e+01,1.60e-01,
145,3.20e+01,0.00e+00,
146,3.20e+01,1.60e-01,
147,3.36e+01,0.00e+00,
148,3.36e+01,1.60e-01,
149,3.24e+01,0.00e+00,
150,3.24e+01,1.60e-01,
151,3.36e+01,0.00e+00,
152,3.36e+01,1.60e-01,
153,3.24e+01,0.00e+00,
154,3.36e+01,1.60e-01,
155,3.20e+01,0.00e+00,
156,3.32e+01,1.60e-01,
157,3.20e+01,0.00e+00,
158,3.20e+01,0.00e+00,
159,3.32e+01,1.60e-01,
160,3.24e+01,1.60e-01,
161,3.36e+01,0.00e+00,
162,3.36e+01,1.60e-01,
163,3.24e+01,8.00e-02,
164,3.36e+01,8.00e-02,
165,3.24e+01,1.60e-01,
166,3.36e+01,1.60e-01,
167,3.24e+01,8.00e-02,
168,3.32e+01,1.60e-01,
169,3.20e+01,8.00e-02,
170,3.32e+01,8.00e-02,
171,3.20e+01,1.60e-01,
172,3.24e+01,1.60e-01,
173,3.36e+01,8.00e-02,
174,3.36e+01,1.60e-01,
175,3.24e+01,8.00e-02,
176,3.36e+01,1.60e-01,
177,3.24e+01,0.00e+00,
178,3.36e+01,1.60e-01,
179,3.24e+01,0.00e+00,
180,3.36e+01,1.60e-01,
181,3.20e+01,0.00e+00,
182,3.32e+01,1.60e-01,
183,3.20e+01,0.00e+00,
184,3.20e+01,1.60e-01,
185,3.32e+01,0.00e+00,
186,3.36e+01,1.60e-01,
187,3.24e+01,0.00e+00,
188,3.36e+01,1.60e-01,
189,3.24e+01,0.00e+00,
190,3.36e+01,1.60e-01,
191,3.24e+01,0.00e+00,
192,3.36e+01,1.60e-01,
193,3.24e+01,0.00e+00,
194,3.36e+01,1.60e-01,
195,3.20e+01,0.00e+00,
196,3.20e+01,1.60e-01,
197,3.32e+01,0.00e+00,
198,3.20e+01,1.60e-01,
199,3.36e+01,0.00e+00,
200,3.36e+01,1.60e-01,
201,3.24e+01,0.00e+00,
202,3.36e+01,1.60e-01,
203,3.24e+01,8.00e-02,
204,3.36e+01,1.60e-01,
205,3.24e+01,0.00e+00,
206,3.36e+01,1.60e-01,
207,3.24e+01,8.00e-02,
208,3.32e+01,1.60e-01,
209,3.20e+01,0.00e+00,
210,3.32e+01,1.60e-01,
211,3.20e+01,0.00e+00,
212,3.24e+01,1.60e-01,
213,3.36e+01,8.00e-02,
214,3.36e+01,1.60e-01,
215,3.24e+01,8.00e-02,
216,3.36e+01,1.60e-01,
217,3.24e+01,0.00e+00,
218,3.24e+01,1.60e-01,
219,3.36e+01,0.00e+00,
220,3.36e+01,1.60e-01,
221,3.20e+01,0.00e+00,
222,3.20e+01,1.60e-01,
223,3.36e+01,0.00e+00,
224,3.36e+01,1.60e-01,
225,3.28e+01,0.00e+00,
226,3.36e+01,0.00e+00,
227,3.24e+01,1.60e-01,
228,3.36e+01,1.60e-01,
229,3.24e+01,0.00e+00,
230,3.36e+01,1.60e-01,
231,3.24e+01,0.00e+00,
232,3.24e+01,1.60e-01,
233,3.36e+01,0.00e+00,
234,3.32e+01,1.60e-01,
235,3.20e+01,0.00e+00,
236,3.28e+01,1.60e-01,
237,3.36e+01,0.00e+00,
238,3.36e+01,1.60e-01,
239,3.24e+01,0.00e+00,
240,3.36e+01,1.60e-01,
241,3.24e+01,0.00e+00,
242,3.36e+01,1.60e-01,
243,3.24e+01,8.00e-02,
244,3.36e+01,1.60e-01,
245,3.24e+01,0.00e+00,
246,3.36e+01,1.60e-01,
247,3.24e+01,0.00e+00,
248,3.36e+01,1.60e-01,
249,3.24e+01,8.00e-02,
250,3.24e+01,1.60e-01,
251,3.36e+01,0.00e+00,
252,3.24e+01,1.60e-01,
253,3.36e+01,0.00e+00,
254,3.40e+01,1.60e-01,
255,3.24e+01,8.00e-02,
256,3.24e+01,1.60e-01,
257,3.40e+01,0.00e+00,
258,3.36e+01,1.60e-01,
259,3.24e+01,0.00e+00,
260,3.36e+01,1.60e-01,
261,3.24e+01,0.00e+00,
262,3.24e+01,1.60e-01,
263,3.36e+01,0.00e+00,
264,3.36e+01,1.60e-01,
265,3.24e+01,0.00e+00,
266,3.36e+01,1.60e-01,
267,3.24e+01,0.00e+00,
268,3.36e+01,1.60e-01,
269,3.24e+01,0.00e+00,
270,3.36e+01,1.60e-01,
271,3.24e+01,0.00e+00,
272,3.36e+01,1.60e-01,
273,3.24e+01,0.00e+00,
274,3.36e+01,1.60e-01,
275,3.28e+01,0.00e+00,
276,3.36e+01,1.60e-01,
277,3.24e+01,0.00e+00,
278,3.24e+01,1.60e-01,
279,3.40e+01,0.00e+00,
280,3.40e+01,1.60e-01,
281,3.24e+01,0.00e+00,
282,3.36e+01,1.60e-01,
283,3.24e+01,0.00e+00,
284,3.36e+01,0.00e+00,
285,3.24e+01,1.60e-01,
286,3.36e+01,1.60e-01,
287,3.24e+01,0.00e+00,
288,3.36e+01,0.00e+00,
289,3.24e+01,1.60e-01,
290,3.36e+01,1.60e-01,
291,3.24e+01,0.00e+00,
292,3.28e+01,1.60e-01,
293,3.44e+01,0.00e+00,
294,3.40e+01,1.60e-01,
295,3.28e+01,0.00e+00,
296,3.28e+01,1.60e-01,
297,3.40e+01,0.00e+00,
298,3.36e+01,1.60e-01,
299,3.24e+01,0.00e+00,
300,3.36e+01,1.60e-01,
301,3.24e+01,0.00e+00,
302,3.36e+01,1.60e-01,
303,3.24e+01,0.00e+00,
304,3.24e+01,1.60e-01,
305,3.40e+01,0.00e+00,
306,3.32e+01,1.60e-01,
307,3.40e+01,0.00e+00,
308,3.40e+01,1.60e-01,
309,3.24e+01,0.00e+00,
310,3.36e+01,1.60e-01,
311,3.24e+01,0.00e+00,
312,3.36e+01,1.60e-01,
313,3.24e+01,0.00e+00,
314,3.36e+01,1.60e-01,
315,3.24e+01,0.00e+00,
316,3.36e+01,1.60e-01,
317,3.24e+01,0.00e+00,
318,3.24e+01,1.60e-01,
319,3.44e+01,0.00e+00,
320,3.40e+01,1.60e-01,
321,3.24e+01,0.00e+00,
322,3.28e+01,1.60e-01,
323,3.40e+01,0.00e+00,
324,3.36e+01,1.60e-01,
325,3.24e+01,0.00e+00,
326,3.24e+01,1.60e-01,
327,3.36e+01,0.00e+00,
328,3.36e+01,1.60e-01,
329,3.24e+01,0.00e+00,
330,3.24e+01,1.60e-01,
331,3.40e+01,0.00e+00,
332,3.28e+01,1.60e-01,
333,3.44e+01,0.00e+00,
334,3.44e+01,1.60e-01,
335,3.28e+01,0.00e+00,
336,3.40e+01,1.60e-01,
337,3.28e+01,0.00e+00,
338,3.36e+01,1.60e-01,
339,3.24e+01,0.00e+00,
340,3.36e+01,1.60e-01,
341,3.24e+01,0.00e+00,
342,3.36e+01,1.60e-01,
343,3.24e+01,0.00e+00,
344,3.32e+01,1.60e-01,
345,3.44e+01,0.00e+00,
346,3.32e+01,1.60e-01,
347,3.44e+01,0.00e+00,
348,3.44e+01,1.60e-01,
349,3.32e+01,0.00e+00,
350,3.44e+01,1.60e-01,
351,3.24e+01,0.00e+00,
352,3.36e+01,0.00e+00,
353,3.24e+01,1.60e-01,
354,3.36e+01,0.00e+00,
355,3.24e+01,1.60e-01,
356,3.24e+01,1.60e-01,
357,3.40e+01,0.00e+00,
358,3.44e+01,0.00e+00,
359,3.28e+01,1.60e-01,
360,3.28e+01,1.60e-01,
361,3.44e+01,0.00e+00,
362,3.28e+01,1.60e-01,
363,3.44e+01,0.00e+00,
364,3.40e+01,0.00e+00,
365,3.24e+01,1.60e-01,
366,3.36e+01,1.60e-01,
367,3.24e+01,0.00e+00,
368,3.24e+01,1.60e-01,
369,3.40e+01,0.00e+00,
370,3.40e+01,1.60e-01,
371,3.28e+01,0.00e+00,
372,3.28e+01,1.60e-01,
373,3.44e+01,0.00e+00,
374,3.40e+01,1.60e-01,
375,3.28e+01,0.00e+00,
376,3.44e+01,0.00e+00,
377,3.24e+01,1.60e-01,
378,3.36e+01,1.60e-01,
379,3.24e+01,0.00e+00,
380,3.36e+01,1.60e-01,
381,3.24e+01,0.00e+00,
382,3.24e+01,1.60e-01,
383,3.44e+01,0.00e+00,
384,3.44e+01,1.60e-01,
385,3.28e+01,0.00e+00,
386,3.32e+01,0.00e+00,
387,3.44e+01,1.60e-01,
388,3.44e+01,1.60e-01,
389,3.28e+01,0.00e+00,
390,3.44e+01,0.00e+00,
391,3.24e+01,1.60e-01,
392,3.36e+01,1.60e-01,
393,3.24e+01,0.00e+00,
394,3.24e+01,1.60e-01,
395,3.44e+01,0.00e+00,
396,3.44e+01,0.00e+00,
397,3.28e+01,1.60e-01,
398,3.28e+01,1.60e-01,
399,3.44e+01,0.00e+00,
400,3.28e+01,0.00e+00,
401,3.44e+01,1.60e-01,
402,3.28e+01,1.60e-01,
403,3.44e+01,0.00e+00,
404,3.36e+01,0.00e+00,
405,3.24e+01,1.60e-01,
406,3.36e+01,0.00e+00,
407,3.24e+01,1.60e-01,
408,3.24e+01,1.60e-01,
409,3.40e+01,0.00e+00,
410,3.44e+01,1.60e-01,
411,3.28e+01,0.00e+00,
412,3.28e+01,1.60e-01,
413,3.44e+01,0.00e+00,
414,3.28e+01,1.60e-01,
415,3.44e+01,0.00e+00,
416,3.40e+01,1.60e-01,
417,3.24e+01,0.00e+00,
418,3.36e+01,1.60e-01,
419,3.24e+01,0.00e+00,
420,3.24e+01,1.60e-01,
421,3.40e+01,0.00e+00,
422,3.24e+01,1.60e-01,
423,3.44e+01,0.00e+00,
424,3.44e+01,1.60e-01,
425,3.28e+01,0.00e+00,
426,3.40e+01,1.60e-01,
427,3.28e+01,0.00e+00,
428,3.44e+01,1.60e-01,
429,3.28e+01,0.00e+00,
430,3.36e+01,0.00e+00,
431,3.24e+01,1.60e-01,
432,3.24e+01,1.60e-01,
433,3.36e+01,0.00e+00,
434,3.28e+01,0.00e+00,
435,3.40e+01,1.60e-01,
436,3.40e+01,1.60e-01,
437,3.28e+01,0.00e+00,
438,3.28e+01,1.60e-01,
439,3.44e+01,0.00e+00,
440,3.28e+01,1.60e-01,
441,3.44e+01,8.00e-02,
442,3.28e+01,1.60e-01,
443,3.44e+01,8.00e-02,
444,3.24e+01,1.60e-01,
445,3.36e+01,8.00e-02,
446,3.28e+01,1.60e-01,
447,3.40e+01,8.00e-02,
448,3.28e+01,1.60e-01,
449,3.44e+01,8.00e-02,
450,3.44e+01,1.60e-01,
451,3.28e+01,8.00e-02,
452,3.44e+01,8.00e-02,
453,3.28e+01,1.60e-01,
454,3.28e+01,1.60e-01,
455,3.44e+01,8.00e-02,
456,3.40e+01,1.60e-01,
457,3.24e+01,8.00e-02,
458,3.24e+01,1.60e-01,
459,3.40e+01,8.00e-02,
460,3.24e+01,1.60e-01,
461,3.40e+01,8.00e-02,
462,3.44e+01,1.60e-01,
463,3.28e+01,8.00e-02,
464,3.40e+01,8.00e-02,
465,3.28e+01,2.40e-01,
466,3.44e+01,2.40e-01,
467,3.28e+01,8.00e-02,
468,3.28e+01,2.40e-01,
469,3.44e+01,8.00e-02,
470,3.24e+01,2.40e-01,
471,3.36e+01,8.00e-02,
472,3.24e+01,2.40e-01,
473,3.40e+01,1.60e-01,
474,3.40e+01,2.40e-01,
475,3.28e+01,1.60e-01,
476,3.44e+01,2.40e-01,
477,3.28e+01,1.60e-01,
478,3.40e+01,2.40e-01,
479,3.28e+01,1.60e-01,
480,3.28e+01,2.40e-01,
481,3.44e+01,1.60e-01,
482,3.40e+01,2.40e-01,
483,3.24e+01,1.60e-01,
484,3.24e+01,1.60e-01,
485,3.40e+01,4.00e-01,
486,3.28e+01,4.00e-01,
487,3.44e+01,1.60e-01,
488,3.28e+01,4.00e-01,
489,3.44e+01,1.60e-01,
490,3.28e+01,3.20e-01,
491,3.44e+01,4.00e-01,
492,3.44e+01,4.00e-01,
493,3.28e+01,3.20e-01,
494,3.28e+01,3.20e-01,
495,3.44e+01,4.00e-01,
496,3.40e+01,3.20e-01,
497,3.24e+01,4.00e-01,
498,3.36e+01,3.20e-01,
499,3.24e+01,4.80e-01,
500,3.28e+01,3.20e-01,
501,3.44e+01,4.80e-01,
502,3.44e+01,4.80e-01,
503,3.28e+01,4.00e-01,
504,3.44e+01,4.00e-01,
505,3.28e+01,4.80e-01,
506,3.28e+01,4.00e-01,
507,3.44e+01,4.80e-01,
508,3.40e+01,4.00e-01,
509,3.24e+01,5.60e-01,
510,3.36e+01,5.60e-01,
511,3.28e+01,4.00e-01,
512,3.32e+01,4.80e-01,
513,3.44e+01,5.60e-01,
514,3.40e+01,5.60e-01,
515,3.28e+01,4.80e-01,
516,3.28e+01,4.80e-01,
517,3.44e+01,6.40e-01,
518,3.28e+01,4.80e-01,
519,3.44e+01,6.40e-01,
520,3.40e+01,4.80e-01,
521,3.28e+01,6.40e-01,
522,3.36e+01,6.40e-01,
523,3.24e+01,5.60e-01,
524,3.24e+01,5.60e-01,
525,3.44e+01,7.20e-01,
526,3.28e+01,5.60e-01,
527,3.40e+01,7.20e-01,
528,3.28e+01,5.60e-01,
529,3.44e+01,7.20e-01,
530,3.28e+01,6.40e-01,
531,3.44e+01,7.20e-01,
532,3.28e+01,6.40e-01,
533,3.44e+01,8.00e-01,
534,3.44e+01,8.00e-01,
535,3.24e+01,6.40e-01,
536,3.36e+01,8.00e-01,
537,3.24e+01,7.20e-01,
538,3.28e+01,7.20e-01,
539,3.40e+01,8.80e-01,
540,3.44e+01,8.80e-01,
541,3.28e+01,7.20e-01,
542,3.28e+01,8.80e-01,
543,3.44e+01,8.00e-01,
544,3.44e+01,8.00e-01,
545,3.28e+01,9.60e-01,
546,3.40e+01,8.00e-01,
547,3.28e+01,9.60e-01,
548,3.40e+01,9.60e-01,
549,3.28e+01,8.00e-01,
550,3.40e+01,8.80e-01,
551,3.24e+01,1.04e+00,
552,3.44e+01,1.04e+00,
553,3.28e+01,8.80e-01,
554,3.40e+01,1.04e+00,
555,3.28e+01,9.60e-01,
556,3.28e+01,9.60e-01,
557,3.44e+01,1.12e+00,
558,3.40e+01,1.12e+00,
559,3.28e+01,9.60e-01,
560,3.40e+01,1.04e+00,
561,3.28e+01,1.20e+00,
562,3.24e+01,1.12e+00,
563,3.40e+01,1.28e+00,
564,3.24e+01,1.12e+00,
565,3.44e+01,1.28e+00,
566,3.28e+01,1.20e+00,
567,3.44e+01,1.36e+00,
568,3.28e+01,1.36e+00,
569,3.44e+01,1.20e+00,
570,3.28e+01,1.28e+00,
571,3.44e+01,1.44e+00,
572,3.28e+01,1.28e+00,
573,3.44e+01,1.44e+00,
574,3.40e+01,1.44e+00,
575,3.24e+01,1.36e+00,
576,3.28e+01,1.36e+00,
577,3.44e+01,1.52e+00,
578,3.28e+01,1.44e+00,
579,3.40e+01,1.52e+00,
580,3.44e+01,1.44e+00,
581,3.28e+01,1.60e+00,
582,3.40e+01,1.60e+00,
583,3.28e+01,1.44e+00,
584,3.28e+01,1.52e+00,
585,3.44e+01,1.68e+00,
586,3.44e+01,1.52e+00,
587,3.28e+01,1.68e+00,
588,3.36e+01,1.60e+00,
589,3.24e+01,1.76e+00,
590,3.28e+01,1.76e+00,
591,3.40e+01,1.60e+00,
592,3.40e+01,1.68e+00,
593,3.28e+01,1.84e+00,
594,3.40e+01,1.76e+00,
595,3.28e+01,1.92e+00,
596,3.28e+01,1.92e+00,
597,3.44e+01,1.76e+00,
598,3.44e+01,1.84e+00,
599,3.28e+01,2.00e+00,
600,3.44e+01,2.00e+00,
601,3.24e+01,1.84e+00,
602,3.36e+01,1.92e+00,
603,3.24e+01,2.16e+00,
604,3.24e+01,1.92e+00,
605,3.40e+01,2.16e+00,
606,3.44e+01,2.08e+00,
607,3.28e+01,2.24e+00,
608,3.28e+01,2.16e+00,
609,3.44e+01,2.32e+00,
610,3.28e+01,2.32e+00,
611,3.44e+01,2.16e+00,
612,3.28e+01,2.24e+00,
613,3.44e+01,2.40e+00,
614,3.40e+01,2.24e+00,
615,3.28e+01,2.48e+00,
616,3.24e+01,2.32e+00,
617,3.44e+01,2.48e+00,
618,3.28e+01,2.40e+00,
619,3.44e+01,2.56e+00,
620,3.28e+01,2.40e+00,
621,3.44e+01,2.64e+00,
622,3.28e+01,2.48e+00,
623,3.44e+01,2.64e+00,
624,3.28e+01,2.56e+00,
625,3.44e+01,2.72e+00,
626,3.44e+01,2.56e+00,
627,3.24e+01,2.80e+00,
628,3.24e+01,2.80e+00,
629,3.40e+01,2.64e+00,
630,3.32e+01,2.72e+00,
631,3.44e+01,2.88e+00,
632,3.44e+01,2.72e+00,
633,3.28e+01,2.96e+00,
634,3.40e+01,2.96e+00,
635,3.28e+01,2.80e+00,
636,3.28e+01,2.96e+00,
637,3.44e+01,3.12e+00,
638,3.40e+01,3.04e+00,
639,3.28e+01,3.20e+00,
640,3.28e+01,3.04e+00,
641,3.40e+01,3.28e+00,
642,3.36e+01,3.12e+00,
643,3.24e+01,3.36e+00,
644,3.28e+01,3.20e+00,
645,3.44e+01,3.44e+00,
646,3.40e+01,3.28e+00,
647,3.28e+01,3.44e+00,
648,3.28e+01,3.36e+00,
649,3.44e+01,3.52e+00,
650,3.28e+01,3.36e+00,
651,3.44e+01,3.60e+00,
652,3.44e+01,3.44e+00,
653,3.24e+01,3.68e+00,
654,3.24e+01,3.52e+00,
655,3.40e+01,3.76e+00,
656,3.28e+01,3.60e+00,
657,3.40e+01,3.76e+00,
658,3.44e+01,3.60e+00,
659,3.28e+01,3.84e+00,
660,3.28e+01,3.68e+00,
661,3.44e+01,3.92e+00,
662,3.28e+01,4.00e+00,
663,3.44e+01,3.76e+00,
664,3.32e+01,4.00e+00,
665,3.44e+01,3.76e+00,
666,3.40e+01,3.84e+00,
667,3.28e+01,4.08e+00,
668,3.24e+01,3.92e+00,
669,3.44e+01,4.08e+00,
670,3.44e+01,3.92e+00,
671,3.28e+01,4.08e+00,
672,3.28e+01,3.92e+00,
673,3.40e+01,4.16e+00,
674,3.28e+01,4.00e+00,
675,3.44e+01,4.16e+00,
676,3.28e+01,4.00e+00,
677,3.44e+01,4.16e+00,
678,3.44e+01,4.00e+00,
679,3.24e+01,4.16e+00,
680,3.36e+01,4.00e+00,
681,3.24e+01,4.16e+00,
682,3.24e+01,4.00e+00,
683,3.40e+01,4.24e+00,
684,3.44e+01,4.08e+00,
685,3.28e+01,4.24e+00,
686,3.28e+01,4.08e+00,
687,3.44e+01,4.24e+00,
688,3.28e+01,4.24e+00,
689,3.44e+01,4.08e+00,
690,3.28e+01,4.24e+00,
691,3.44e+01,4.08e+00,
692,3.40e+01,4.24e+00,
693,3.28e+01,4.08e+00,
694,3.24e+01,4.24e+00,
695,3.40e+01,4.08e+00,
696,3.28e+01,4.08e+00,
697,3.44e+01,4.24e+00,
698,3.40e+01,4.16e+00,
699,3.28e+01,4.32e+00,
700,3.28e+01,4.16e+00,
701,3.44e+01,4.32e+00,
702,3.28e+01,4.16e+00,
703,3.44e+01,4.32e+00,
704,3.44e+01,4.32e+00,
705,3.24e+01,4.16e+00,
706,3.36e+01,4.16e+00,
707,3.24e+01,4.32e+00,
708,3.24e+01,4.32e+00,
709,3.40e+01,4.16e+00,
710,3.44e+01,4.32e+00,
711,3.28e+01,4.16e+00,
712,3.28e+01,4.16e+00,
713,3.44e+01,4.32e+00,
714,3.28e+01,4.16e+00,
715,3.44e+01,4.32e+00,
716,3.28e+01,4.16e+00,
717,3.44e+01,4.40e+00,
718,3.40e+01,4.24e+00,
719,3.24e+01,4.40e+00,
720,3.24e+01,4.40e+00,
721,3.40e+01,4.24e+00,
722,3.44e+01,4.40e+00,
723,3.28e+01,4.24e+00,
724,3.40e+01,4.24e+00,
725,3.28e+01,4.40e+00,
726,3.44e+01,4.24e+00,
727,3.28e+01,4.40e+00,
728,3.28e+01,4.24e+00,
729,3.44e+01,4.40e+00,
730,3.40e+01,4.24e+00,
731,3.24e+01,4.40e+00,
732,3.36e+01,4.32e+00,
733,3.24e+01,4.40e+00,
734,3.24e+01,4.40e+00,
735,3.40e+01,4.24e+00,
736,3.44e+01,4.40e+00,
737,3.28e+01,4.24e+00,
738,3.28e+01,4.40e+00,
739,3.44e+01,4.24e+00,
740,3.28e+01,4.24e+00,
741,3.44e+01,4.40e+00,
742,3.44e+01,4.40e+00,
743,3.28e+01,4.24e+00,
744,3.40e+01,4.24e+00,
745,3.24e+01,4.48e+00,
746,3.36e+01,4.32e+00,
747,3.24e+01,4.48e+00,
748,3.36e+01,4.32e+00,
749,3.24e+01,4.48e+00,
750,3.40e+01,4.32e+00,
751,3.28e+01,4.48e+00,
752,3.28e+01,4.32e+00,
753,3.44e+01,4.48e+00,
754,3.28e+01,4.32e+00,
755,3.44e+01,4.48e+00,
756,3.32e+01,4.32e+00,
757,3.44e+01,4.48e+00,
758,3.36e+01,4.32e+00,
759,3.24e+01,4.48e+00,
760,3.36e+01,4.48e+00,
761,3.24e+01,4.32e+00,
762,3.24e+01,4.40e+00,
763,3.40e+01,4.48e+00,
764,3.44e+01,4.48e+00,
765,3.28e+01,4.32e+00,
766,3.28e+01,4.48e+00,
767,3.44e+01,4.32e+00,
768,3.40e+01,4.32e+00,
769,3.28e+01,4.48e+00,
770,3.40e+01,4.32e+00,
771,3.24e+01,4.48e+00,
772,3.36e+01,4.32e+00,
773,3.24e+01,4.56e+00,
774,3.28e+01,4.40e+00,
775,3.40e+01,4.56e+00,
776,3.28e+01,4.40e+00,
777,3.44e+01,4.56e+00,
778,3.44e+01,4.40e+00,
779,3.28e+01,4.56e+00,
780,3.28e+01,4.56e+00,
781,3.44e+01,4.40e+00,
782,3.32e+01,4.40e+00,
783,3.44e+01,4.56e+00,
784,3.36e+01,4.56e+00,
785,3.24e+01,4.40e+00,
786,3.24e+01,4.56e+00,
787,3.40e+01,4.40e+00,
788,3.24e+01,4.56e+00,
789,3.40e+01,4.40e+00,
790,3.44e+01,4.56e+00,
791,3.28e+01,4.40e+00,
792,3.40e+01,4.40e+00,
793,3.28e+01,4.64e+00,
794,3.44e+01,4.64e+00,
795,3.32e+01,4.48e+00,
796,3.40e+01,4.48e+00,
797,3.24e+01,4.64e+00,
798,3.36e+01,4.64e+00,
799,3.24e+01,4.48e+00,
800,3.24e+01,4.64e+00,
801,3.40e+01,4.48e+00,
802,3.28e+01,4.64e+00,
803,3.40e+01,4.48e+00,
804,3.28e+01,4.48e+00,
805,3.44e+01,4.72e+00,
806,3.28e+01,4.48e+00,
807,3.44e+01,4.72e+00,
808,3.28e+01,4.72e+00,
809,3.44e+01,4.56e+00,
810,3.36e+01,4.56e+00,
811,3.24e+01,4.72e+00,
812,3.36e+01,4.72e+00,
813,3.24e+01,4.56e+00,
814,3.28e+01,4.72e+00,
815,3.40e+01,4.56e+00,
816,3.44e+01,4.56e+00,
817,3.28e+01,4.80e+00,
818,3.28e+01,4.88e+00,
819,3.44e+01,4.64e+00,
820,3.44e+01,4.64e+00,
821,3.28e+01,4.88e+00,
822,3.40e+01,4.64e+00,
823,3.24e+01,4.88e+00,
824,3.36e+01,4.88e+00,
825,3.24e+01,4.64e+00,
826,3.24e+01,4.88e+00,
827,3.40e+01,4.64e+00,
828,3.28e+01,4.88e+00,
829,3.44e+01,4.64e+00,
830,3.28e+01,4.72e+00,
831,3.44e+01,4.96e+00,
832,3.44e+01,4.80e+00,
833,3.28e+01,4.96e+00,
834,3.32e+01,4.80e+00,
835,3.44e+01,4.96e+00,
836,3.40e+01,4.80e+00,
837,3.24e+01,4.96e+00,
838,3.24e+01,4.96e+00,
839,3.36e+01,4.80e+00,
840,3.36e+01,4.80e+00,
841,3.24e+01,4.96e+00,
842,3.28e+01,4.96e+00,
843,3.44e+01,4.80e+00,
844,3.28e+01,4.80e+00,
845,3.44e+01,4.96e+00,
846,3.28e+01,4.80e+00,
847,3.44e+01,5.04e+00,
848,3.44e+01,4.80e+00,
849,3.24e+01,5.04e+00,
850,3.36e+01,4.88e+00,
851,3.24e+01,5.04e+00,
852,3.36e+01,4.88e+00,
853,3.24e+01,5.04e+00,
854,3.28e+01,4.88e+00,
855,3.44e+01,5.04e+00,
856,3.28e+01,4.88e+00,
857,3.44e+01,5.04e+00,
858,3.44e+01,5.04e+00,
859,3.28e+01,4.88e+00,
860,3.28e+01,4.88e+00,
861,3.44e+01,5.04e+00,
862,3.40e+01,4.88e+00,
863,3.24e+01,5.04e+00,
864,3.36e+01,5.04e+00,
865,3.24e+01,4.88e+00,
866,3.24e+01,4.88e+00,
867,3.40e+01,5.12e+00,
868,3.44e+01,5.12e+00,
