APL/APL2-3/data/E3_day1_data/实验2/noon/（二）-3-（e）-2/5Vpp.csv

X,CH1,CH3,Start,Increment,
Sequence,Volt,Volt,-1.200000e-01,2.000000e-04
0,3.00e-01,8.00e-02,
1,2.40e-01,0.00e+00,
2,3.00e-01,8.00e-02,
3,2.40e-01,-8.00e-02,
4,2.40e-01,0.00e+00,
5,3.00e-01,8.00e-02,
6,2.40e-01,0.00e+00,
7,3.00e-01,8.00e-02,
8,3.00e-01,8.00e-02,
9,2.40e-01,-8.00e-02,
10,2.40e-01,8.00e-02,
11,3.00e-01,-8.00e-02,
12,2.40e-01,-8.00e-02,
13,3.00e-01,8.00e-02,
14,2.40e-01,8.00e-02,
15,3.00e-01,-8.00e-02,
16,2.40e-01,8.00e-02,
17,3.00e-01,-8.00e-02,
18,2.80e-01,8.00e-02,
19,2.20e-01,-8.00e-02,
20,2.20e-01,8.00e-02,
21,3.00e-01,-8.00e-02,
22,2.80e-01,-8.00e-02,
23,2.20e-01,8.00e-02,
24,2.80e-01,-8.00e-02,
25,2.20e-01,8.00e-02,
26,2.80e-01,8.00e-02,
27,2.20e-01,-8.00e-02,
28,2.80e-01,8.00e-02,
29,2.20e-01,-8.00e-02,
30,2.20e-01,8.00e-02,
31,2.80e-01,0.00e+00,
32,2.20e-01,8.00e-02,
33,3.00e-01,-8.00e-02,
34,2.20e-01,8.00e-02,
35,2.80e-01,-8.00e-02,
36,2.80e-01,8.00e-02,
37,2.20e-01,-8.00e-02,
38,2.80e-01,-8.00e-02,
39,2.20e-01,8.00e-02,
40,2.80e-01,8.00e-02,
41,2.20e-01,-8.00e-02,
42,2.80e-01,8.00e-02,
43,2.20e-01,0.00e+00,
44,2.80e-01,8.00e-02,
45,2.20e-01,0.00e+00,
46,2.20e-01,0.00e+00,
47,2.80e-01,8.00e-02,
48,2.80e-01,8.00e-02,
49,2.20e-01,-8.00e-02,
50,2.80e-01,-8.00e-02,
51,2.20e-01,8.00e-02,
52,2.80e-01,8.00e-02,
53,2.20e-01,0.00e+00,
54,2.80e-01,8.00e-02,
55,2.20e-01,0.00e+00,
56,2.80e-01,8.00e-02,
57,2.20e-01,-8.00e-02,
58,2.80e-01,-8.00e-02,
59,2.20e-01,8.00e-02,
60,2.80e-01,8.00e-02,
61,2.20e-01,-8.00e-02,
62,2.80e-01,8.00e-02,
63,2.20e-01,-8.00e-02,
64,2.80e-01,8.00e-02,
65,2.20e-01,0.00e+00,
66,2.80e-01,8.00e-02,
67,2.20e-01,0.00e+00,
68,2.80e-01,8.00e-02,
69,2.00e-01,0.00e+00,
70,2.20e-01,8.00e-02,
71,2.80e-01,-8.00e-02,
72,2.60e-01,8.00e-02,
73,2.00e-01,0.00e+00,
74,2.80e-01,8.00e-02,
75,2.00e-01,0.00e+00,
76,2.60e-01,0.00e+00,
77,2.00e-01,8.00e-02,
78,2.60e-01,8.00e-02,
79,2.00e-01,0.00e+00,
80,2.60e-01,8.00e-02,
81,2.00e-01,0.00e+00,
82,2.00e-01,8.00e-02,
83,2.80e-01,0.00e+00,
84,2.60e-01,8.00e-02,
85,2.00e-01,0.00e+00,
86,2.00e-01,0.00e+00,
87,2.60e-01,8.00e-02,
88,2.60e-01,8.00e-02,
89,2.00e-01,0.00e+00,
90,2.60e-01,0.00e+00,
91,2.00e-01,8.00e-02,
92,2.60e-01,0.00e+00,
93,2.00e-01,8.00e-02,
94,2.60e-01,0.00e+00,
95,2.00e-01,8.00e-02,
96,2.60e-01,8.00e-02,
97,2.00e-01,0.00e+00,
98,2.60e-01,8.00e-02,
99,2.00e-01,0.00e+00,
100,2.20e-01,8.00e-02,
101,-2.80e-01,0.00e+00,
102,-2.40e-01,8.00e-02,
103,-3.20e-01,0.00e+00,
104,-2.60e-01,0.00e+00,
105,-3.40e-01,8.00e-02,
106,-2.80e-01,8.00e-02,
107,-3.80e-01,0.00e+00,
108,-3.20e-01,8.00e-02,
109,-4.00e-01,0.00e+00,
110,-3.40e-01,8.00e-02,
111,-4.20e-01,0.00e+00,
112,-3.60e-01,8.00e-02,
113,-4.40e-01,0.00e+00,
114,-3.80e-01,8.00e-02,
115,-4.60e-01,0.00e+00,
116,-4.00e-01,0.00e+00,
117,-4.60e-01,8.00e-02,
118,-4.20e-01,8.00e-02,
119,-4.80e-01,0.00e+00,
120,-4.80e-01,8.00e-02,
121,-4.20e-01,0.00e+00,
122,-4.40e-01,0.00e+00,
123,-5.00e-01,8.00e-02,
124,-4.40e-01,8.00e-02,
125,-5.00e-01,0.00e+00,
126,-4.40e-01,8.00e-02,
127,-5.20e-01,0.00e+00,
128,-5.20e-01,8.00e-02,
129,-4.40e-01,0.00e+00,
130,-4.60e-01,8.00e-02,
131,-5.20e-01,0.00e+00,
132,-4.60e-01,0.00e+00,
133,-5.20e-01,8.00e-02,
134,-4.60e-01,8.00e-02,
135,-5.20e-01,0.00e+00,
136,-5.20e-01,8.00e-02,
137,-4.60e-01,0.00e+00,
138,-5.20e-01,0.00e+00,
139,-4.40e-01,8.00e-02,
140,-5.20e-01,0.00e+00,
141,-4.40e-01,8.00e-02,
142,-4.40e-01,8.00e-02,
143,-5.20e-01,-8.00e-02,
144,-5.00e-01,8.00e-02,
145,-4.40e-01,-8.00e-02,
146,-4.40e-01,8.00e-02,
147,-5.00e-01,-8.00e-02,
148,-5.00e-01,8.00e-02,
149,-4.40e-01,-8.00e-02,
150,-5.00e-01,8.00e-02,
151,-4.40e-01,-8.00e-02,
152,-5.00e-01,8.00e-02,
153,-4.40e-01,-8.00e-02,
154,-4.40e-01,0.00e+00,
155,-5.00e-01,-8.00e-02,
156,-4.40e-01,0.00e+00,
157,-5.00e-01,-8.00e-02,
158,-4.40e-01,-8.00e-02,
159,-5.00e-01,8.00e-02,
160,-5.00e-01,-8.00e-02,
161,-4.40e-01,0.00e+00,
162,-4.40e-01,-8.00e-02,
163,-5.00e-01,0.00e+00,
164,-5.00e-01,-8.00e-02,
165,-4.20e-01,8.00e-02,
166,-4.20e-01,8.00e-02,
167,-5.00e-01,-8.00e-02,
168,-4.20e-01,-8.00e-02,
169,-4.80e-01,0.00e+00,
170,-4.20e-01,-8.00e-02,
171,-5.00e-01,0.00e+00,
172,-4.80e-01,0.00e+00,
173,-4.20e-01,-8.00e-02,
174,-4.80e-01,-8.00e-02,
175,-4.20e-01,0.00e+00,
176,-4.80e-01,0.00e+00,
177,-4.20e-01,-8.00e-02,
178,-4.20e-01,-8.00e-02,
179,-4.80e-01,8.00e-02,
180,-4.80e-01,8.00e-02,
181,-4.20e-01,-8.00e-02,
182,-4.20e-01,-8.00e-02,
183,-4.80e-01,0.00e+00,
184,-4.20e-01,-8.00e-02,
185,-4.80e-01,0.00e+00,
186,-4.80e-01,0.00e+00,
187,-4.20e-01,-8.00e-02,
188,-4.80e-01,-8.00e-02,
189,-4.20e-01,0.00e+00,
190,-4.20e-01,0.00e+00,
191,-4.80e-01,-8.00e-02,
192,-4.20e-01,-8.00e-02,
193,-4.80e-01,0.00e+00,
194,-4.80e-01,-8.00e-02,
195,-4.00e-01,0.00e+00,
196,-4.00e-01,0.00e+00,
197,-4.80e-01,-8.00e-02,
198,-4.60e-01,-8.00e-02,
199,-4.00e-01,0.00e+00,
200,-4.60e-01,0.00e+00,
201,-4.00e-01,-8.00e-02,
202,-4.00e-01,-8.00e-02,
203,-4.60e-01,0.00e+00,
204,-4.00e-01,0.00e+00,
205,-4.60e-01,-8.00e-02,
206,-4.60e-01,0.00e+00,
207,-4.00e-01,-8.00e-02,
208,-4.60e-01,0.00e+00,
209,-4.00e-01,-8.00e-02,
210,-4.60e-01,-8.00e-02,
211,-4.00e-01,0.00e+00,
212,-4.00e-01,0.00e+00,
213,-4.60e-01,-8.00e-02,
214,-4.60e-01,0.00e+00,
215,-4.00e-01,-8.00e-02,
216,-4.00e-01,0.00e+00,
217,-4.60e-01,-8.00e-02,
218,-4.00e-01,0.00e+00,
219,-4.60e-01,-8.00e-02,
220,-4.00e-01,-8.00e-02,
221,-4.60e-01,0.00e+00,
222,-4.00e-01,0.00e+00,
223,-4.60e-01,-8.00e-02,
224,-4.60e-01,-8.00e-02,
225,-4.00e-01,0.00e+00,
226,-4.60e-01,-8.00e-02,
227,-3.80e-01,0.00e+00,
228,-3.80e-01,-8.00e-02,
229,-4.40e-01,0.00e+00,
230,-4.40e-01,0.00e+00,
231,-3.80e-01,-8.00e-02,
232,-4.40e-01,-8.00e-02,
233,-3.80e-01,8.00e-02,
234,-3.80e-01,-8.00e-02,
235,-4.40e-01,8.00e-02,
236,-3.80e-01,-8.00e-02,
237,-4.40e-01,8.00e-02,
238,-3.80e-01,8.00e-02,
239,-4.40e-01,-8.00e-02,
240,-3.80e-01,-8.00e-02,
241,-4.40e-01,8.00e-02,
242,-3.80e-01,-8.00e-02,
243,-4.40e-01,8.00e-02,
244,-4.40e-01,8.00e-02,
245,-3.80e-01,-8.00e-02,
246,-3.80e-01,-8.00e-02,
247,-4.40e-01,8.00e-02,
248,-3.80e-01,-8.00e-02,
249,-4.40e-01,8.00e-02,
250,-3.80e-01,-8.00e-02,
251,-4.40e-01,8.00e-02,
252,-3.80e-01,8.00e-02,
253,-4.40e-01,-8.00e-02,
254,-3.80e-01,8.00e-02,
255,-4.40e-01,-8.00e-02,
256,-3.80e-01,8.00e-02,
257,-4.40e-01,-8.00e-02,
258,-3.80e-01,8.00e-02,
259,-4.40e-01,0.00e+00,
260,-3.80e-01,8.00e-02,
261,-4.40e-01,0.00e+00,
262,-3.80e-01,8.00e-02,
263,-4.40e-01,-8.00e-02,
264,-4.20e-01,8.00e-02,
265,-3.60e-01,-8.00e-02,
266,-4.20e-01,8.00e-02,
267,-3.60e-01,-8.00e-02,
268,-4.20e-01,0.00e+00,
269,-3.60e-01,-8.00e-02,
270,-4.20e-01,-8.00e-02,
271,-3.60e-01,8.00e-02,
272,-4.20e-01,8.00e-02,
273,-3.00e-01,-8.00e-02,
274,-4.20e-01,8.00e-02,
275,-3.60e-01,-8.00e-02,
276,-3.60e-01,-8.00e-02,
277,-4.20e-01,8.00e-02,
278,-3.60e-01,8.00e-02,
279,-4.20e-01,-8.00e-02,
280,-3.60e-01,-8.00e-02,
281,-4.20e-01,0.00e+00,
282,-3.60e-01,-8.00e-02,
283,-4.20e-01,0.00e+00,
284,-3.60e-01,0.00e+00,
285,-4.20e-01,-8.00e-02,
286,-3.60e-01,-8.00e-02,
287,-4.20e-01,0.00e+00,
288,-3.60e-01,0.00e+00,
289,-4.20e-01,-8.00e-02,
290,-4.20e-01,-8.00e-02,
291,-3.60e-01,8.00e-02,
292,-4.20e-01,8.00e-02,
293,-3.40e-01,-8.00e-02,
294,-3.60e-01,-8.00e-02,
295,-4.20e-01,0.00e+00,
296,-3.60e-01,0.00e+00,
297,-4.20e-01,-8.00e-02,
298,-4.20e-01,0.00e+00,
299,-3.40e-01,-8.00e-02,
300,-3.40e-01,-8.00e-02,
301,-4.20e-01,8.00e-02,
302,-3.40e-01,-8.00e-02,
303,-4.20e-01,8.00e-02,
304,-3.40e-01,-8.00e-02,
305,-4.00e-01,8.00e-02,
306,-4.00e-01,0.00e+00,
307,-3.40e-01,-8.00e-02,
308,-3.40e-01,0.00e+00,
309,-4.00e-01,-8.00e-02,
310,-3.40e-01,-8.00e-02,
311,-4.20e-01,8.00e-02,
312,-3.40e-01,-8.00e-02,
313,-4.00e-01,8.00e-02,
314,-3.40e-01,-8.00e-02,
315,-4.00e-01,8.00e-02,
316,-3.40e-01,-8.00e-02,
317,-4.00e-01,8.00e-02,
318,-3.40e-01,0.00e+00,
319,-4.00e-01,-8.00e-02,
320,-3.40e-01,-8.00e-02,
321,-4.00e-01,0.00e+00,
322,-3.40e-01,0.00e+00,
323,-4.00e-01,-8.00e-02,
324,-3.40e-01,0.00e+00,
325,-4.00e-01,-8.00e-02,
326,-3.40e-01,-8.00e-02,
327,-4.00e-01,8.00e-02,
328,-4.00e-01,-8.00e-02,
329,-3.40e-01,8.00e-02,
330,-4.00e-01,-8.00e-02,
331,-3.20e-01,8.00e-02,
332,-3.40e-01,-8.00e-02,
333,-4.00e-01,8.00e-02,
334,-4.00e-01,0.00e+00,
335,-3.20e-01,-8.00e-02,
336,-3.80e-01,-8.00e-02,
337,-3.20e-01,8.00e-02,
338,-3.20e-01,-8.00e-02,
339,-4.00e-01,8.00e-02,
340,-3.80e-01,-8.00e-02,
341,-3.20e-01,8.00e-02,
342,-3.80e-01,-8.00e-02,
343,-3.20e-01,0.00e+00,
344,-3.00e-01,-8.00e-02,
345,-3.80e-01,8.00e-02,
346,-3.00e-01,-8.00e-02,
347,-4.00e-01,8.00e-02,
348,-3.80e-01,-8.00e-02,
349,-3.00e-01,8.00e-02,
350,-3.00e-01,0.00e+00,
351,-3.80e-01,-8.00e-02,
352,-3.80e-01,-8.00e-02,
353,-3.00e-01,8.00e-02,
354,-3.00e-01,-8.00e-02,
355,-3.80e-01,0.00e+00,
356,-3.80e-01,-8.00e-02,
357,-3.00e-01,0.00e+00,
358,-3.80e-01,0.00e+00,
359,-3.00e-01,-8.00e-02,
360,-3.80e-01,-8.00e-02,
361,-3.00e-01,0.00e+00,
362,-3.80e-01,0.00e+00,
363,-3.00e-01,-8.00e-02,
364,-3.00e-01,-8.00e-02,
365,-3.80e-01,8.00e-02,
366,-3.00e-01,-8.00e-02,
367,-3.80e-01,0.00e+00,
368,-3.00e-01,-8.00e-02,
369,-3.80e-01,8.00e-02,
370,-3.80e-01,-8.00e-02,
371,-3.00e-01,8.00e-02,
372,-3.00e-01,0.00e+00,
373,-3.60e-01,-8.00e-02,
374,-3.60e-01,0.00e+00,
375,-3.00e-01,-8.00e-02,
376,-3.00e-01,-8.00e-02,
377,-3.60e-01,0.00e+00,
378,-3.60e-01,0.00e+00,
379,-2.80e-01,-8.00e-02,
380,-3.00e-01,0.00e+00,
381,-3.60e-01,-8.00e-02,
382,-3.60e-01,-8.00e-02,
383,-2.80e-01,0.00e+00,
384,-2.80e-01,0.00e+00,
385,-3.60e-01,-8.00e-02,
386,-3.40e-01,0.00e+00,
387,-2.80e-01,-8.00e-02,
388,-3.40e-01,0.00e+00,
389,-2.80e-01,-8.00e-02,
390,-2.80e-01,0.00e+00,
391,-3.60e-01,-8.00e-02,
392,-2.80e-01,-8.00e-02,
393,-3.60e-01,0.00e+00,
394,-3.40e-01,-8.00e-02,
395,-2.80e-01,0.00e+00,
396,-3.40e-01,-8.00e-02,
397,-2.80e-01,0.00e+00,
398,-3.40e-01,0.00e+00,
399,-2.80e-01,-8.00e-02,
400,-2.80e-01,0.00e+00,
401,-3.60e-01,-8.00e-02,
402,-3.60e-01,0.00e+00,
403,-2.80e-01,-8.00e-02,
404,-2.80e-01,0.00e+00,
405,-3.60e-01,-8.00e-02,
406,-3.40e-01,0.00e+00,
407,-2.80e-01,-8.00e-02,
408,-3.60e-01,0.00e+00,
409,-2.80e-01,-8.00e-02,
410,-3.40e-01,0.00e+00,
411,-2.80e-01,-8.00e-02,
412,-3.40e-01,-8.00e-02,
413,-2.80e-01,0.00e+00,
414,-2.80e-01,-8.00e-02,
415,-3.40e-01,0.00e+00,
416,-3.40e-01,0.00e+00,
417,-2.80e-01,-8.00e-02,
418,-3.40e-01,-8.00e-02,
419,-2.60e-01,0.00e+00,
420,-3.40e-01,0.00e+00,
421,-2.60e-01,-8.00e-02,
422,-3.40e-01,-8.00e-02,
423,-2.60e-01,0.00e+00,
424,-3.20e-01,0.00e+00,
425,-2.60e-01,-8.00e-02,
426,-3.20e-01,-8.00e-02,
427,-2.60e-01,0.00e+00,
428,-3.20e-01,-8.00e-02,
429,-2.60e-01,0.00e+00,
430,-2.60e-01,-8.00e-02,
431,-3.40e-01,0.00e+00,
432,-3.20e-01,0.00e+00,
433,-2.60e-01,-8.00e-02,
434,-3.20e-01,0.00e+00,
435,-2.60e-01,-8.00e-02,
436,-3.20e-01,0.00e+00,
437,-2.60e-01,-8.00e-02,
438,-3.20e-01,-8.00e-02,
439,-2.60e-01,0.00e+00,
440,-3.20e-01,0.00e+00,
441,-2.60e-01,-8.00e-02,
442,-3.20e-01,-8.00e-02,
443,-2.60e-01,0.00e+00,
444,-3.20e-01,0.00e+00,
445,-2.60e-01,-8.00e-02,
446,-3.20e-01,0.00e+00,
447,-2.60e-01,-8.00e-02,
448,-3.20e-01,0.00e+00,
449,-2.60e-01,-8.00e-02,
450,-3.20e-01,0.00e+00,
451,-2.60e-01,-8.00e-02,
452,-3.20e-01,0.00e+00,
453,-2.60e-01,-8.00e-02,
454,-3.20e-01,-8.00e-02,
455,-2.60e-01,0.00e+00,
456,-3.20e-01,0.00e+00,
457,-2.60e-01,-8.00e-02,
458,-3.20e-01,0.00e+00,
459,-2.40e-01,-8.00e-02,
460,-2.60e-01,0.00e+00,
461,-3.20e-01,-8.00e-02,
462,-2.60e-01,0.00e+00,
463,-3.20e-01,-8.00e-02,
464,-2.60e-01,0.00e+00,
465,-3.20e-01,-8.00e-02,
466,-3.20e-01,0.00e+00,
467,-2.60e-01,-8.00e-02,
468,-2.40e-01,-8.00e-02,
469,-3.20e-01,0.00e+00,
470,-2.40e-01,0.00e+00,
471,-3.20e-01,-8.00e-02,
472,-2.40e-01,0.00e+00,
473,-3.20e-01,-8.00e-02,
474,-3.00e-01,-8.00e-02,
475,-2.40e-01,0.00e+00,
476,-3.00e-01,-8.00e-02,
477,-2.40e-01,0.00e+00,
478,-2.40e-01,0.00e+00,
479,-3.20e-01,-8.00e-02,
480,-2.40e-01,0.00e+00,
481,-3.20e-01,-8.00e-02,
482,-3.00e-01,0.00e+00,
483,-2.40e-01,-8.00e-02,
484,-3.00e-01,0.00e+00,
485,-2.40e-01,-8.00e-02,
486,-3.00e-01,-8.00e-02,
487,-2.40e-01,0.00e+00,
488,-3.00e-01,0.00e+00,
489,-2.40e-01,-8.00e-02,
490,-3.00e-01,-8.00e-02,
491,-2.40e-01,0.00e+00,
492,-3.00e-01,-8.00e-02,
493,-2.40e-01,0.00e+00,
494,-2.40e-01,0.00e+00,
495,-3.00e-01,-8.00e-02,
496,-3.00e-01,0.00e+00,
497,-2.40e-01,-8.00e-02,
498,-3.00e-01,-8.00e-02,
499,-2.40e-01,0.00e+00,
500,-3.00e-01,0.00e+00,
501,-2.40e-01,-8.00e-02,
502,-3.00e-01,0.00e+00,
503,-2.40e-01,-8.00e-02,
504,-3.00e-01,-8.00e-02,
505,-2.40e-01,0.00e+00,
506,-3.00e-01,-8.00e-02,
507,-2.40e-01,0.00e+00,
508,-2.40e-01,0.00e+00,
509,-3.00e-01,-8.00e-02,
510,-2.40e-01,-8.00e-02,
511,-3.00e-01,0.00e+00,
512,-2.20e-01,0.00e+00,
513,-3.00e-01,-8.00e-02,
514,-2.20e-01,0.00e+00,
515,-3.00e-01,-8.00e-02,
516,-2.20e-01,-8.00e-02,
517,-3.00e-01,0.00e+00,
518,-2.40e-01,0.00e+00,
519,-3.00e-01,-8.00e-02,
520,-3.00e-01,-8.00e-02,
521,-2.40e-01,0.00e+00,
522,-2.80e-01,-8.00e-02,
523,-2.20e-01,0.00e+00,
524,-2.80e-01,0.00e+00,
525,-2.20e-01,-8.00e-02,
526,-2.20e-01,0.00e+00,
527,-3.00e-01,-8.00e-02,
528,-2.80e-01,0.00e+00,
529,-2.20e-01,-8.00e-02,
530,-3.00e-01,0.00e+00,
531,-2.20e-01,-8.00e-02,
532,-2.80e-01,-8.00e-02,
533,-2.20e-01,0.00e+00,
534,-2.80e-01,0.00e+00,
535,-2.20e-01,-8.00e-02,
536,-2.80e-01,-8.00e-02,
537,-2.20e-01,0.00e+00,
538,-2.80e-01,0.00e+00,
539,-2.20e-01,-8.00e-02,
540,-2.80e-01,0.00e+00,
541,-2.20e-01,-8.00e-02,
542,-2.20e-01,0.00e+00,
543,-2.80e-01,-8.00e-02,
544,-2.80e-01,0.00e+00,
545,-2.20e-01,-8.00e-02,
546,-2.80e-01,-8.00e-02,
547,-2.20e-01,0.00e+00,
548,-2.80e-01,0.00e+00,
549,-2.20e-01,-8.00e-02,
550,-2.20e-01,0.00e+00,
551,-2.80e-01,-8.00e-02,
552,-2.20e-01,0.00e+00,
553,-2.80e-01,-8.00e-02,
554,-2.80e-01,0.00e+00,
555,-2.20e-01,-8.00e-02,
556,-2.20e-01,0.00e+00,
557,-2.80e-01,-1.60e-01,
558,-2.20e-01,0.00e+00,
559,-2.80e-01,-1.60e-01,
560,-2.80e-01,0.00e+00,
561,-2.20e-01,-1.60e-01,
562,-2.20e-01,0.00e+00,
563,-2.80e-01,-1.60e-01,
564,-2.20e-01,-1.60e-01,
565,-2.80e-01,0.00e+00,
566,-2.20e-01,0.00e+00,
567,-2.80e-01,-1.60e-01,
568,-2.80e-01,0.00e+00,
569,-2.00e-01,-1.60e-01,
570,-2.80e-01,0.00e+00,
571,-2.00e-01,-1.60e-01,
572,-2.20e-01,-1.60e-01,
573,-2.80e-01,0.00e+00,
574,-2.60e-01,0.00e+00,
575,-2.00e-01,-1.60e-01,
576,-2.80e-01,0.00e+00,
577,-2.00e-01,-1.60e-01,
578,-2.00e-01,-1.60e-01,
579,-2.80e-01,0.00e+00,
580,-2.60e-01,-1.60e-01,
581,-2.00e-01,0.00e+00,
582,-2.60e-01,0.00e+00,
583,-2.00e-01,-1.60e-01,
584,-2.00e-01,-1.60e-01,
585,-2.80e-01,0.00e+00,
586,-2.60e-01,-8.00e-02,
587,-2.00e-01,-1.60e-01,
588,-2.60e-01,-1.60e-01,
589,-2.00e-01,0.00e+00,
590,-2.60e-01,0.00e+00,
591,-2.00e-01,-1.60e-01,
592,-2.60e-01,-1.60e-01,
593,-2.00e-01,0.00e+00,
594,-2.00e-01,0.00e+00,
595,-2.60e-01,-1.60e-01,
596,-2.60e-01,-1.60e-01,
597,-2.00e-01,0.00e+00,
598,-2.00e-01,0.00e+00,
599,-4.60e-01,-1.60e-01,
600,3.00e-01,0.00e+00,
601,-2.00e-01,-1.60e-01,
602,2.20e-01,-1.60e-01,
603,2.80e-01,0.00e+00,
604,3.00e-01,0.00e+00,
605,2.40e-01,-1.60e-01,
606,2.60e-01,-8.00e-02,
607,3.40e-01,0.00e+00,
608,3.60e-01,0.00e+00,
609,2.80e-01,-1.60e-01,
610,3.20e-01,-1.60e-01,
611,3.80e-01,0.00e+00,
612,3.40e-01,-1.60e-01,
613,4.00e-01,0.00e+00,
614,3.60e-01,0.00e+00,
615,4.20e-01,-8.00e-02,
616,3.60e-01,0.00e+00,
617,4.40e-01,-8.00e-02,
618,3.80e-01,0.00e+00,
619,4.60e-01,-8.00e-02,
620,4.00e-01,0.00e+00,
621,4.60e-01,-8.00e-02,
622,4.00e-01,0.00e+00,
623,4.80e-01,-1.60e-01,
624,4.20e-01,0.00e+00,
625,4.80e-01,-8.00e-02,
626,4.20e-01,0.00e+00,
627,5.00e-01,-8.00e-02,
628,4.40e-01,0.00e+00,
629,5.00e-01,-8.00e-02,
630,5.00e-01,-8.00e-02,
631,4.40e-01,0.00e+00,
632,5.00e-01,0.00e+00,
633,4.40e-01,-8.00e-02,
634,4.40e-01,0.00e+00,
635,5.20e-01,-8.00e-02,
636,4.40e-01,0.00e+00,
637,5.20e-01,-8.00e-02,
638,4.40e-01,0.00e+00,
639,5.20e-01,-8.00e-02,
640,4.60e-01,-8.00e-02,
641,5.20e-01,0.00e+00,
642,4.60e-01,0.00e+00,
643,5.20e-01,-8.00e-02,
644,4.60e-01,0.00e+00,
645,5.20e-01,-8.00e-02,
646,5.20e-01,0.00e+00,
647,4.60e-01,-8.00e-02,
648,5.20e-01,-8.00e-02,
649,4.40e-01,0.00e+00,
650,4.60e-01,0.00e+00,
651,5.20e-01,-8.00e-02,
652,5.20e-01,0.00e+00,
653,4.60e-01,-8.00e-02,
654,5.20e-01,0.00e+00,
655,4.40e-01,-8.00e-02,
656,5.00e-01,-8.00e-02,
657,4.40e-01,0.00e+00,
658,4.40e-01,0.00e+00,
659,5.00e-01,-8.00e-02,
660,4.40e-01,0.00e+00,
661,5.00e-01,-8.00e-02,
662,4.40e-01,0.00e+00,
663,5.00e-01,-8.00e-02,
664,5.00e-01,-8.00e-02,
665,4.40e-01,0.00e+00,
666,4.40e-01,0.00e+00,
667,5.00e-01,-8.00e-02,
668,5.00e-01,0.00e+00,
669,4.20e-01,-8.00e-02,
670,5.00e-01,0.00e+00,
671,4.20e-01,-8.00e-02,
672,5.00e-01,0.00e+00,
673,4.20e-01,-8.00e-02,
674,4.20e-01,0.00e+00,
675,4.80e-01,-8.00e-02,
676,4.80e-01,0.00e+00,
677,4.20e-01,-8.00e-02,
678,4.80e-01,-8.00e-02,
679,4.20e-01,0.00e+00,
680,4.20e-01,0.00e+00,
681,4.80e-01,-8.00e-02,
682,4.80e-01,0.00e+00,
683,4.20e-01,-8.00e-02,
684,4.20e-01,0.00e+00,
685,4.80e-01,-8.00e-02,
686,4.20e-01,-8.00e-02,
687,4.80e-01,0.00e+00,
688,4.80e-01,0.00e+00,
689,4.00e-01,-8.00e-02,
690,4.20e-01,-8.00e-02,
691,4.80e-01,0.00e+00,
692,4.80e-01,0.00e+00,
693,4.20e-01,-8.00e-02,
694,4.00e-01,0.00e+00,
695,4.80e-01,-8.00e-02,
696,4.60e-01,-8.00e-02,
697,4.00e-01,0.00e+00,
698,4.60e-01,-8.00e-02,
699,4.00e-01,0.00e+00,
700,4.60e-01,0.00e+00,
701,4.00e-01,-8.00e-02,
702,4.60e-01,-8.00e-02,
703,4.00e-01,0.00e+00,
704,4.00e-01,0.00e+00,
705,4.80e-01,-8.00e-02,
706,4.00e-01,-8.00e-02,
707,4.60e-01,0.00e+00,
708,4.00e-01,0.00e+00,
709,4.60e-01,-8.00e-02,
710,4.00e-01,0.00e+00,
711,4.60e-01,-8.00e-02,
712,4.60e-01,-8.00e-02,
713,4.00e-01,0.00e+00,
714,4.60e-01,0.00e+00,
715,4.00e-01,-8.00e-02,
716,4.60e-01,0.00e+00,
717,4.00e-01,-8.00e-02,
718,4.60e-01,0.00e+00,
719,4.00e-01,-8.00e-02,
720,4.00e-01,0.00e+00,
721,4.60e-01,-8.00e-02,
722,4.00e-01,0.00e+00,
723,4.60e-01,-8.00e-02,
724,4.60e-01,0.00e+00,
725,3.80e-01,-8.00e-02,
726,4.40e-01,0.00e+00,
727,3.80e-01,-8.00e-02,
728,4.40e-01,0.00e+00,
729,3.80e-01,-8.00e-02,
730,3.80e-01,0.00e+00,
731,4.60e-01,-8.00e-02,
732,4.40e-01,0.00e+00,
733,3.80e-01,-8.00e-02,
734,4.40e-01,0.00e+00,
735,3.80e-01,-8.00e-02,
736,4.40e-01,0.00e+00,
737,3.80e-01,-8.00e-02,
738,3.80e-01,0.00e+00,
739,4.40e-01,-8.00e-02,
740,3.80e-01,0.00e+00,
741,4.40e-01,-8.00e-02,
742,3.80e-01,0.00e+00,
743,4.40e-01,-8.00e-02,
744,3.80e-01,0.00e+00,
745,4.40e-01,-8.00e-02,
746,4.40e-01,0.00e+00,
747,3.80e-01,-8.00e-02,
748,3.80e-01,-8.00e-02,
749,4.40e-01,0.00e+00,
750,3.80e-01,-8.00e-02,
751,4.40e-01,0.00e+00,
752,3.80e-01,0.00e+00,
753,4.40e-01,-8.00e-02,
754,3.80e-01,-8.00e-02,
755,4.40e-01,0.00e+00,
756,3.80e-01,0.00e+00,
757,4.40e-01,-8.00e-02,
758,3.80e-01,-8.00e-02,
759,4.40e-01,0.00e+00,
760,3.80e-01,-8.00e-02,
761,4.40e-01,0.00e+00,
762,3.80e-01,0.00e+00,
763,4.40e-01,-8.00e-02,
764,4.20e-01,-8.00e-02,
765,3.60e-01,0.00e+00,
766,4.40e-01,-8.00e-02,
767,3.60e-01,0.00e+00,
768,4.20e-01,-8.00e-02,
769,3.60e-01,0.00e+00,
770,3.60e-01,0.00e+00,
771,4.20e-01,-8.00e-02,
772,4.20e-01,-8.00e-02,
773,3.60e-01,0.00e+00,
774,3.60e-01,0.00e+00,
775,4.20e-01,-8.00e-02,
776,3.60e-01,0.00e+00,
777,4.20e-01,-8.00e-02,
778,3.60e-01,0.00e+00,
779,4.20e-01,-8.00e-02,
780,3.60e-01,0.00e+00,
781,4.20e-01,-8.00e-02,
782,3.60e-01,0.00e+00,
783,4.20e-01,-8.00e-02,
784,3.60e-01,0.00e+00,
785,4.20e-01,-8.00e-02,
786,3.60e-01,0.00e+00,
787,4.20e-01,-8.00e-02,
788,4.20e-01,0.00e+00,
789,3.60e-01,-8.00e-02,
790,4.20e-01,-8.00e-02,
791,3.60e-01,0.00e+00,
792,3.60e-01,-8.00e-02,
793,4.20e-01,8.00e-02,
794,3.60e-01,0.00e+00,
795,4.20e-01,-8.00e-02,
796,3.60e-01,-8.00e-02,
797,4.20e-01,8.00e-02,
798,4.00e-01,-8.00e-02,
799,3.40e-01,0.00e+00,
800,4.00e-01,0.00e+00,
801,3.40e-01,-8.00e-02,
802,4.00e-01,0.00e+00,
803,3.40e-01,-8.00e-02,
804,4.00e-01,0.00e+00,
805,3.40e-01,-8.00e-02,
806,4.00e-01,-8.00e-02,
807,3.40e-01,0.00e+00,
808,4.00e-01,-8.00e-02,
809,3.40e-01,8.00e-02,
810,4.00e-01,-8.00e-02,
811,3.40e-01,8.00e-02,
812,3.40e-01,8.00e-02,
813,4.00e-01,-8.00e-02,
814,3.40e-01,-8.00e-02,
815,4.00e-01,8.00e-02,
816,3.40e-01,8.00e-02,
817,4.00e-01,-8.00e-02,
818,3.40e-01,0.00e+00,
819,4.00e-01,-8.00e-02,
820,4.00e-01,0.00e+00,
821,3.40e-01,-8.00e-02,
822,3.40e-01,-8.00e-02,
823,4.00e-01,0.00e+00,
824,3.40e-01,0.00e+00,
825,4.00e-01,-8.00e-02,
826,4.00e-01,-8.00e-02,
827,3.20e-01,0.00e+00,
828,3.40e-01,-8.00e-02,
829,4.00e-01,0.00e+00,
830,3.40e-01,-8.00e-02,
831,4.00e-01,8.00e-02,
832,3.40e-01,8.00e-02,
