APL/APL2-3/data/E3_day1_data/实验2/（二）-3-（d）/新建文件7.csv

X,CH1,CH3,Start,Increment,
Sequence,Volt,Volt,-1.200000e-01,2.000000e-04
0,-9.20e-01,-3.20e-01,
1,-1.04e+00,-4.80e-01,
2,-9.60e-01,-4.80e-01,
3,-1.08e+00,-3.20e-01,
4,-1.00e+00,-4.00e-01,
5,-1.12e+00,-5.60e-01,
6,-1.04e+00,-5.60e-01,
7,-1.16e+00,-4.00e-01,
8,-1.16e+00,-4.80e-01,
9,-1.08e+00,-6.40e-01,
10,-1.08e+00,-5.60e-01,
11,-1.20e+00,-6.40e-01,
12,-1.12e+00,-5.60e-01,
13,-1.24e+00,-7.20e-01,
14,-1.16e+00,-6.40e-01,
15,-1.28e+00,-8.80e-01,
16,-1.28e+00,-8.00e-01,
17,-1.20e+00,-8.00e-01,
18,-1.20e+00,-8.00e-01,
19,-1.32e+00,-9.60e-01,
20,-1.24e+00,-8.80e-01,
21,-1.36e+00,-1.04e+00,
22,-1.40e+00,-9.60e-01,
23,-1.32e+00,-1.04e+00,
24,-1.44e+00,-9.60e-01,
25,-1.36e+00,-1.12e+00,
26,-1.44e+00,-1.04e+00,
27,-1.32e+00,-1.20e+00,
28,-1.32e+00,-1.12e+00,
29,-1.40e+00,-1.28e+00,
30,-1.40e+00,-1.28e+00,
31,-1.24e+00,-1.20e+00,
32,-1.32e+00,-1.20e+00,
33,-1.20e+00,-1.36e+00,
34,-1.20e+00,-1.28e+00,
35,-1.28e+00,-1.44e+00,
36,-1.28e+00,-1.44e+00,
37,-1.16e+00,-1.28e+00,
38,-1.24e+00,-1.36e+00,
39,-1.12e+00,-1.44e+00,
40,-1.20e+00,-1.44e+00,
41,-1.08e+00,-1.36e+00,
42,-1.16e+00,-1.36e+00,
43,-1.00e+00,-1.52e+00,
44,-1.08e+00,-1.52e+00,
45,-9.60e-01,-1.36e+00,
46,-1.04e+00,-1.44e+00,
47,-9.20e-01,-1.36e+00,
48,-1.00e+00,-1.44e+00,
49,-8.40e-01,-1.36e+00,
50,-9.20e-01,-1.44e+00,
51,-8.00e-01,-1.28e+00,
52,-8.80e-01,-1.36e+00,
53,-7.60e-01,-1.28e+00,
54,-8.40e-01,-1.36e+00,
55,-6.80e-01,-1.20e+00,
56,-7.60e-01,-1.20e+00,
57,-6.00e-01,-1.36e+00,
58,-7.20e-01,-1.28e+00,
59,-5.60e-01,-1.12e+00,
60,-6.00e-01,-1.20e+00,
61,-4.80e-01,-1.12e+00,
62,-5.60e-01,-1.04e+00,
63,-4.40e-01,-1.20e+00,
64,-5.20e-01,-1.12e+00,
65,-3.60e-01,-9.60e-01,
66,-4.40e-01,-9.60e-01,
67,-3.20e-01,-1.04e+00,
68,-4.00e-01,-1.04e+00,
69,-2.40e-01,-8.80e-01,
70,-3.20e-01,-9.60e-01,
71,-2.00e-01,-8.00e-01,
72,-2.80e-01,-8.80e-01,
73,-1.20e-01,-7.20e-01,
74,-2.00e-01,-8.00e-01,
75,-8.00e-02,-6.40e-01,
76,-1.20e-01,-7.20e-01,
77,0.00e+00,-5.60e-01,
78,-4.00e-02,-6.40e-01,
79,8.00e-02,-4.80e-01,
80,0.00e+00,-4.80e-01,
81,1.60e-01,-6.40e-01,
82,8.00e-02,-5.60e-01,
83,2.00e-01,-4.00e-01,
84,1.20e-01,-4.80e-01,
85,2.80e-01,-3.20e-01,
86,2.00e-01,-4.00e-01,
87,3.20e-01,-3.20e-01,
88,2.40e-01,-4.00e-01,
89,4.00e-01,-2.40e-01,
90,3.20e-01,-3.20e-01,
91,4.40e-01,-1.60e-01,
92,3.60e-01,-2.40e-01,
93,5.20e-01,-1.60e-01,
94,4.40e-01,-2.40e-01,
95,5.60e-01,-8.00e-02,
96,5.20e-01,-1.60e-01,
97,6.80e-01,0.00e+00,
98,5.60e-01,0.00e+00,
99,7.20e-01,-1.60e-01,
100,6.40e-01,-8.00e-02,
101,8.00e-01,8.00e-02,
102,7.20e-01,0.00e+00,
103,8.40e-01,8.00e-02,
104,7.60e-01,0.00e+00,
105,8.80e-01,1.60e-01,
106,8.40e-01,8.00e-02,
107,9.60e-01,2.40e-01,
108,8.80e-01,2.40e-01,
109,1.00e+00,8.00e-02,
110,9.60e-01,1.60e-01,
111,1.08e+00,3.20e-01,
112,1.00e+00,3.20e-01,
113,1.12e+00,2.40e-01,
114,1.04e+00,3.20e-01,
115,1.20e+00,4.80e-01,
116,1.12e+00,4.00e-01,
117,1.24e+00,4.80e-01,
118,1.16e+00,4.00e-01,
119,1.32e+00,5.60e-01,
120,1.28e+00,4.80e-01,
121,1.40e+00,5.60e-01,
122,1.48e+00,4.80e-01,
123,1.28e+00,6.40e-01,
124,1.48e+00,5.60e-01,
125,1.40e+00,6.40e-01,
126,1.40e+00,5.60e-01,
127,1.48e+00,7.20e-01,
128,1.48e+00,6.40e-01,
129,1.40e+00,7.20e-01,
130,1.48e+00,6.40e-01,
131,1.36e+00,8.00e-01,
132,1.36e+00,8.00e-01,
133,1.44e+00,7.20e-01,
134,1.36e+00,7.20e-01,
135,1.44e+00,8.80e-01,
136,1.44e+00,8.80e-01,
137,1.32e+00,7.20e-01,
138,1.40e+00,8.00e-01,
139,1.28e+00,8.80e-01,
140,1.28e+00,8.00e-01,
141,1.36e+00,9.60e-01,
142,1.36e+00,9.60e-01,
143,1.20e+00,8.00e-01,
144,1.32e+00,8.80e-01,
145,1.16e+00,9.60e-01,
146,1.24e+00,8.80e-01,
147,1.16e+00,1.04e+00,
148,1.20e+00,1.04e+00,
149,1.12e+00,8.80e-01,
150,1.20e+00,1.04e+00,
151,1.08e+00,8.80e-01,
152,1.16e+00,9.60e-01,
153,1.04e+00,1.04e+00,
154,1.12e+00,1.04e+00,
155,1.00e+00,9.60e-01,
156,1.08e+00,1.04e+00,
157,9.60e-01,9.60e-01,
158,1.04e+00,9.60e-01,
159,9.20e-01,1.04e+00,
160,1.00e+00,1.04e+00,
161,8.80e-01,9.60e-01,
162,9.60e-01,1.04e+00,
163,8.40e-01,9.60e-01,
164,9.20e-01,1.04e+00,
165,8.00e-01,9.60e-01,
166,8.80e-01,1.04e+00,
167,7.60e-01,9.60e-01,
168,8.40e-01,9.60e-01,
169,7.20e-01,1.04e+00,
170,8.00e-01,1.04e+00,
171,6.80e-01,9.60e-01,
172,7.20e-01,9.60e-01,
173,6.40e-01,1.04e+00,
174,7.20e-01,1.04e+00,
175,5.60e-01,8.80e-01,
176,6.40e-01,1.04e+00,
177,5.20e-01,8.80e-01,
178,6.00e-01,1.04e+00,
179,4.80e-01,8.80e-01,
180,5.60e-01,9.60e-01,
181,4.40e-01,8.80e-01,
182,5.20e-01,9.60e-01,
183,4.00e-01,8.80e-01,
184,4.80e-01,8.80e-01,
185,3.60e-01,9.60e-01,
186,4.40e-01,9.60e-01,
187,3.20e-01,8.80e-01,
188,4.00e-01,9.60e-01,
189,2.80e-01,8.00e-01,
190,3.60e-01,8.80e-01,
191,2.40e-01,8.00e-01,
192,3.20e-01,8.80e-01,
193,2.00e-01,8.00e-01,
194,2.80e-01,8.80e-01,
195,1.60e-01,7.20e-01,
196,2.40e-01,7.20e-01,
197,1.20e-01,8.80e-01,
198,2.00e-01,8.00e-01,
199,8.00e-02,7.20e-01,
200,1.60e-01,8.00e-01,
201,4.00e-02,6.40e-01,
202,1.20e-01,6.40e-01,
203,0.00e+00,8.00e-01,
204,8.00e-02,7.20e-01,
205,-8.00e-02,6.40e-01,
206,4.00e-02,6.40e-01,
207,-1.20e-01,7.20e-01,
208,-1.20e-01,7.20e-01,
209,-4.00e-02,5.60e-01,
210,-8.00e-02,5.60e-01,
211,-1.60e-01,6.40e-01,
212,-1.20e-01,5.60e-01,
213,-2.00e-01,6.40e-01,
214,-1.60e-01,6.40e-01,
215,-2.40e-01,4.80e-01,
216,-1.60e-01,4.80e-01,
217,-2.80e-01,5.60e-01,
218,-2.00e-01,5.60e-01,
219,-3.20e-01,4.00e-01,
220,-2.40e-01,4.00e-01,
221,-3.60e-01,5.60e-01,
222,-2.80e-01,4.00e-01,
223,-4.00e-01,4.80e-01,
224,-3.20e-01,4.80e-01,
225,-4.40e-01,2.40e-01,
226,-3.60e-01,3.20e-01,
227,-4.80e-01,2.40e-01,
228,-4.00e-01,3.20e-01,
229,-5.20e-01,1.60e-01,
230,-5.20e-01,3.20e-01,
231,-4.40e-01,1.60e-01,
232,-4.80e-01,2.40e-01,
233,-5.60e-01,8.00e-02,
234,-4.80e-01,2.40e-01,
235,-6.00e-01,8.00e-02,
236,-5.20e-01,1.60e-01,
237,-6.40e-01,0.00e+00,
238,-5.60e-01,1.60e-01,
239,-6.80e-01,0.00e+00,
240,-6.00e-01,8.00e-02,
241,-7.60e-01,0.00e+00,
242,-6.80e-01,8.00e-02,
243,-8.00e-01,-8.00e-02,
244,-7.20e-01,0.00e+00,
245,-8.40e-01,-8.00e-02,
246,-7.60e-01,0.00e+00,
247,-8.40e-01,-1.60e-01,
248,-8.00e-01,-8.00e-02,
249,-8.80e-01,-2.40e-01,
250,-8.00e-01,-2.40e-01,
251,-9.20e-01,-1.60e-01,
252,-8.40e-01,-1.60e-01,
253,-9.60e-01,-3.20e-01,
254,-8.80e-01,-2.40e-01,
255,-1.00e+00,-4.00e-01,
256,-9.20e-01,-4.00e-01,
257,-1.04e+00,-2.40e-01,
258,-9.60e-01,-3.20e-01,
259,-1.08e+00,-4.80e-01,
260,-1.08e+00,-4.80e-01,
261,-1.00e+00,-4.00e-01,
262,-1.00e+00,-4.00e-01,
263,-1.12e+00,-5.60e-01,
264,-1.04e+00,-4.80e-01,
265,-1.16e+00,-6.40e-01,
266,-1.08e+00,-6.40e-01,
267,-1.20e+00,-4.80e-01,
268,-1.12e+00,-5.60e-01,
269,-1.24e+00,-7.20e-01,
270,-1.16e+00,-6.40e-01,
271,-1.24e+00,-8.00e-01,
272,-1.16e+00,-8.00e-01,
273,-1.28e+00,-8.80e-01,
274,-1.20e+00,-8.00e-01,
275,-1.32e+00,-9.60e-01,
276,-1.24e+00,-8.80e-01,
277,-1.36e+00,-1.04e+00,
278,-1.24e+00,-1.04e+00,
279,-1.40e+00,-9.60e-01,
280,-1.32e+00,-9.60e-01,
281,-1.44e+00,-1.12e+00,
282,-1.36e+00,-1.04e+00,
283,-1.44e+00,-1.20e+00,
284,-1.44e+00,-1.12e+00,
285,-1.32e+00,-1.28e+00,
286,-1.32e+00,-1.20e+00,
287,-1.40e+00,-1.28e+00,
288,-1.40e+00,-1.20e+00,
289,-1.24e+00,-1.36e+00,
290,-1.32e+00,-1.28e+00,
291,-1.20e+00,-1.44e+00,
292,-1.28e+00,-1.44e+00,
293,-1.16e+00,-1.28e+00,
294,-1.24e+00,-1.36e+00,
295,-1.12e+00,-1.44e+00,
296,-1.20e+00,-1.36e+00,
297,-1.08e+00,-1.52e+00,
298,-1.16e+00,-1.52e+00,
299,-1.04e+00,-1.36e+00,
300,-1.12e+00,-1.52e+00,
301,-1.00e+00,-1.36e+00,
302,-1.08e+00,-1.52e+00,
303,-9.60e-01,-1.36e+00,
304,-1.04e+00,-1.52e+00,
305,-8.80e-01,-1.36e+00,
306,-1.00e+00,-1.36e+00,
307,-8.40e-01,-1.44e+00,
308,-9.20e-01,-1.44e+00,
309,-8.00e-01,-1.28e+00,
310,-8.80e-01,-1.44e+00,
311,-7.20e-01,-1.28e+00,
312,-8.00e-01,-1.36e+00,
313,-6.80e-01,-1.28e+00,
314,-7.60e-01,-1.36e+00,
315,-6.00e-01,-1.20e+00,
316,-6.40e-01,-1.28e+00,
317,-5.20e-01,-1.12e+00,
318,-6.00e-01,-1.28e+00,
319,-4.80e-01,-1.12e+00,
320,-5.60e-01,-1.20e+00,
321,-4.00e-01,-1.04e+00,
322,-4.80e-01,-1.12e+00,
323,-3.60e-01,-9.60e-01,
324,-4.00e-01,-9.60e-01,
325,-2.80e-01,-1.12e+00,
326,-3.60e-01,-1.04e+00,
327,-2.40e-01,-8.80e-01,
328,-3.20e-01,-9.60e-01,
329,-1.60e-01,-8.00e-01,
330,-2.40e-01,-8.80e-01,
331,-1.20e-01,-6.40e-01,
332,-1.60e-01,-8.00e-01,
333,-4.00e-02,-6.40e-01,
334,-1.20e-01,-7.20e-01,
335,4.00e-02,-5.60e-01,
336,-4.00e-02,-6.40e-01,
337,1.20e-01,-4.80e-01,
338,4.00e-02,-6.40e-01,
339,1.60e-01,-4.80e-01,
340,8.00e-02,-5.60e-01,
341,2.40e-01,-4.00e-01,
342,1.60e-01,-4.80e-01,
343,2.80e-01,-3.20e-01,
344,2.40e-01,-4.00e-01,
345,3.60e-01,-2.40e-01,
346,2.80e-01,-2.40e-01,
347,4.00e-01,-3.20e-01,
348,3.20e-01,-3.20e-01,
349,4.80e-01,-1.60e-01,
350,4.00e-01,-1.60e-01,
351,5.20e-01,-2.40e-01,
352,4.40e-01,-2.40e-01,
353,6.00e-01,-8.00e-02,
354,5.20e-01,-1.60e-01,
355,6.80e-01,0.00e+00,
356,6.00e-01,-8.00e-02,
357,7.60e-01,8.00e-02,
358,6.80e-01,8.00e-02,
359,8.00e-01,-8.00e-02,
360,7.20e-01,0.00e+00,
361,8.40e-01,8.00e-02,
362,8.00e-01,0.00e+00,
363,9.20e-01,1.60e-01,
364,8.40e-01,8.00e-02,
365,9.60e-01,2.40e-01,
366,9.20e-01,1.60e-01,
367,1.04e+00,2.40e-01,
368,9.60e-01,1.60e-01,
369,1.08e+00,3.20e-01,
370,1.00e+00,2.40e-01,
371,1.16e+00,4.80e-01,
372,1.08e+00,3.20e-01,
373,1.20e+00,4.80e-01,
374,1.12e+00,4.00e-01,
375,1.28e+00,5.60e-01,
376,1.20e+00,4.80e-01,
377,1.32e+00,5.60e-01,
378,1.28e+00,4.80e-01,
379,1.40e+00,6.40e-01,
380,1.28e+00,4.80e-01,
381,1.48e+00,6.40e-01,
382,1.48e+00,5.60e-01,
383,1.40e+00,7.20e-01,
384,1.40e+00,5.60e-01,
385,1.48e+00,7.20e-01,
386,1.40e+00,6.40e-01,
387,1.48e+00,8.00e-01,
388,1.48e+00,6.40e-01,
389,1.36e+00,8.00e-01,
390,1.36e+00,8.00e-01,
391,1.44e+00,7.20e-01,
392,1.44e+00,7.20e-01,
393,1.32e+00,8.80e-01,
394,1.32e+00,8.80e-01,
395,1.40e+00,8.00e-01,
396,1.40e+00,8.80e-01,
397,1.28e+00,8.00e-01,
398,1.36e+00,8.00e-01,
399,1.24e+00,9.60e-01,
400,1.24e+00,9.60e-01,
401,1.32e+00,8.00e-01,
402,1.32e+00,8.80e-01,
403,1.16e+00,9.60e-01,
404,1.24e+00,8.80e-01,
405,1.12e+00,1.04e+00,
406,1.20e+00,1.04e+00,
407,1.08e+00,8.80e-01,
408,1.16e+00,1.04e+00,
409,1.08e+00,8.80e-01,
410,1.12e+00,9.60e-01,
411,1.04e+00,1.04e+00,
412,1.12e+00,1.04e+00,
413,1.00e+00,9.60e-01,
414,1.08e+00,1.04e+00,
415,9.60e-01,9.60e-01,
416,1.04e+00,1.04e+00,
417,9.20e-01,9.60e-01,
418,9.60e-01,1.04e+00,
419,8.80e-01,9.60e-01,
420,9.60e-01,9.60e-01,
421,8.40e-01,1.04e+00,
422,9.20e-01,9.60e-01,
423,8.00e-01,1.04e+00,
424,8.80e-01,9.60e-01,
425,7.60e-01,1.04e+00,
426,8.40e-01,1.04e+00,
427,7.20e-01,9.60e-01,
428,8.00e-01,1.04e+00,
429,6.80e-01,8.80e-01,
430,7.60e-01,8.80e-01,
431,6.40e-01,1.04e+00,
432,6.80e-01,1.04e+00,
433,5.60e-01,8.80e-01,
434,6.40e-01,8.80e-01,
435,5.20e-01,1.04e+00,
436,6.00e-01,8.80e-01,
437,4.80e-01,1.04e+00,
438,5.20e-01,8.80e-01,
439,4.40e-01,9.60e-01,
440,5.20e-01,9.60e-01,
441,4.00e-01,8.80e-01,
442,4.40e-01,9.60e-01,
443,3.60e-01,8.00e-01,
444,3.20e-01,9.60e-01,
445,4.00e-01,8.00e-01,
446,3.60e-01,8.80e-01,
447,2.80e-01,8.00e-01,
448,3.60e-01,8.00e-01,
449,2.40e-01,8.80e-01,
450,3.20e-01,8.80e-01,
451,2.00e-01,8.00e-01,
452,2.80e-01,8.80e-01,
453,1.60e-01,7.20e-01,
454,2.00e-01,7.20e-01,
455,1.20e-01,8.80e-01,
456,2.00e-01,7.20e-01,
457,8.00e-02,8.00e-01,
458,1.20e-01,7.20e-01,
459,4.00e-02,8.00e-01,
460,8.00e-02,6.40e-01,
461,0.00e+00,8.00e-01,
462,8.00e-02,6.40e-01,
463,-4.00e-02,7.20e-01,
464,4.00e-02,7.20e-01,
465,-1.20e-01,5.60e-01,
466,-4.00e-02,5.60e-01,
467,-1.60e-01,7.20e-01,
468,-8.00e-02,6.40e-01,
469,-2.00e-01,5.60e-01,
470,-1.20e-01,6.40e-01,
471,-2.40e-01,4.80e-01,
472,-1.60e-01,4.80e-01,
473,-2.80e-01,6.40e-01,
474,-2.00e-01,4.80e-01,
475,-3.20e-01,5.60e-01,
476,-2.40e-01,5.60e-01,
477,-3.20e-01,4.00e-01,
478,-2.80e-01,4.80e-01,
479,-3.60e-01,4.00e-01,
480,-4.00e-01,4.80e-01,
481,-3.20e-01,3.20e-01,
482,-3.20e-01,4.00e-01,
483,-4.40e-01,3.20e-01,
484,-3.60e-01,3.20e-01,
485,-4.80e-01,2.40e-01,
486,-4.00e-01,3.20e-01,
487,-5.20e-01,1.60e-01,
488,-4.40e-01,2.40e-01,
489,-5.60e-01,1.60e-01,
490,-4.80e-01,2.40e-01,
491,-6.00e-01,8.00e-02,
492,-5.20e-01,8.00e-02,
493,-6.40e-01,2.40e-01,
494,-5.60e-01,1.60e-01,
495,-6.80e-01,0.00e+00,
496,-6.00e-01,1.60e-01,
497,-7.20e-01,0.00e+00,
498,-6.00e-01,8.00e-02,
499,-7.60e-01,-8.00e-02,
500,-6.80e-01,0.00e+00,
501,-8.00e-01,-8.00e-02,
502,-7.20e-01,0.00e+00,
503,-8.40e-01,-1.60e-01,
504,-7.60e-01,-1.60e-01,
505,-8.80e-01,-8.00e-02,
506,-8.00e-01,-8.00e-02,
507,-9.20e-01,-2.40e-01,
508,-9.20e-01,-1.60e-01,
509,-8.40e-01,-3.20e-01,
510,-8.80e-01,-1.60e-01,
511,-9.60e-01,-3.20e-01,
512,-8.80e-01,-2.40e-01,
513,-1.00e+00,-4.00e-01,
514,-9.20e-01,-4.00e-01,
515,-1.04e+00,-3.20e-01,
516,-9.60e-01,-3.20e-01,
517,-1.08e+00,-4.80e-01,
518,-1.00e+00,-4.00e-01,
519,-1.12e+00,-5.60e-01,
520,-1.12e+00,-5.60e-01,
521,-1.04e+00,-4.00e-01,
522,-1.04e+00,-4.80e-01,
523,-1.16e+00,-6.40e-01,
524,-1.08e+00,-5.60e-01,
525,-1.20e+00,-7.20e-01,
526,-1.12e+00,-7.20e-01,
527,-1.24e+00,-5.60e-01,
528,-1.24e+00,-6.40e-01,
529,-1.16e+00,-8.80e-01,
530,-1.28e+00,-8.00e-01,
531,-1.16e+00,-9.60e-01,
532,-1.20e+00,-9.60e-01,
533,-1.32e+00,-8.00e-01,
534,-1.24e+00,-8.80e-01,
535,-1.36e+00,-1.04e+00,
536,-1.24e+00,-9.60e-01,
537,-1.40e+00,-1.12e+00,
538,-1.32e+00,-1.04e+00,
539,-1.44e+00,-1.20e+00,
540,-1.44e+00,-1.20e+00,
541,-1.32e+00,-1.04e+00,
542,-1.32e+00,-1.12e+00,
543,-1.44e+00,-1.28e+00,
544,-1.40e+00,-1.20e+00,
545,-1.28e+00,-1.36e+00,
546,-1.24e+00,-1.20e+00,
547,-1.36e+00,-1.36e+00,
548,-1.32e+00,-1.28e+00,
549,-1.20e+00,-1.36e+00,
550,-1.28e+00,-1.28e+00,
551,-1.16e+00,-1.44e+00,
552,-1.24e+00,-1.44e+00,
553,-1.12e+00,-1.36e+00,
554,-1.20e+00,-1.44e+00,
555,-1.08e+00,-1.36e+00,
556,-1.16e+00,-1.36e+00,
557,-1.04e+00,-1.52e+00,
558,-1.12e+00,-1.52e+00,
559,-1.00e+00,-1.36e+00,
560,-1.08e+00,-1.52e+00,
561,-9.20e-01,-1.36e+00,
562,-1.00e+00,-1.36e+00,
563,-8.80e-01,-1.52e+00,
564,-9.60e-01,-1.44e+00,
565,-8.40e-01,-1.36e+00,
566,-9.20e-01,-1.44e+00,
567,-7.60e-01,-1.28e+00,
568,-8.40e-01,-1.28e+00,
569,-7.20e-01,-1.44e+00,
570,-8.00e-01,-1.36e+00,
571,-6.80e-01,-1.20e+00,
572,-6.80e-01,-1.20e+00,
573,-5.60e-01,-1.36e+00,
574,-6.40e-01,-1.28e+00,
575,-5.20e-01,-1.12e+00,
576,-6.00e-01,-1.20e+00,
577,-4.40e-01,-1.04e+00,
578,-5.20e-01,-1.20e+00,
579,-4.00e-01,-1.04e+00,
580,-4.80e-01,-1.12e+00,
581,-3.20e-01,-9.60e-01,
582,-4.00e-01,-1.04e+00,
583,-2.80e-01,-8.80e-01,
584,-3.60e-01,-8.80e-01,
585,-2.00e-01,-9.60e-01,
586,-2.80e-01,-9.60e-01,
587,-1.60e-01,-8.00e-01,
588,-2.00e-01,-8.00e-01,
589,-8.00e-02,-6.40e-01,
590,-1.60e-01,-7.20e-01,
591,-4.00e-02,-6.40e-01,
592,-1.20e-01,-7.20e-01,
593,8.00e-02,-5.60e-01,
594,0.00e+00,-6.40e-01,
595,1.20e-01,-4.80e-01,
596,4.00e-02,-4.80e-01,
597,2.00e-01,-5.60e-01,
598,1.20e-01,-5.60e-01,
599,2.40e-01,-4.00e-01,
600,2.00e-01,-4.80e-01,
601,3.20e-01,-3.20e-01,
602,2.40e-01,-4.00e-01,
603,3.60e-01,-3.20e-01,
604,2.80e-01,-4.00e-01,
605,4.40e-01,-2.40e-01,
606,3.60e-01,-3.20e-01,
607,4.80e-01,-1.60e-01,
608,4.00e-01,-2.40e-01,
609,5.60e-01,-8.00e-02,
610,4.80e-01,-1.60e-01,
611,6.00e-01,-8.00e-02,
612,5.20e-01,-1.60e-01,
613,6.80e-01,0.00e+00,
614,6.40e-01,-8.00e-02,
615,7.60e-01,8.00e-02,
616,6.80e-01,8.00e-02,
617,8.40e-01,-8.00e-02,
618,7.60e-01,0.00e+00,
619,8.80e-01,1.60e-01,
620,8.00e-01,1.60e-01,
621,9.60e-01,8.00e-02,
622,8.80e-01,8.00e-02,
623,1.00e+00,2.40e-01,
624,9.20e-01,2.40e-01,
625,1.04e+00,1.60e-01,
626,1.00e+00,1.60e-01,
627,1.12e+00,3.20e-01,
628,1.04e+00,3.20e-01,
629,1.16e+00,2.40e-01,
630,1.08e+00,3.20e-01,
631,1.24e+00,4.80e-01,
632,1.16e+00,4.00e-01,
633,1.28e+00,4.80e-01,
634,1.20e+00,4.00e-01,
635,1.36e+00,5.60e-01,
636,1.28e+00,4.80e-01,
637,1.44e+00,6.40e-01,
638,1.36e+00,6.40e-01,
639,1.48e+00,5.60e-01,
640,1.40e+00,5.60e-01,
641,1.48e+00,7.20e-01,
642,1.40e+00,7.20e-01,
643,1.48e+00,5.60e-01,
644,1.48e+00,7.20e-01,
645,1.36e+00,6.40e-01,
646,1.36e+00,6.40e-01,
647,1.48e+00,8.00e-01,
648,1.36e+00,7.20e-01,
649,1.44e+00,8.00e-01,
650,1.44e+00,7.20e-01,
651,1.32e+00,8.80e-01,
652,1.32e+00,8.00e-01,
653,1.40e+00,8.80e-01,
654,1.36e+00,8.00e-01,
655,1.28e+00,9.60e-01,
656,1.36e+00,8.00e-01,
657,1.24e+00,9.60e-01,
658,1.20e+00,9.60e-01,
659,1.32e+00,8.80e-01,
660,1.28e+00,9.60e-01,
661,1.16e+00,8.80e-01,
662,1.24e+00,9.60e-01,
663,1.12e+00,8.80e-01,
664,1.20e+00,1.04e+00,
665,1.08e+00,8.80e-01,
666,1.16e+00,1.04e+00,
667,1.04e+00,8.80e-01,
668,1.12e+00,1.04e+00,
669,1.00e+00,9.60e-01,
670,1.08e+00,9.60e-01,
671,9.60e-01,1.04e+00,
672,1.04e+00,1.04e+00,
673,9.20e-01,9.60e-01,
674,1.00e+00,1.04e+00,
675,8.80e-01,9.60e-01,
676,9.60e-01,1.04e+00,
677,8.40e-01,9.60e-01,
678,9.20e-01,1.04e+00,
679,8.00e-01,9.60e-01,
680,8.80e-01,1.04e+00,
681,7.60e-01,9.60e-01,
682,8.40e-01,1.04e+00,
683,7.20e-01,9.60e-01,
684,8.00e-01,9.60e-01,
685,6.80e-01,1.04e+00,
686,7.60e-01,1.04e+00,
687,6.40e-01,8.80e-01,
688,7.20e-01,1.04e+00,
689,6.00e-01,8.80e-01,
690,6.80e-01,1.04e+00,
691,5.20e-01,8.80e-01,
692,6.00e-01,8.80e-01,
693,4.80e-01,9.60e-01,
694,5.60e-01,9.60e-01,
695,4.40e-01,8.80e-01,
696,5.20e-01,8.80e-01,
697,4.00e-01,9.60e-01,
698,4.80e-01,9.60e-01,
699,3.60e-01,8.80e-01,
700,4.40e-01,9.60e-01,
701,3.20e-01,8.00e-01,
702,4.00e-01,8.00e-01,
703,2.80e-01,9.60e-01,
704,3.60e-01,8.00e-01,
705,2.40e-01,8.80e-01,
706,3.20e-01,8.00e-01,
707,2.00e-01,8.80e-01,
708,2.80e-01,8.80e-01,
709,1.60e-01,7.20e-01,
710,2.40e-01,7.20e-01,
711,1.60e-01,8.80e-01,
712,2.00e-01,7.20e-01,
713,1.20e-01,8.00e-01,
714,1.60e-01,8.00e-01,
715,8.00e-02,7.20e-01,
716,1.20e-01,8.00e-01,
717,4.00e-02,6.40e-01,
718,0.00e+00,6.40e-01,
719,8.00e-02,8.00e-01,
720,-8.00e-02,6.40e-01,
721,4.00e-02,7.20e-01,
722,4.00e-02,7.20e-01,
723,-1.20e-01,5.60e-01,
724,-4.00e-02,6.40e-01,
725,-1.60e-01,5.60e-01,
726,-8.00e-02,6.40e-01,
727,-2.00e-01,4.80e-01,
728,-1.20e-01,4.80e-01,
729,-2.40e-01,6.40e-01,
730,-1.60e-01,4.80e-01,
731,-2.80e-01,5.60e-01,
732,-2.00e-01,4.80e-01,
733,-3.20e-01,5.60e-01,
734,-2.40e-01,5.60e-01,
735,-3.60e-01,4.00e-01,
736,-2.80e-01,4.00e-01,
737,-4.00e-01,4.80e-01,
738,-3.20e-01,4.80e-01,
739,-4.40e-01,2.40e-01,
740,-3.60e-01,4.00e-01,
741,-4.40e-01,2.40e-01,
742,-3.60e-01,3.20e-01,
743,-4.80e-01,1.60e-01,
744,-4.00e-01,3.20e-01,
745,-5.20e-01,1.60e-01,
746,-4.40e-01,2.40e-01,
747,-5.60e-01,1.60e-01,
748,-4.80e-01,2.40e-01,
749,-6.00e-01,8.00e-02,
750,-5.20e-01,1.60e-01,
751,-6.40e-01,8.00e-02,
752,-5.60e-01,1.60e-01,
753,-6.80e-01,0.00e+00,
754,-6.00e-01,8.00e-02,
755,-7.20e-01,0.00e+00,
756,-6.80e-01,8.00e-02,
757,-7.60e-01,-8.00e-02,
758,-7.20e-01,0.00e+00,
759,-8.00e-01,-8.00e-02,
760,-7.20e-01,0.00e+00,
761,-8.40e-01,-1.60e-01,
762,-7.60e-01,-8.00e-02,
763,-8.80e-01,-1.60e-01,
764,-8.00e-01,-8.00e-02,
765,-9.20e-01,-2.40e-01,
766,-8.40e-01,-1.60e-01,
767,-9.60e-01,-3.20e-01,
768,-8.80e-01,-3.20e-01,
769,-1.00e+00,-2.40e-01,
770,-1.00e+00,-2.40e-01,
771,-9.20e-01,-4.00e-01,
772,-9.20e-01,-3.20e-01,
773,-1.04e+00,-4.80e-01,
774,-9.60e-01,-3.20e-01,
775,-1.08e+00,-4.80e-01,
776,-1.00e+00,-4.00e-01,
777,-1.12e+00,-5.60e-01,
778,-1.04e+00,-4.00e-01,
779,-1.16e+00,-5.60e-01,
780,-1.16e+00,-4.80e-01,
781,-1.08e+00,-6.40e-01,
782,-1.08e+00,-5.60e-01,
783,-1.20e+00,-7.20e-01,
784,-1.12e+00,-7.20e-01,
785,-1.24e+00,-6.40e-01,
786,-1.16e+00,-6.40e-01,
787,-1.28e+00,-8.00e-01,
788,-1.28e+00,-8.00e-01,
789,-1.20e+00,-9.60e-01,
790,-1.20e+00,-8.80e-01,
791,-1.36e+00,-1.04e+00,
792,-1.24e+00,-1.04e+00,
793,-1.40e+00,-8.80e-01,
794,-1.28e+00,-9.60e-01,
795,-1.40e+00,-1.12e+00,
796,-1.32e+00,-1.04e+00,
797,-1.44e+00,-1.20e+00,
798,-1.36e+00,-1.12e+00,
799,-1.44e+00,-1.28e+00,
800,-1.32e+00,-1.28e+00,
801,-1.40e+00,-1.12e+00,
802,-1.40e+00,-1.20e+00,
803,-1.24e+00,-1.36e+00,
804,-1.36e+00,-1.36e+00,
805,-1.20e+00,-1.28e+00,
806,-1.32e+00,-1.28e+00,
807,-1.20e+00,-1.44e+00,
808,-1.28e+00,-1.28e+00,
809,-1.16e+00,-1.44e+00,
810,-1.24e+00,-1.36e+00,
811,-1.12e+00,-1.44e+00,
812,-1.20e+00,-1.36e+00,
813,-1.04e+00,-1.52e+00,
814,-1.16e+00,-1.52e+00,
815,-1.00e+00,-1.36e+00,
816,-1.08e+00,-1.52e+00,
817,-9.60e-01,-1.36e+00,
818,-1.04e+00,-1.36e+00,
819,-9.20e-01,-1.44e+00,
820,-1.00e+00,-1.36e+00,
821,-8.80e-01,-1.44e+00,
822,-9.60e-01,-1.44e+00,
823,-8.00e-01,-1.28e+00,
824,-8.80e-01,-1.44e+00,
825,-7.60e-01,-1.28e+00,
826,-8.40e-01,-1.36e+00,
827,-6.80e-01,-1.20e+00,
828,-7.60e-01,-1.20e+00,
829,-6.00e-01,-1.36e+00,
830,-7.20e-01,-1.28e+00,
831,-5.60e-01,-1.12e+00,
832,-6.40e-01,-1.12e+00,
833,-4.80e-01,-1.28e+00,
