APL/APL2-3/data/E3_day1_data/实验2/（二）-3-（d）/新建文件2.csv

X,CH1,CH3,Start,Increment,
Sequence,Volt,Volt,-1.200000e-01,2.000000e-04
0,-8.80e-01,-8.00e-02,
1,-9.60e-01,-2.40e-01,
2,-8.80e-01,-8.00e-02,
3,-1.00e+00,-2.40e-01,
4,-9.20e-01,-8.00e-02,
5,-1.04e+00,-2.40e-01,
6,-9.60e-01,-8.00e-02,
7,-1.04e+00,-2.40e-01,
8,-9.60e-01,-2.40e-01,
9,-1.08e+00,-8.00e-02,
10,-1.00e+00,-8.00e-02,
11,-1.12e+00,-1.60e-01,
12,-1.12e+00,-1.60e-01,
13,-1.04e+00,-8.00e-02,
14,-1.04e+00,-8.00e-02,
15,-1.16e+00,-2.40e-01,
16,-1.08e+00,-2.40e-01,
17,-1.20e+00,-8.00e-02,
18,-1.20e+00,-1.60e-01,
19,-1.12e+00,-8.00e-02,
20,-1.12e+00,-8.00e-02,
21,-1.24e+00,-1.60e-01,
22,-1.16e+00,-1.60e-01,
23,-1.28e+00,-8.00e-02,
24,-1.28e+00,-8.00e-02,
25,-1.20e+00,-1.60e-01,
26,-1.28e+00,-8.00e-02,
27,-1.16e+00,-2.40e-01,
28,-1.16e+00,-8.00e-02,
29,-1.24e+00,-2.40e-01,
30,-1.20e+00,-1.60e-01,
31,-1.12e+00,-8.00e-02,
32,-1.20e+00,-8.00e-02,
33,-1.08e+00,-2.40e-01,
34,-1.16e+00,-8.00e-02,
35,-1.04e+00,-2.40e-01,
36,-1.12e+00,-2.40e-01,
37,-1.00e+00,-8.00e-02,
38,-1.00e+00,-8.00e-02,
39,-1.08e+00,-2.40e-01,
40,-1.04e+00,-8.00e-02,
41,-9.60e-01,-2.40e-01,
42,-1.00e+00,-8.00e-02,
43,-8.80e-01,-2.40e-01,
44,-9.60e-01,-8.00e-02,
45,-8.40e-01,-2.40e-01,
46,-9.20e-01,-8.00e-02,
47,-8.00e-01,-2.40e-01,
48,-8.80e-01,-2.40e-01,
49,-7.60e-01,-8.00e-02,
50,-8.40e-01,-8.00e-02,
51,-7.20e-01,-2.40e-01,
52,-8.00e-01,-8.00e-02,
53,-6.80e-01,-2.40e-01,
54,-6.80e-01,-8.00e-02,
55,-5.60e-01,-2.40e-01,
56,-6.40e-01,-8.00e-02,
57,-5.20e-01,-2.40e-01,
58,-6.00e-01,-8.00e-02,
59,-4.80e-01,-2.40e-01,
60,-5.20e-01,-2.40e-01,
61,-4.00e-01,-8.00e-02,
62,-4.80e-01,-8.00e-02,
63,-3.60e-01,-2.40e-01,
64,-4.40e-01,-2.40e-01,
65,-3.20e-01,-8.00e-02,
66,-3.60e-01,-1.60e-01,
67,-2.40e-01,-2.40e-01,
68,-3.20e-01,-2.40e-01,
69,-2.00e-01,-1.60e-01,
70,-2.80e-01,-2.40e-01,
71,-1.60e-01,-8.00e-02,
72,-2.00e-01,-8.00e-02,
73,-8.00e-02,-2.40e-01,
74,-1.60e-01,-1.60e-01,
75,-4.00e-02,-2.40e-01,
76,-1.20e-01,-2.40e-01,
77,4.00e-02,-8.00e-02,
78,0.00e+00,-1.60e-01,
79,1.20e-01,-2.40e-01,
80,4.00e-02,-1.60e-01,
81,1.60e-01,-2.40e-01,
82,8.00e-02,-1.60e-01,
83,2.00e-01,-2.40e-01,
84,1.60e-01,-1.60e-01,
85,2.80e-01,-2.40e-01,
86,2.00e-01,-1.60e-01,
87,3.20e-01,-2.40e-01,
88,2.40e-01,-2.40e-01,
89,4.00e-01,-1.60e-01,
90,3.20e-01,-1.60e-01,
91,4.40e-01,-2.40e-01,
92,3.60e-01,-2.40e-01,
93,4.80e-01,-1.60e-01,
94,4.00e-01,-1.60e-01,
95,5.60e-01,-2.40e-01,
96,4.80e-01,-1.60e-01,
97,6.00e-01,-2.40e-01,
98,5.20e-01,-1.60e-01,
99,6.40e-01,-2.40e-01,
100,6.00e-01,-1.60e-01,
101,7.20e-01,-2.40e-01,
102,6.80e-01,-1.60e-01,
103,8.00e-01,-2.40e-01,
104,7.20e-01,-1.60e-01,
105,8.40e-01,-2.40e-01,
106,7.60e-01,-2.40e-01,
107,8.80e-01,-1.60e-01,
108,8.40e-01,-1.60e-01,
109,9.60e-01,-2.40e-01,
110,8.80e-01,-1.60e-01,
111,1.00e+00,-2.40e-01,
112,9.20e-01,-1.60e-01,
113,1.04e+00,-2.40e-01,
114,1.00e+00,-1.60e-01,
115,1.12e+00,-2.40e-01,
116,1.04e+00,-1.60e-01,
117,1.16e+00,-3.20e-01,
118,1.08e+00,-1.60e-01,
119,1.20e+00,-3.20e-01,
120,1.12e+00,-1.60e-01,
121,1.32e+00,-3.20e-01,
122,1.20e+00,-2.40e-01,
123,1.36e+00,-1.60e-01,
124,1.28e+00,-1.60e-01,
125,1.36e+00,-3.20e-01,
126,1.28e+00,-1.60e-01,
127,1.36e+00,-3.20e-01,
128,1.28e+00,-1.60e-01,
129,1.36e+00,-3.20e-01,
130,1.32e+00,-1.60e-01,
131,1.24e+00,-3.20e-01,
132,1.20e+00,-3.20e-01,
133,1.32e+00,-1.60e-01,
134,1.32e+00,-3.20e-01,
135,1.16e+00,-1.60e-01,
136,1.24e+00,-3.20e-01,
137,1.16e+00,-1.60e-01,
138,1.24e+00,-3.20e-01,
139,1.12e+00,-1.60e-01,
140,1.20e+00,-1.60e-01,
141,1.12e+00,-3.20e-01,
142,1.20e+00,-2.40e-01,
143,1.08e+00,-1.60e-01,
144,1.16e+00,-1.60e-01,
145,1.04e+00,-3.20e-01,
146,1.04e+00,-1.60e-01,
147,1.12e+00,-3.20e-01,
148,1.08e+00,-3.20e-01,
149,1.00e+00,-1.60e-01,
150,1.08e+00,-1.60e-01,
151,9.60e-01,-3.20e-01,
152,1.04e+00,-3.20e-01,
153,9.20e-01,-2.40e-01,
154,1.00e+00,-3.20e-01,
155,8.80e-01,-1.60e-01,
156,9.60e-01,-3.20e-01,
157,8.40e-01,-1.60e-01,
158,9.20e-01,-3.20e-01,
159,8.00e-01,-1.60e-01,
160,8.00e-01,-3.20e-01,
161,8.80e-01,-2.40e-01,
162,8.40e-01,-2.40e-01,
163,7.60e-01,-3.20e-01,
164,8.40e-01,-3.20e-01,
165,7.20e-01,-2.40e-01,
166,8.00e-01,-2.40e-01,
167,6.80e-01,-3.20e-01,
168,7.60e-01,-3.20e-01,
169,6.40e-01,-2.40e-01,
170,7.20e-01,-2.40e-01,
171,5.60e-01,-3.20e-01,
172,6.40e-01,-3.20e-01,
173,5.20e-01,-2.40e-01,
174,6.00e-01,-3.20e-01,
175,4.80e-01,-2.40e-01,
176,5.60e-01,-3.20e-01,
177,4.40e-01,-2.40e-01,
178,5.20e-01,-3.20e-01,
179,4.00e-01,-2.40e-01,
180,4.00e-01,-3.20e-01,
181,4.80e-01,-2.40e-01,
182,4.40e-01,-2.40e-01,
183,3.60e-01,-3.20e-01,
184,4.00e-01,-3.20e-01,
185,3.20e-01,-1.60e-01,
186,4.00e-01,-3.20e-01,
187,2.80e-01,-1.60e-01,
188,3.60e-01,-3.20e-01,
189,2.40e-01,-1.60e-01,
190,3.20e-01,-1.60e-01,
191,2.00e-01,-3.20e-01,
192,2.80e-01,-2.40e-01,
193,1.60e-01,-1.60e-01,
194,2.40e-01,-2.40e-01,
195,1.20e-01,-1.60e-01,
196,1.20e-01,-2.40e-01,
197,2.00e-01,-1.60e-01,
198,8.00e-02,-2.40e-01,
199,1.60e-01,-1.60e-01,
200,1.20e-01,-2.40e-01,
201,4.00e-02,-1.60e-01,
202,1.20e-01,-1.60e-01,
203,0.00e+00,-2.40e-01,
204,4.00e-02,-2.40e-01,
205,-8.00e-02,-1.60e-01,
206,-8.00e-02,-1.60e-01,
207,4.00e-02,-2.40e-01,
208,-4.00e-02,-1.60e-01,
209,-1.60e-01,-2.40e-01,
210,-8.00e-02,-2.40e-01,
211,-1.60e-01,-1.60e-01,
212,-1.20e-01,-2.40e-01,
213,-2.00e-01,-1.60e-01,
214,-1.20e-01,-2.40e-01,
215,-2.40e-01,-1.60e-01,
216,-1.60e-01,-1.60e-01,
217,-2.80e-01,-2.40e-01,
218,-2.00e-01,-1.60e-01,
219,-3.20e-01,-2.40e-01,
220,-2.40e-01,-2.40e-01,
221,-3.60e-01,-1.60e-01,
222,-3.60e-01,-1.60e-01,
223,-2.80e-01,-2.40e-01,
224,-3.20e-01,-2.40e-01,
225,-4.00e-01,-1.60e-01,
226,-3.20e-01,-2.40e-01,
227,-4.40e-01,-8.00e-02,
228,-3.60e-01,-1.60e-01,
229,-4.80e-01,-2.40e-01,
230,-4.00e-01,-1.60e-01,
231,-5.20e-01,-2.40e-01,
232,-4.40e-01,-1.60e-01,
233,-5.20e-01,-2.40e-01,
234,-4.40e-01,-2.40e-01,
235,-5.60e-01,-8.00e-02,
236,-4.80e-01,-2.40e-01,
237,-6.00e-01,-8.00e-02,
238,-5.20e-01,-2.40e-01,
239,-6.40e-01,-8.00e-02,
240,-5.60e-01,-2.40e-01,
241,-6.80e-01,-8.00e-02,
242,-6.80e-01,-2.40e-01,
243,-6.00e-01,-8.00e-02,
244,-6.40e-01,-8.00e-02,
245,-7.60e-01,-1.60e-01,
246,-6.80e-01,-8.00e-02,
247,-8.00e-01,-1.60e-01,
248,-7.20e-01,-8.00e-02,
249,-8.40e-01,-2.40e-01,
250,-7.60e-01,-8.00e-02,
251,-8.40e-01,-1.60e-01,
252,-8.00e-01,-8.00e-02,
253,-8.80e-01,-1.60e-01,
254,-8.00e-01,-8.00e-02,
255,-9.20e-01,-1.60e-01,
256,-8.40e-01,-1.60e-01,
257,-9.60e-01,-8.00e-02,
258,-8.80e-01,-1.60e-01,
259,-9.60e-01,-8.00e-02,
260,-8.80e-01,-8.00e-02,
261,-1.00e+00,-1.60e-01,
262,-9.20e-01,-8.00e-02,
263,-1.04e+00,-1.60e-01,
264,-1.04e+00,-1.60e-01,
265,-9.60e-01,-8.00e-02,
266,-1.00e+00,-1.60e-01,
267,-1.08e+00,-8.00e-02,
268,-1.00e+00,-8.00e-02,
269,-1.12e+00,-1.60e-01,
270,-1.04e+00,-1.60e-01,
271,-1.16e+00,-8.00e-02,
272,-1.16e+00,-1.60e-01,
273,-1.08e+00,-8.00e-02,
274,-1.08e+00,-1.60e-01,
275,-1.20e+00,-8.00e-02,
276,-1.20e+00,-8.00e-02,
277,-1.12e+00,-1.60e-01,
278,-1.12e+00,-8.00e-02,
279,-1.24e+00,-1.60e-01,
280,-1.16e+00,-8.00e-02,
281,-1.28e+00,-1.60e-01,
282,-1.28e+00,-1.60e-01,
283,-1.20e+00,-8.00e-02,
284,-1.24e+00,-8.00e-02,
285,-1.16e+00,-1.60e-01,
286,-1.24e+00,-1.60e-01,
287,-1.16e+00,-8.00e-02,
288,-1.20e+00,-8.00e-02,
289,-1.12e+00,-1.60e-01,
290,-1.20e+00,-8.00e-02,
291,-1.08e+00,-1.60e-01,
292,-1.16e+00,-8.00e-02,
293,-1.04e+00,-1.60e-01,
294,-1.12e+00,-8.00e-02,
295,-1.00e+00,-1.60e-01,
296,-1.08e+00,-8.00e-02,
297,-9.60e-01,-1.60e-01,
298,-1.04e+00,-1.60e-01,
299,-9.20e-01,-8.00e-02,
300,-1.00e+00,-8.00e-02,
301,-8.80e-01,-1.60e-01,
302,-9.60e-01,-1.60e-01,
303,-8.40e-01,-8.00e-02,
304,-9.20e-01,-8.00e-02,
305,-8.00e-01,-1.60e-01,
306,-8.80e-01,-8.00e-02,
307,-7.60e-01,-1.60e-01,
308,-8.00e-01,-8.00e-02,
309,-6.80e-01,-1.60e-01,
310,-7.60e-01,-8.00e-02,
311,-6.00e-01,-1.60e-01,
312,-7.20e-01,-1.60e-01,
313,-5.60e-01,-8.00e-02,
314,-6.40e-01,-8.00e-02,
315,-5.20e-01,-1.60e-01,
316,-5.60e-01,-8.00e-02,
317,-4.40e-01,-1.60e-01,
318,-5.20e-01,-8.00e-02,
319,-4.00e-01,-2.40e-01,
320,-4.80e-01,-8.00e-02,
321,-3.60e-01,-2.40e-01,
322,-4.00e-01,-2.40e-01,
323,-2.80e-01,-8.00e-02,
324,-3.60e-01,-8.00e-02,
325,-2.40e-01,-2.40e-01,
326,-3.20e-01,-8.00e-02,
327,-1.60e-01,-2.40e-01,
328,-2.40e-01,-8.00e-02,
329,-1.20e-01,-2.40e-01,
330,-2.00e-01,-8.00e-02,
331,-8.00e-02,-2.40e-01,
332,-1.60e-01,-8.00e-02,
333,0.00e+00,-2.40e-01,
334,-8.00e-02,-2.40e-01,
335,8.00e-02,-1.60e-01,
336,0.00e+00,-2.40e-01,
337,1.20e-01,-1.60e-01,
338,8.00e-02,-1.60e-01,
339,1.60e-01,-2.40e-01,
340,1.20e-01,-2.40e-01,
341,2.40e-01,-1.60e-01,
342,1.60e-01,-2.40e-01,
343,2.80e-01,-1.60e-01,
344,2.40e-01,-1.60e-01,
345,3.60e-01,-2.40e-01,
346,2.80e-01,-1.60e-01,
347,4.00e-01,-2.40e-01,
348,3.20e-01,-2.40e-01,
349,4.40e-01,-1.60e-01,
350,3.60e-01,-2.40e-01,
351,5.20e-01,-1.60e-01,
352,4.40e-01,-1.60e-01,
353,5.60e-01,-2.40e-01,
354,4.80e-01,-2.40e-01,
355,6.00e-01,-1.60e-01,
356,5.20e-01,-2.40e-01,
357,7.20e-01,-1.60e-01,
358,6.40e-01,-1.60e-01,
359,7.60e-01,-2.40e-01,
360,6.80e-01,-2.40e-01,
361,8.00e-01,-1.60e-01,
362,7.20e-01,-1.60e-01,
363,8.40e-01,-2.40e-01,
364,8.00e-01,-2.40e-01,
365,9.20e-01,-1.60e-01,
366,8.40e-01,-2.40e-01,
367,9.60e-01,-1.60e-01,
368,8.80e-01,-1.60e-01,
369,1.00e+00,-3.20e-01,
370,9.60e-01,-3.20e-01,
371,1.08e+00,-1.60e-01,
372,1.00e+00,-2.40e-01,
373,1.12e+00,-3.20e-01,
374,1.04e+00,-2.40e-01,
375,1.16e+00,-3.20e-01,
376,1.12e+00,-3.20e-01,
377,1.20e+00,-2.40e-01,
378,1.16e+00,-2.40e-01,
379,1.32e+00,-3.20e-01,
380,1.24e+00,-3.20e-01,
381,1.36e+00,-2.40e-01,
382,1.28e+00,-3.20e-01,
383,1.36e+00,-2.40e-01,
384,1.36e+00,-3.20e-01,
385,1.28e+00,-2.40e-01,
386,1.36e+00,-2.40e-01,
387,1.24e+00,-3.20e-01,
388,1.20e+00,-2.40e-01,
389,1.32e+00,-3.20e-01,
390,1.32e+00,-2.40e-01,
391,1.20e+00,-4.00e-01,
392,1.28e+00,-2.40e-01,
393,1.16e+00,-3.20e-01,
394,1.16e+00,-2.40e-01,
395,1.24e+00,-3.20e-01,
396,1.24e+00,-2.40e-01,
397,1.12e+00,-3.20e-01,
398,1.20e+00,-3.20e-01,
399,1.12e+00,-2.40e-01,
400,1.16e+00,-2.40e-01,
401,1.08e+00,-3.20e-01,
402,1.16e+00,-2.40e-01,
403,1.04e+00,-3.20e-01,
404,1.04e+00,-2.40e-01,
405,1.12e+00,-3.20e-01,
406,1.08e+00,-3.20e-01,
407,1.00e+00,-2.40e-01,
408,1.08e+00,-3.20e-01,
409,9.60e-01,-2.40e-01,
410,1.04e+00,-3.20e-01,
411,9.20e-01,-2.40e-01,
412,1.00e+00,-2.40e-01,
413,8.80e-01,-3.20e-01,
414,9.60e-01,-3.20e-01,
415,8.40e-01,-2.40e-01,
416,9.20e-01,-3.20e-01,
417,8.00e-01,-2.40e-01,
418,8.80e-01,-3.20e-01,
419,7.60e-01,-2.40e-01,
420,7.60e-01,-2.40e-01,
421,8.40e-01,-3.20e-01,
422,7.20e-01,-2.40e-01,
423,8.00e-01,-3.20e-01,
424,8.00e-01,-3.20e-01,
425,6.80e-01,-2.40e-01,
426,7.60e-01,-3.20e-01,
427,6.40e-01,-2.40e-01,
428,7.20e-01,-3.20e-01,
429,5.60e-01,-2.40e-01,
430,6.40e-01,-2.40e-01,
431,5.20e-01,-3.20e-01,
432,6.00e-01,-2.40e-01,
433,4.80e-01,-3.20e-01,
434,5.60e-01,-2.40e-01,
435,4.40e-01,-3.20e-01,
436,5.20e-01,-3.20e-01,
437,4.00e-01,-1.60e-01,
438,4.80e-01,-2.40e-01,
439,3.60e-01,-3.20e-01,
440,4.40e-01,-3.20e-01,
441,3.20e-01,-1.60e-01,
442,4.00e-01,-1.60e-01,
443,2.80e-01,-3.20e-01,
444,3.60e-01,-1.60e-01,
445,2.80e-01,-3.20e-01,
446,3.20e-01,-1.60e-01,
447,2.40e-01,-3.20e-01,
448,3.20e-01,-3.20e-01,
449,2.00e-01,-1.60e-01,
450,2.80e-01,-1.60e-01,
451,1.60e-01,-3.20e-01,
452,2.40e-01,-1.60e-01,
453,1.20e-01,-3.20e-01,
454,2.00e-01,-1.60e-01,
455,8.00e-02,-3.20e-01,
456,1.60e-01,-2.40e-01,
457,4.00e-02,-1.60e-01,
458,1.20e-01,-1.60e-01,
459,0.00e+00,-2.40e-01,
460,0.00e+00,-2.40e-01,
461,8.00e-02,-1.60e-01,
462,4.00e-02,-1.60e-01,
463,-4.00e-02,-3.20e-01,
464,4.00e-02,-1.60e-01,
465,-1.20e-01,-2.40e-01,
466,-4.00e-02,-1.60e-01,
467,-1.60e-01,-3.20e-01,
468,-8.00e-02,-1.60e-01,
469,-2.00e-01,-3.20e-01,
470,-1.20e-01,-2.40e-01,
471,-2.00e-01,-1.60e-01,
472,-1.60e-01,-1.60e-01,
473,-2.40e-01,-2.40e-01,
474,-1.60e-01,-2.40e-01,
475,-2.80e-01,-1.60e-01,
476,-2.00e-01,-1.60e-01,
477,-3.20e-01,-2.40e-01,
478,-2.40e-01,-1.60e-01,
479,-3.60e-01,-2.40e-01,
480,-2.80e-01,-1.60e-01,
481,-4.00e-01,-2.40e-01,
482,-4.00e-01,-1.60e-01,
483,-3.20e-01,-2.40e-01,
484,-3.60e-01,-2.40e-01,
485,-4.80e-01,-1.60e-01,
486,-3.60e-01,-1.60e-01,
487,-4.80e-01,-2.40e-01,
488,-4.00e-01,-2.40e-01,
489,-5.20e-01,-1.60e-01,
490,-4.40e-01,-1.60e-01,
491,-5.60e-01,-2.40e-01,
492,-5.60e-01,-2.40e-01,
493,-4.80e-01,-1.60e-01,
494,-5.20e-01,-2.40e-01,
495,-6.00e-01,-1.60e-01,
496,-5.20e-01,-1.60e-01,
497,-6.40e-01,-2.40e-01,
498,-5.60e-01,-1.60e-01,
499,-6.80e-01,-2.40e-01,
500,-7.20e-01,-2.40e-01,
501,-6.00e-01,-8.00e-02,
502,-6.80e-01,-8.00e-02,
503,-7.60e-01,-2.40e-01,
504,-6.80e-01,-1.60e-01,
505,-8.00e-01,-8.00e-02,
506,-7.20e-01,-8.00e-02,
507,-8.40e-01,-1.60e-01,
508,-7.60e-01,-1.60e-01,
509,-8.80e-01,-8.00e-02,
510,-8.80e-01,-1.60e-01,
511,-8.00e-01,-8.00e-02,
512,-8.00e-01,-8.00e-02,
513,-9.20e-01,-1.60e-01,
514,-8.40e-01,-1.60e-01,
515,-9.60e-01,-8.00e-02,
516,-9.60e-01,-1.60e-01,
517,-8.80e-01,-8.00e-02,
518,-9.20e-01,-8.00e-02,
519,-1.00e+00,-1.60e-01,
520,-9.20e-01,-8.00e-02,
521,-1.04e+00,-1.60e-01,
522,-9.60e-01,-1.60e-01,
523,-1.08e+00,-8.00e-02,
524,-1.08e+00,-8.00e-02,
525,-1.00e+00,-1.60e-01,
526,-1.00e+00,-8.00e-02,
527,-1.12e+00,-1.60e-01,
528,-1.04e+00,-8.00e-02,
529,-1.16e+00,-1.60e-01,
530,-1.16e+00,-1.60e-01,
531,-1.08e+00,-8.00e-02,
532,-1.08e+00,-8.00e-02,
533,-1.20e+00,-1.60e-01,
534,-1.12e+00,-1.60e-01,
535,-1.24e+00,0.00e+00,
536,-1.24e+00,-1.60e-01,
537,-1.12e+00,0.00e+00,
538,-1.16e+00,-8.00e-02,
539,-1.28e+00,-1.60e-01,
540,-1.28e+00,-1.60e-01,
541,-1.20e+00,-8.00e-02,
542,-1.16e+00,-8.00e-02,
543,-1.24e+00,-1.60e-01,
544,-1.24e+00,-8.00e-02,
545,-1.12e+00,-1.60e-01,
546,-1.12e+00,-1.60e-01,
547,-1.20e+00,-8.00e-02,
548,-1.20e+00,-1.60e-01,
549,-1.08e+00,-8.00e-02,
550,-1.16e+00,-1.60e-01,
551,-1.04e+00,-8.00e-02,
552,-1.12e+00,-8.00e-02,
553,-1.00e+00,-1.60e-01,
554,-1.08e+00,-8.00e-02,
555,-9.60e-01,-1.60e-01,
556,-1.04e+00,-1.60e-01,
557,-9.20e-01,-8.00e-02,
558,-1.00e+00,-8.00e-02,
559,-8.80e-01,-1.60e-01,
560,-9.60e-01,-8.00e-02,
561,-8.40e-01,-1.60e-01,
562,-9.20e-01,-8.00e-02,
563,-8.00e-01,-1.60e-01,
564,-8.40e-01,-8.00e-02,
565,-7.20e-01,-1.60e-01,
566,-8.00e-01,-8.00e-02,
567,-6.80e-01,-1.60e-01,
568,-7.60e-01,-8.00e-02,
569,-6.00e-01,-1.60e-01,
570,-7.20e-01,-8.00e-02,
571,-5.60e-01,-1.60e-01,
572,-6.00e-01,-1.60e-01,
573,-4.80e-01,-8.00e-02,
574,-5.60e-01,-8.00e-02,
575,-4.40e-01,-1.60e-01,
576,-5.20e-01,-8.00e-02,
577,-4.00e-01,-1.60e-01,
578,-4.40e-01,-8.00e-02,
579,-3.20e-01,-1.60e-01,
580,-4.00e-01,-8.00e-02,
581,-2.80e-01,-2.40e-01,
582,-3.60e-01,-8.00e-02,
583,-2.00e-01,-2.40e-01,
584,-2.80e-01,-8.00e-02,
585,-1.60e-01,-2.40e-01,
586,-2.40e-01,-8.00e-02,
587,-1.20e-01,-2.40e-01,
588,-2.00e-01,-2.40e-01,
589,-8.00e-02,-8.00e-02,
590,-1.20e-01,-1.60e-01,
591,0.00e+00,-2.40e-01,
592,-4.00e-02,-2.40e-01,
593,8.00e-02,-1.60e-01,
594,0.00e+00,-2.40e-01,
595,1.60e-01,-1.60e-01,
596,8.00e-02,-1.60e-01,
597,2.00e-01,-2.40e-01,
598,1.20e-01,-2.40e-01,
599,2.40e-01,-1.60e-01,
600,2.00e-01,-1.60e-01,
601,3.20e-01,-2.40e-01,
602,2.40e-01,-2.40e-01,
603,3.60e-01,-1.60e-01,
604,2.80e-01,-2.40e-01,
605,4.00e-01,-1.60e-01,
606,3.60e-01,-1.60e-01,
607,4.80e-01,-2.40e-01,
608,4.00e-01,-2.40e-01,
609,5.20e-01,-1.60e-01,
610,4.40e-01,-1.60e-01,
611,5.60e-01,-3.20e-01,
612,5.20e-01,-1.60e-01,
613,6.80e-01,-3.20e-01,
614,5.60e-01,-3.20e-01,
615,6.80e-01,-1.60e-01,
616,6.40e-01,-3.20e-01,
617,7.60e-01,-1.60e-01,
618,7.20e-01,-2.40e-01,
619,8.40e-01,-3.20e-01,
620,7.60e-01,-2.40e-01,
621,8.80e-01,-3.20e-01,
622,8.00e-01,-3.20e-01,
623,9.20e-01,-2.40e-01,
624,8.40e-01,-2.40e-01,
625,9.60e-01,-3.20e-01,
626,9.20e-01,-2.40e-01,
627,1.04e+00,-3.20e-01,
628,9.60e-01,-2.40e-01,
629,1.08e+00,-3.20e-01,
630,1.00e+00,-2.40e-01,
631,1.12e+00,-3.20e-01,
632,1.04e+00,-2.40e-01,
633,1.20e+00,-3.20e-01,
634,1.12e+00,-3.20e-01,
635,1.24e+00,-2.40e-01,
636,1.16e+00,-2.40e-01,
637,1.36e+00,-3.20e-01,
638,1.36e+00,-3.20e-01,
639,1.28e+00,-2.40e-01,
640,1.28e+00,-2.40e-01,
641,1.36e+00,-3.20e-01,
642,1.28e+00,-3.20e-01,
643,1.36e+00,-2.40e-01,
644,1.36e+00,-3.20e-01,
645,1.24e+00,-2.40e-01,
646,1.20e+00,-2.40e-01,
647,1.32e+00,-3.20e-01,
648,1.20e+00,-2.40e-01,
649,1.32e+00,-3.20e-01,
650,1.28e+00,-3.20e-01,
651,1.16e+00,-2.40e-01,
652,1.24e+00,-3.20e-01,
653,1.16e+00,-2.40e-01,
654,1.24e+00,-3.20e-01,
655,1.12e+00,-2.40e-01,
656,1.20e+00,-3.20e-01,
657,1.08e+00,-2.40e-01,
658,1.16e+00,-3.20e-01,
659,1.08e+00,-2.40e-01,
660,1.12e+00,-2.40e-01,
661,1.04e+00,-3.20e-01,
662,1.12e+00,-2.40e-01,
663,1.00e+00,-3.20e-01,
664,1.08e+00,-2.40e-01,
665,9.60e-01,-3.20e-01,
666,9.60e-01,-3.20e-01,
667,1.04e+00,-2.40e-01,
668,9.20e-01,-3.20e-01,
669,1.00e+00,-2.40e-01,
670,9.60e-01,-3.20e-01,
671,8.80e-01,-2.40e-01,
672,9.60e-01,-3.20e-01,
673,8.40e-01,-2.40e-01,
674,9.20e-01,-2.40e-01,
675,8.00e-01,-3.20e-01,
676,8.80e-01,-2.40e-01,
677,7.60e-01,-3.20e-01,
678,8.40e-01,-3.20e-01,
679,7.20e-01,-2.40e-01,
680,8.00e-01,-2.40e-01,
681,6.80e-01,-3.20e-01,
682,7.60e-01,-3.20e-01,
683,6.40e-01,-2.40e-01,
684,7.20e-01,-3.20e-01,
685,6.00e-01,-1.60e-01,
686,5.60e-01,-3.20e-01,
687,6.80e-01,-2.40e-01,
688,6.00e-01,-3.20e-01,
689,5.20e-01,-1.60e-01,
690,5.60e-01,-1.60e-01,
691,4.80e-01,-3.20e-01,
692,5.60e-01,-1.60e-01,
693,4.40e-01,-3.20e-01,
694,5.20e-01,-1.60e-01,
695,4.00e-01,-3.20e-01,
696,4.80e-01,-2.40e-01,
697,3.60e-01,-1.60e-01,
698,4.40e-01,-1.60e-01,
699,3.20e-01,-2.40e-01,
700,4.00e-01,-2.40e-01,
701,2.80e-01,-1.60e-01,
702,3.60e-01,-2.40e-01,
703,2.40e-01,-1.60e-01,
704,2.40e-01,-1.60e-01,
705,3.20e-01,-2.40e-01,
706,2.00e-01,-1.60e-01,
707,2.80e-01,-2.40e-01,
708,2.80e-01,-1.60e-01,
709,1.60e-01,-2.40e-01,
710,2.40e-01,-1.60e-01,
711,1.20e-01,-2.40e-01,
712,2.00e-01,-2.40e-01,
713,8.00e-02,-1.60e-01,
714,1.60e-01,-1.60e-01,
715,4.00e-02,-2.40e-01,
716,1.20e-01,-2.40e-01,
717,0.00e+00,-1.60e-01,
718,8.00e-02,-1.60e-01,
719,-4.00e-02,-2.40e-01,
720,-8.00e-02,-1.60e-01,
721,4.00e-02,-2.40e-01,
722,-4.00e-02,-2.40e-01,
723,-1.20e-01,-1.60e-01,
724,-4.00e-02,-2.40e-01,
725,-1.60e-01,-1.60e-01,
726,-8.00e-02,-2.40e-01,
727,-2.00e-01,-1.60e-01,
728,-1.20e-01,-1.60e-01,
729,-2.40e-01,-2.40e-01,
730,-1.60e-01,-2.40e-01,
731,-2.80e-01,-1.60e-01,
732,-2.00e-01,-2.40e-01,
733,-2.80e-01,-1.60e-01,
734,-2.40e-01,-1.60e-01,
735,-3.20e-01,-2.40e-01,
736,-2.40e-01,-2.40e-01,
737,-3.60e-01,-8.00e-02,
738,-2.80e-01,-2.40e-01,
739,-4.00e-01,-8.00e-02,
740,-3.20e-01,-1.60e-01,
741,-4.40e-01,-2.40e-01,
742,-4.40e-01,-2.40e-01,
743,-3.60e-01,-1.60e-01,
744,-3.60e-01,-2.40e-01,
745,-4.80e-01,-8.00e-02,
746,-4.00e-01,-2.40e-01,
747,-5.20e-01,-8.00e-02,
748,-4.40e-01,-8.00e-02,
749,-5.60e-01,-1.60e-01,
750,-4.80e-01,-8.00e-02,
751,-6.00e-01,-1.60e-01,
752,-6.00e-01,-8.00e-02,
753,-5.20e-01,-1.60e-01,
754,-5.60e-01,-8.00e-02,
755,-6.40e-01,-1.60e-01,
756,-6.00e-01,-8.00e-02,
757,-7.20e-01,-1.60e-01,
758,-6.00e-01,-8.00e-02,
759,-7.60e-01,-1.60e-01,
760,-6.80e-01,-8.00e-02,
761,-7.60e-01,-2.40e-01,
762,-8.00e-01,-8.00e-02,
763,-7.20e-01,-2.40e-01,
764,-7.20e-01,-1.60e-01,
765,-8.40e-01,-8.00e-02,
766,-7.60e-01,-1.60e-01,
767,-8.80e-01,-8.00e-02,
768,-8.00e-01,-8.00e-02,
769,-9.20e-01,-1.60e-01,
770,-9.20e-01,-8.00e-02,
771,-8.40e-01,-1.60e-01,
772,-8.40e-01,-1.60e-01,
773,-9.60e-01,-8.00e-02,
774,-8.80e-01,-8.00e-02,
775,-1.00e+00,-1.60e-01,
776,-9.20e-01,-8.00e-02,
777,-1.00e+00,-1.60e-01,
778,-9.60e-01,-8.00e-02,
779,-1.04e+00,-1.60e-01,
780,-9.60e-01,-8.00e-02,
781,-1.08e+00,-1.60e-01,
782,-1.00e+00,-8.00e-02,
783,-1.12e+00,-1.60e-01,
784,-1.12e+00,-8.00e-02,
785,-1.04e+00,-1.60e-01,
786,-1.04e+00,-1.60e-01,
787,-1.16e+00,-8.00e-02,
788,-1.16e+00,-1.60e-01,
789,-1.08e+00,-8.00e-02,
790,-1.12e+00,-8.00e-02,
791,-1.20e+00,-1.60e-01,
792,-1.12e+00,-8.00e-02,
793,-1.24e+00,-1.60e-01,
794,-1.16e+00,-8.00e-02,
795,-1.28e+00,-1.60e-01,
796,-1.28e+00,-8.00e-02,
797,-1.20e+00,-1.60e-01,
798,-1.28e+00,-8.00e-02,
799,-1.16e+00,-1.60e-01,
800,-1.16e+00,-8.00e-02,
801,-1.24e+00,-1.60e-01,
802,-1.24e+00,-1.60e-01,
803,-1.12e+00,-8.00e-02,
804,-1.20e+00,-8.00e-02,
805,-1.08e+00,-1.60e-01,
806,-1.16e+00,-8.00e-02,
807,-1.08e+00,-1.60e-01,
808,-1.16e+00,-8.00e-02,
809,-1.04e+00,-1.60e-01,
810,-1.12e+00,-8.00e-02,
811,-1.00e+00,-1.60e-01,
812,-1.08e+00,-8.00e-02,
813,-9.60e-01,-1.60e-01,
814,-1.04e+00,-8.00e-02,
815,-9.20e-01,-1.60e-01,
816,-1.00e+00,-8.00e-02,
