APL/APL2-3/data/E3_day1_data/实验2/（二）-3-（d）/新建文件3.csv

X,CH1,CH3,Start,Increment,
Sequence,Volt,Volt,-1.200000e-01,2.000000e-04
0,-5.20e-01,1.12e+00,
1,-6.40e-01,9.60e-01,
2,-5.60e-01,1.12e+00,
3,-6.40e-01,1.04e+00,
4,-6.40e-01,1.12e+00,
5,-5.60e-01,1.04e+00,
6,-5.60e-01,1.04e+00,
7,-6.80e-01,1.12e+00,
8,-6.00e-01,1.12e+00,
9,-7.20e-01,1.04e+00,
10,-7.20e-01,1.04e+00,
11,-6.00e-01,1.20e+00,
12,-6.40e-01,1.20e+00,
13,-7.60e-01,1.04e+00,
14,-7.60e-01,1.12e+00,
15,-6.80e-01,1.20e+00,
16,-6.80e-01,1.12e+00,
17,-8.00e-01,1.20e+00,
18,-7.20e-01,1.20e+00,
19,-8.00e-01,1.12e+00,
20,-8.00e-01,1.20e+00,
21,-6.80e-01,1.12e+00,
22,-6.80e-01,1.20e+00,
23,-7.60e-01,1.12e+00,
24,-6.80e-01,1.12e+00,
25,-7.60e-01,1.28e+00,
26,-7.20e-01,1.28e+00,
27,-6.00e-01,1.12e+00,
28,-6.00e-01,1.28e+00,
29,-6.80e-01,1.12e+00,
30,-7.20e-01,1.28e+00,
31,-5.60e-01,1.20e+00,
32,-6.40e-01,1.28e+00,
33,-5.60e-01,1.20e+00,
34,-6.40e-01,1.20e+00,
35,-5.20e-01,1.28e+00,
36,-6.00e-01,1.28e+00,
37,-4.80e-01,1.20e+00,
38,-5.60e-01,1.28e+00,
39,-4.80e-01,1.20e+00,
40,-5.60e-01,1.28e+00,
41,-4.40e-01,1.20e+00,
42,-5.20e-01,1.20e+00,
43,-4.00e-01,1.36e+00,
44,-4.80e-01,1.36e+00,
45,-4.00e-01,1.20e+00,
46,-4.80e-01,1.36e+00,
47,-3.60e-01,1.20e+00,
48,-4.40e-01,1.36e+00,
49,-3.20e-01,1.20e+00,
50,-3.20e-01,1.36e+00,
51,-4.00e-01,1.28e+00,
52,-3.60e-01,1.36e+00,
53,-2.80e-01,1.28e+00,
54,-3.60e-01,1.36e+00,
55,-2.40e-01,1.28e+00,
56,-3.20e-01,1.28e+00,
57,-2.00e-01,1.36e+00,
58,-2.80e-01,1.36e+00,
59,-1.60e-01,1.28e+00,
60,-2.40e-01,1.36e+00,
61,-1.20e-01,1.28e+00,
62,-1.20e-01,1.36e+00,
63,-2.00e-01,1.28e+00,
64,-2.00e-01,1.36e+00,
65,-8.00e-02,1.28e+00,
66,-1.60e-01,1.36e+00,
67,-4.00e-02,1.28e+00,
68,-1.20e-01,1.36e+00,
69,4.00e-02,1.28e+00,
70,4.00e-02,1.36e+00,
71,-8.00e-02,1.28e+00,
72,0.00e+00,1.36e+00,
73,8.00e-02,1.28e+00,
74,0.00e+00,1.36e+00,
75,1.20e-01,1.28e+00,
76,4.00e-02,1.36e+00,
77,1.60e-01,1.28e+00,
78,8.00e-02,1.36e+00,
79,2.00e-01,1.28e+00,
80,1.20e-01,1.36e+00,
81,2.00e-01,1.28e+00,
82,1.60e-01,1.36e+00,
83,2.40e-01,1.28e+00,
84,1.60e-01,1.36e+00,
85,2.80e-01,1.28e+00,
86,2.00e-01,1.36e+00,
87,3.20e-01,1.28e+00,
88,2.40e-01,1.36e+00,
89,3.60e-01,1.28e+00,
90,2.80e-01,1.28e+00,
91,3.60e-01,1.36e+00,
92,2.80e-01,1.36e+00,
93,4.00e-01,1.28e+00,
94,3.20e-01,1.36e+00,
95,4.40e-01,1.28e+00,
96,3.60e-01,1.36e+00,
97,4.80e-01,1.28e+00,
98,4.80e-01,1.36e+00,
99,4.00e-01,1.28e+00,
100,4.40e-01,1.28e+00,
101,5.20e-01,1.36e+00,
102,4.40e-01,1.36e+00,
103,5.60e-01,1.28e+00,
104,4.80e-01,1.36e+00,
105,6.00e-01,1.28e+00,
106,5.20e-01,1.28e+00,
107,6.40e-01,1.36e+00,
108,5.60e-01,1.36e+00,
109,6.80e-01,1.28e+00,
110,5.60e-01,1.36e+00,
111,7.20e-01,1.28e+00,
112,6.40e-01,1.36e+00,
113,7.60e-01,1.28e+00,
114,7.60e-01,1.36e+00,
115,6.80e-01,1.28e+00,
116,7.20e-01,1.36e+00,
117,8.40e-01,1.20e+00,
118,7.20e-01,1.36e+00,
119,8.40e-01,1.20e+00,
120,7.20e-01,1.36e+00,
121,8.00e-01,1.20e+00,
122,8.00e-01,1.28e+00,
123,7.20e-01,1.12e+00,
124,7.20e-01,1.20e+00,
125,8.00e-01,8.80e-01,
126,7.20e-01,9.60e-01,
127,8.00e-01,-4.00e-01,
128,7.20e-01,-4.00e-01,
129,8.00e-01,-5.44e+00,
130,6.80e-01,-5.52e+00,
131,8.00e-01,-7.52e+00,
132,6.80e-01,-7.52e+00,
133,7.60e-01,-7.68e+00,
134,6.80e-01,-7.60e+00,
135,7.60e-01,-7.68e+00,
136,7.20e-01,-7.60e+00,
137,6.40e-01,-7.68e+00,
138,6.40e-01,-7.60e+00,
139,7.20e-01,-7.68e+00,
140,7.20e-01,-7.60e+00,
141,6.00e-01,-7.68e+00,
142,5.60e-01,-7.60e+00,
143,6.80e-01,-7.76e+00,
144,6.80e-01,-7.60e+00,
145,5.20e-01,-6.32e+00,
146,6.00e-01,-6.40e+00,
147,5.20e-01,-4.56e+00,
148,6.00e-01,-4.56e+00,
149,5.20e-01,-3.52e+00,
150,5.60e-01,-3.60e+00,
151,4.80e-01,-3.04e+00,
152,5.60e-01,-3.12e+00,
153,4.80e-01,-2.72e+00,
154,5.20e-01,-2.80e+00,
155,4.40e-01,-2.48e+00,
156,5.20e-01,-2.56e+00,
157,4.00e-01,-2.24e+00,
158,4.80e-01,-2.32e+00,
159,4.00e-01,-2.08e+00,
160,4.80e-01,-2.16e+00,
161,3.60e-01,-1.92e+00,
162,4.40e-01,-1.92e+00,
163,3.60e-01,-1.68e+00,
164,4.40e-01,-1.76e+00,
165,3.20e-01,-1.52e+00,
166,4.00e-01,-1.60e+00,
167,3.20e-01,-1.36e+00,
168,4.00e-01,-1.52e+00,
169,2.80e-01,-1.28e+00,
170,2.80e-01,-1.36e+00,
171,3.60e-01,-1.20e+00,
172,3.60e-01,-1.28e+00,
173,2.40e-01,-1.04e+00,
174,2.40e-01,-1.12e+00,
175,3.20e-01,-9.60e-01,
176,2.80e-01,-1.04e+00,
177,2.00e-01,-8.80e-01,
178,2.00e-01,-9.60e-01,
179,2.80e-01,-8.00e-01,
180,2.40e-01,-8.00e-01,
181,1.60e-01,-6.40e-01,
182,2.40e-01,-7.20e-01,
183,1.20e-01,-5.60e-01,
184,1.20e-01,-6.40e-01,
185,2.00e-01,-4.80e-01,
186,2.00e-01,-5.60e-01,
187,8.00e-02,-4.00e-01,
188,8.00e-02,-4.80e-01,
189,1.60e-01,-3.20e-01,
190,1.60e-01,-4.00e-01,
191,4.00e-02,-3.20e-01,
192,4.00e-02,-4.00e-01,
193,1.20e-01,-2.40e-01,
194,1.20e-01,-3.20e-01,
195,0.00e+00,-1.60e-01,
196,0.00e+00,-2.40e-01,
197,8.00e-02,-8.00e-02,
198,8.00e-02,-1.60e-01,
199,-8.00e-02,-8.00e-02,
200,4.00e-02,-1.60e-01,
201,-8.00e-02,0.00e+00,
202,0.00e+00,-8.00e-02,
203,-1.20e-01,8.00e-02,
204,-4.00e-02,8.00e-02,
205,-1.20e-01,-8.00e-02,
206,-4.00e-02,0.00e+00,
207,-1.60e-01,1.60e-01,
208,-8.00e-02,0.00e+00,
209,-1.60e-01,1.60e-01,
210,-8.00e-02,8.00e-02,
211,-2.00e-01,2.40e-01,
212,-1.20e-01,2.40e-01,
213,-2.00e-01,1.60e-01,
214,-1.20e-01,1.60e-01,
215,-2.40e-01,3.20e-01,
216,-1.60e-01,2.40e-01,
217,-2.40e-01,3.20e-01,
218,-1.60e-01,2.40e-01,
219,-2.80e-01,4.00e-01,
220,-2.80e-01,4.00e-01,
221,-1.60e-01,4.80e-01,
222,-2.00e-01,4.00e-01,
223,-2.80e-01,4.80e-01,
224,-2.00e-01,4.00e-01,
225,-3.20e-01,5.60e-01,
226,-2.40e-01,4.80e-01,
227,-3.20e-01,6.40e-01,
228,-2.40e-01,6.40e-01,
229,-3.60e-01,4.80e-01,
230,-3.60e-01,5.60e-01,
231,-2.80e-01,6.40e-01,
232,-2.80e-01,5.60e-01,
233,-4.00e-01,7.20e-01,
234,-4.00e-01,6.40e-01,
235,-3.20e-01,7.20e-01,
236,-3.20e-01,6.40e-01,
237,-4.40e-01,7.20e-01,
238,-4.40e-01,6.40e-01,
239,-3.60e-01,8.00e-01,
240,-3.60e-01,7.20e-01,
241,-4.80e-01,8.00e-01,
242,-4.80e-01,7.20e-01,
243,-4.00e-01,8.00e-01,
244,-4.00e-01,7.20e-01,
245,-5.20e-01,8.00e-01,
246,-5.20e-01,7.20e-01,
247,-4.40e-01,8.80e-01,
248,-5.20e-01,8.00e-01,
249,-4.40e-01,8.80e-01,
250,-4.40e-01,8.00e-01,
251,-5.60e-01,8.80e-01,
252,-5.60e-01,8.00e-01,
253,-4.80e-01,9.60e-01,
254,-4.80e-01,8.00e-01,
255,-6.00e-01,9.60e-01,
256,-5.20e-01,9.60e-01,
257,-6.00e-01,8.80e-01,
258,-6.00e-01,9.60e-01,
259,-5.20e-01,8.80e-01,
260,-5.60e-01,8.80e-01,
261,-6.40e-01,9.60e-01,
262,-6.40e-01,8.80e-01,
263,-5.60e-01,1.04e+00,
264,-5.60e-01,1.04e+00,
265,-6.80e-01,9.60e-01,
266,-6.00e-01,9.60e-01,
267,-6.80e-01,1.04e+00,
268,-6.80e-01,9.60e-01,
269,-6.00e-01,1.04e+00,
270,-6.00e-01,9.60e-01,
271,-7.60e-01,1.12e+00,
272,-7.60e-01,1.04e+00,
273,-6.80e-01,1.12e+00,
274,-6.80e-01,1.12e+00,
275,-8.00e-01,1.04e+00,
276,-8.00e-01,1.04e+00,
277,-6.80e-01,1.12e+00,
278,-8.00e-01,1.12e+00,
279,-6.80e-01,1.04e+00,
280,-6.80e-01,1.04e+00,
281,-7.60e-01,1.20e+00,
282,-6.80e-01,1.20e+00,
283,-7.60e-01,1.12e+00,
284,-7.20e-01,1.20e+00,
285,-6.00e-01,1.12e+00,
286,-6.00e-01,1.20e+00,
287,-7.20e-01,1.12e+00,
288,-6.80e-01,1.20e+00,
289,-5.60e-01,1.12e+00,
290,-6.40e-01,1.20e+00,
291,-5.60e-01,1.12e+00,
292,-6.40e-01,1.12e+00,
293,-5.20e-01,1.20e+00,
294,-6.00e-01,1.12e+00,
295,-5.20e-01,1.28e+00,
296,-5.60e-01,1.12e+00,
297,-4.80e-01,1.28e+00,
298,-5.60e-01,1.12e+00,
299,-4.40e-01,1.28e+00,
300,-5.20e-01,1.28e+00,
301,-4.40e-01,1.20e+00,
302,-4.80e-01,1.20e+00,
303,-4.00e-01,1.28e+00,
304,-4.80e-01,1.28e+00,
305,-3.60e-01,1.20e+00,
306,-4.40e-01,1.28e+00,
307,-3.20e-01,1.20e+00,
308,-4.00e-01,1.20e+00,
309,-2.80e-01,1.28e+00,
310,-2.80e-01,1.28e+00,
311,-3.60e-01,1.20e+00,
312,-3.60e-01,1.20e+00,
313,-2.40e-01,1.36e+00,
314,-3.20e-01,1.36e+00,
315,-2.00e-01,1.20e+00,
316,-2.80e-01,1.36e+00,
317,-1.60e-01,1.20e+00,
318,-1.60e-01,1.36e+00,
319,-2.40e-01,1.28e+00,
320,-1.20e-01,1.36e+00,
321,-2.00e-01,1.28e+00,
322,-2.00e-01,1.36e+00,
323,-8.00e-02,1.28e+00,
324,-1.60e-01,1.36e+00,
325,-4.00e-02,1.20e+00,
326,-1.20e-01,1.36e+00,
327,0.00e+00,1.20e+00,
328,4.00e-02,1.36e+00,
329,-8.00e-02,1.20e+00,
330,0.00e+00,1.36e+00,
331,8.00e-02,1.28e+00,
332,0.00e+00,1.36e+00,
333,1.20e-01,1.28e+00,
334,4.00e-02,1.36e+00,
335,1.60e-01,1.28e+00,
336,8.00e-02,1.36e+00,
337,2.00e-01,1.28e+00,
338,1.20e-01,1.28e+00,
339,2.00e-01,1.36e+00,
340,1.60e-01,1.36e+00,
341,2.40e-01,1.28e+00,
342,1.60e-01,1.36e+00,
343,2.80e-01,1.28e+00,
344,2.00e-01,1.36e+00,
345,3.20e-01,1.28e+00,
346,2.40e-01,1.36e+00,
347,3.60e-01,1.28e+00,
348,3.60e-01,1.36e+00,
349,2.80e-01,1.28e+00,
350,3.20e-01,1.36e+00,
351,4.00e-01,1.28e+00,
352,3.20e-01,1.28e+00,
353,4.40e-01,1.36e+00,
354,3.60e-01,1.36e+00,
355,4.80e-01,1.28e+00,
356,4.00e-01,1.36e+00,
357,5.20e-01,1.28e+00,
358,4.40e-01,1.36e+00,
359,5.20e-01,1.28e+00,
360,4.40e-01,1.36e+00,
361,5.60e-01,1.28e+00,
362,4.80e-01,1.36e+00,
363,6.00e-01,1.28e+00,
364,6.00e-01,1.36e+00,
365,5.20e-01,1.28e+00,
366,5.60e-01,1.28e+00,
367,6.80e-01,1.36e+00,
368,5.60e-01,1.36e+00,
369,7.20e-01,1.28e+00,
370,6.40e-01,1.28e+00,
371,7.60e-01,1.36e+00,
372,7.60e-01,1.36e+00,
373,6.40e-01,1.20e+00,
374,7.20e-01,1.36e+00,
375,8.00e-01,1.20e+00,
376,7.20e-01,1.28e+00,
377,8.00e-01,1.20e+00,
378,8.00e-01,1.28e+00,
379,7.20e-01,1.12e+00,
380,7.20e-01,1.20e+00,
381,8.00e-01,1.04e+00,
382,7.20e-01,1.12e+00,
383,8.00e-01,8.00e-01,
384,8.00e-01,8.80e-01,
385,7.20e-01,0.00e+00,
386,8.00e-01,0.00e+00,
387,7.20e-01,-2.88e+00,
388,7.60e-01,-2.88e+00,
389,6.80e-01,-6.64e+00,
390,6.80e-01,-6.64e+00,
391,7.60e-01,-7.52e+00,
392,6.80e-01,-7.36e+00,
393,7.60e-01,-7.60e+00,
394,7.20e-01,-7.60e+00,
395,6.40e-01,-7.44e+00,
396,6.40e-01,-7.68e+00,
397,7.20e-01,-7.44e+00,
398,7.20e-01,-7.68e+00,
399,6.00e-01,-7.52e+00,
400,5.60e-01,-7.60e+00,
401,6.80e-01,-6.96e+00,
402,5.60e-01,-7.12e+00,
403,6.80e-01,-5.36e+00,
404,6.00e-01,-5.36e+00,
405,5.20e-01,-3.76e+00,
406,6.00e-01,-3.84e+00,
407,4.80e-01,-2.96e+00,
408,4.80e-01,-3.04e+00,
409,5.60e-01,-2.48e+00,
410,5.60e-01,-2.56e+00,
411,4.40e-01,-2.16e+00,
412,4.40e-01,-2.24e+00,
413,5.20e-01,-1.92e+00,
414,5.20e-01,-1.92e+00,
415,4.00e-01,-1.68e+00,
416,4.00e-01,-1.76e+00,
417,4.80e-01,-1.44e+00,
418,4.80e-01,-1.60e+00,
419,3.60e-01,-1.36e+00,
420,4.40e-01,-1.44e+00,
421,3.60e-01,-1.20e+00,
422,4.40e-01,-1.28e+00,
423,3.20e-01,-1.04e+00,
424,4.00e-01,-1.12e+00,
425,3.20e-01,-9.60e-01,
426,3.60e-01,-1.04e+00,
427,2.80e-01,-8.80e-01,
428,3.60e-01,-8.80e-01,
429,2.80e-01,-7.20e-01,
430,3.20e-01,-7.20e-01,
431,2.40e-01,-5.60e-01,
432,3.20e-01,-6.40e-01,
433,2.40e-01,-4.80e-01,
434,2.80e-01,-4.80e-01,
435,2.00e-01,-5.60e-01,
436,2.80e-01,-5.60e-01,
437,2.00e-01,-3.20e-01,
438,2.40e-01,-4.00e-01,
439,1.60e-01,-3.20e-01,
440,2.40e-01,-4.00e-01,
441,1.20e-01,-2.40e-01,
442,1.20e-01,-3.20e-01,
443,2.00e-01,-1.60e-01,
444,1.20e-01,-2.40e-01,
445,2.00e-01,-8.00e-02,
446,1.60e-01,-8.00e-02,
447,8.00e-02,-1.60e-01,
448,1.60e-01,-1.60e-01,
449,4.00e-02,0.00e+00,
450,4.00e-02,-8.00e-02,
451,1.20e-01,8.00e-02,
452,1.20e-01,8.00e-02,
453,0.00e+00,0.00e+00,
454,0.00e+00,0.00e+00,
455,8.00e-02,1.60e-01,
456,8.00e-02,8.00e-02,
457,-4.00e-02,1.60e-01,
458,4.00e-02,2.40e-01,
459,-8.00e-02,8.00e-02,
460,4.00e-02,1.60e-01,
461,-1.20e-01,3.20e-01,
462,-1.20e-01,3.20e-01,
463,-4.00e-02,2.40e-01,
464,-4.00e-02,2.40e-01,
465,-1.60e-01,4.80e-01,
466,-1.60e-01,3.20e-01,
467,-8.00e-02,4.80e-01,
468,-8.00e-02,4.00e-01,
469,-2.00e-01,5.60e-01,
470,-2.00e-01,4.80e-01,
471,-1.20e-01,5.60e-01,
472,-1.20e-01,4.80e-01,
473,-2.40e-01,5.60e-01,
474,-2.40e-01,4.80e-01,
475,-1.60e-01,6.40e-01,
476,-1.60e-01,6.40e-01,
477,-2.80e-01,5.60e-01,
478,-2.00e-01,5.60e-01,
479,-2.80e-01,7.20e-01,
480,-2.00e-01,7.20e-01,
481,-2.80e-01,5.60e-01,
482,-2.40e-01,7.20e-01,
483,-3.20e-01,6.40e-01,
484,-3.20e-01,6.40e-01,
485,-2.40e-01,8.00e-01,
486,-2.80e-01,8.00e-01,
487,-3.60e-01,6.40e-01,
488,-2.80e-01,7.20e-01,
489,-3.60e-01,8.00e-01,
490,-3.20e-01,7.20e-01,
491,-4.00e-01,8.00e-01,
492,-4.00e-01,7.20e-01,
493,-3.20e-01,8.80e-01,
494,-3.20e-01,8.80e-01,
495,-4.40e-01,7.20e-01,
496,-3.60e-01,8.80e-01,
497,-4.40e-01,8.00e-01,
498,-3.60e-01,8.00e-01,
499,-4.80e-01,8.80e-01,
500,-4.80e-01,8.00e-01,
501,-4.00e-01,9.60e-01,
502,-4.00e-01,8.00e-01,
503,-5.20e-01,9.60e-01,
504,-4.40e-01,9.60e-01,
505,-5.20e-01,8.80e-01,
506,-4.40e-01,9.60e-01,
507,-5.60e-01,8.80e-01,
508,-4.80e-01,8.80e-01,
509,-5.60e-01,1.04e+00,
510,-5.60e-01,1.04e+00,
511,-4.80e-01,9.60e-01,
512,-4.80e-01,1.04e+00,
513,-6.00e-01,9.60e-01,
514,-6.00e-01,1.04e+00,
515,-5.20e-01,9.60e-01,
516,-5.20e-01,9.60e-01,
517,-6.00e-01,1.12e+00,
518,-5.60e-01,1.12e+00,
519,-6.40e-01,9.60e-01,
520,-6.40e-01,1.12e+00,
521,-5.60e-01,1.04e+00,
522,-5.60e-01,1.04e+00,
523,-7.20e-01,1.12e+00,
524,-7.20e-01,1.12e+00,
525,-6.00e-01,1.04e+00,
526,-7.20e-01,1.12e+00,
527,-6.00e-01,1.04e+00,
528,-6.00e-01,1.04e+00,
529,-7.60e-01,1.20e+00,
530,-6.80e-01,1.12e+00,
531,-7.60e-01,1.20e+00,
532,-6.80e-01,1.20e+00,
533,-8.00e-01,1.12e+00,
534,-8.00e-01,1.12e+00,
535,-7.20e-01,1.20e+00,
536,-7.60e-01,1.20e+00,
537,-6.80e-01,1.12e+00,
538,-6.80e-01,1.20e+00,
539,-7.60e-01,1.12e+00,
540,-6.80e-01,1.12e+00,
541,-7.60e-01,1.20e+00,
542,-6.80e-01,1.12e+00,
543,-6.00e-01,1.28e+00,
544,-6.40e-01,1.12e+00,
545,-7.20e-01,1.28e+00,
546,-6.80e-01,1.28e+00,
547,-5.60e-01,1.12e+00,
548,-6.40e-01,1.12e+00,
549,-5.60e-01,1.28e+00,
550,-6.00e-01,1.20e+00,
551,-5.20e-01,1.28e+00,
552,-6.00e-01,1.28e+00,
553,-4.80e-01,1.20e+00,
554,-4.80e-01,1.28e+00,
555,-5.60e-01,1.20e+00,
556,-5.60e-01,1.28e+00,
557,-4.40e-01,1.20e+00,
558,-5.20e-01,1.20e+00,
559,-4.00e-01,1.28e+00,
560,-4.80e-01,1.28e+00,
561,-4.00e-01,1.20e+00,
562,-4.40e-01,1.28e+00,
563,-3.60e-01,1.20e+00,
564,-4.40e-01,1.20e+00,
565,-3.20e-01,1.36e+00,
566,-4.00e-01,1.36e+00,
567,-2.80e-01,1.20e+00,
568,-2.80e-01,1.36e+00,
569,-3.60e-01,1.20e+00,
570,-3.60e-01,1.36e+00,
571,-2.40e-01,1.20e+00,
572,-3.20e-01,1.36e+00,
573,-2.00e-01,1.20e+00,
574,-2.80e-01,1.36e+00,
575,-1.60e-01,1.28e+00,
576,-1.60e-01,1.36e+00,
577,-2.40e-01,1.28e+00,
578,-2.00e-01,1.28e+00,
579,-1.20e-01,1.36e+00,
580,-1.60e-01,1.36e+00,
581,-8.00e-02,1.28e+00,
582,-1.60e-01,1.36e+00,
583,-4.00e-02,1.28e+00,
584,-1.20e-01,1.28e+00,
585,4.00e-02,1.36e+00,
586,-8.00e-02,1.36e+00,
587,8.00e-02,1.28e+00,
588,0.00e+00,1.36e+00,
589,8.00e-02,1.28e+00,
590,4.00e-02,1.36e+00,
591,1.20e-01,1.28e+00,
592,4.00e-02,1.36e+00,
593,1.60e-01,1.28e+00,
594,8.00e-02,1.36e+00,
595,2.00e-01,1.28e+00,
596,2.00e-01,1.36e+00,
597,1.20e-01,1.28e+00,
598,1.60e-01,1.36e+00,
599,2.40e-01,1.28e+00,
600,1.60e-01,1.36e+00,
601,2.80e-01,1.28e+00,
602,2.00e-01,1.36e+00,
603,3.20e-01,1.28e+00,
604,2.40e-01,1.36e+00,
605,3.60e-01,1.28e+00,
606,2.80e-01,1.36e+00,
607,3.60e-01,1.28e+00,
608,3.20e-01,1.36e+00,
609,4.00e-01,1.28e+00,
610,3.20e-01,1.36e+00,
611,4.40e-01,1.28e+00,
612,3.60e-01,1.36e+00,
613,4.80e-01,1.28e+00,
614,4.00e-01,1.36e+00,
615,5.20e-01,1.28e+00,
616,4.40e-01,1.36e+00,
617,5.20e-01,1.28e+00,
618,4.40e-01,1.36e+00,
619,5.60e-01,1.28e+00,
620,4.80e-01,1.36e+00,
621,6.00e-01,1.28e+00,
622,5.20e-01,1.36e+00,
623,6.40e-01,1.28e+00,
624,6.40e-01,1.36e+00,
625,5.60e-01,1.28e+00,
626,6.00e-01,1.36e+00,
627,7.20e-01,1.28e+00,
628,6.40e-01,1.36e+00,
629,7.60e-01,1.28e+00,
630,6.80e-01,1.28e+00,
631,8.00e-01,1.36e+00,
632,7.20e-01,1.36e+00,
633,8.40e-01,1.20e+00,
634,8.40e-01,1.28e+00,
635,7.20e-01,1.20e+00,
636,7.20e-01,1.28e+00,
637,8.00e-01,1.12e+00,
638,7.20e-01,1.20e+00,
639,8.00e-01,9.60e-01,
640,7.20e-01,1.12e+00,
641,8.00e-01,5.60e-01,
642,7.20e-01,6.40e-01,
643,8.00e-01,-1.28e+00,
644,8.00e-01,-1.20e+00,
645,7.20e-01,-5.84e+00,
646,7.60e-01,-5.84e+00,
647,6.80e-01,-7.52e+00,
648,6.80e-01,-7.36e+00,
649,7.60e-01,-7.68e+00,
650,7.60e-01,-7.44e+00,
651,6.80e-01,-7.68e+00,
652,7.60e-01,-7.68e+00,
653,6.40e-01,-7.44e+00,
654,6.40e-01,-7.44e+00,
655,7.20e-01,-7.68e+00,
656,7.20e-01,-7.60e+00,
657,6.00e-01,-7.68e+00,
658,6.80e-01,-7.68e+00,
659,5.60e-01,-7.28e+00,
660,6.80e-01,-7.36e+00,
661,5.20e-01,-5.68e+00,
662,6.00e-01,-5.76e+00,
663,5.20e-01,-4.16e+00,
664,6.00e-01,-4.16e+00,
665,4.80e-01,-3.36e+00,
666,4.80e-01,-3.44e+00,
667,5.60e-01,-2.88e+00,
668,5.60e-01,-2.96e+00,
669,4.40e-01,-2.56e+00,
670,4.40e-01,-2.64e+00,
671,5.20e-01,-2.32e+00,
672,5.20e-01,-2.40e+00,
673,4.00e-01,-2.08e+00,
674,4.00e-01,-2.16e+00,
675,4.80e-01,-1.84e+00,
676,4.80e-01,-1.92e+00,
677,3.60e-01,-1.60e+00,
678,3.60e-01,-1.76e+00,
679,4.40e-01,-1.52e+00,
680,4.40e-01,-1.60e+00,
681,3.20e-01,-1.36e+00,
682,4.00e-01,-1.44e+00,
683,3.20e-01,-1.20e+00,
684,3.60e-01,-1.28e+00,
685,2.80e-01,-1.12e+00,
686,3.60e-01,-1.20e+00,
687,2.80e-01,-1.04e+00,
688,3.20e-01,-1.12e+00,
689,2.40e-01,-8.80e-01,
690,3.20e-01,-9.60e-01,
691,2.40e-01,-8.00e-01,
692,2.80e-01,-8.80e-01,
693,2.00e-01,-6.40e-01,
694,2.80e-01,-7.20e-01,
695,1.60e-01,-5.60e-01,
696,2.40e-01,-6.40e-01,
697,1.60e-01,-4.80e-01,
698,2.40e-01,-5.60e-01,
699,1.20e-01,-4.00e-01,
700,1.20e-01,-5.60e-01,
701,2.00e-01,-4.00e-01,
702,2.00e-01,-4.80e-01,
703,8.00e-02,-3.20e-01,
704,8.00e-02,-4.00e-01,
705,1.60e-01,-2.40e-01,
706,1.60e-01,-3.20e-01,
707,4.00e-02,-1.60e-01,
708,4.00e-02,-2.40e-01,
709,1.20e-01,-8.00e-02,
710,1.20e-01,-1.60e-01,
711,0.00e+00,-8.00e-02,
712,0.00e+00,-1.60e-01,
713,8.00e-02,0.00e+00,
714,8.00e-02,-8.00e-02,
715,-8.00e-02,8.00e-02,
716,-4.00e-02,8.00e-02,
717,4.00e-02,-8.00e-02,
718,0.00e+00,0.00e+00,
719,-1.20e-01,1.60e-01,
720,-4.00e-02,8.00e-02,
721,-1.20e-01,1.60e-01,
722,-4.00e-02,8.00e-02,
723,-1.60e-01,2.40e-01,
724,-8.00e-02,1.60e-01,
725,-1.60e-01,2.40e-01,
726,-8.00e-02,3.20e-01,
727,-2.00e-01,1.60e-01,
728,-1.20e-01,3.20e-01,
729,-2.00e-01,2.40e-01,
730,-1.20e-01,3.20e-01,
731,-2.40e-01,4.80e-01,
732,-1.60e-01,4.00e-01,
733,-2.40e-01,4.80e-01,
734,-1.60e-01,4.00e-01,
735,-2.80e-01,5.60e-01,
736,-2.00e-01,4.80e-01,
737,-2.80e-01,5.60e-01,
738,-2.00e-01,4.80e-01,
739,-2.80e-01,6.40e-01,
740,-2.40e-01,4.80e-01,
741,-3.20e-01,6.40e-01,
742,-2.40e-01,5.60e-01,
743,-3.20e-01,6.40e-01,
744,-2.40e-01,5.60e-01,
745,-3.60e-01,7.20e-01,
746,-2.80e-01,5.60e-01,
747,-3.60e-01,7.20e-01,
748,-2.80e-01,6.40e-01,
749,-4.00e-01,7.20e-01,
750,-3.20e-01,6.40e-01,
751,-4.00e-01,8.00e-01,
752,-3.20e-01,7.20e-01,
753,-4.40e-01,8.00e-01,
754,-4.40e-01,7.20e-01,
755,-3.60e-01,8.00e-01,
756,-3.60e-01,7.20e-01,
757,-4.80e-01,8.80e-01,
758,-4.80e-01,8.80e-01,
759,-4.00e-01,7.20e-01,
760,-4.00e-01,8.00e-01,
761,-5.20e-01,8.80e-01,
762,-4.40e-01,8.00e-01,
763,-5.20e-01,9.60e-01,
764,-4.40e-01,9.60e-01,
765,-5.20e-01,8.00e-01,
766,-4.80e-01,8.80e-01,
767,-5.60e-01,9.60e-01,
768,-5.60e-01,9.60e-01,
769,-4.80e-01,8.80e-01,
770,-4.80e-01,8.80e-01,
771,-6.00e-01,1.04e+00,
772,-6.00e-01,9.60e-01,
773,-5.20e-01,1.04e+00,
774,-5.20e-01,1.04e+00,
775,-6.40e-01,9.60e-01,
776,-6.40e-01,1.04e+00,
777,-5.60e-01,9.60e-01,
778,-6.40e-01,1.04e+00,
779,-5.60e-01,9.60e-01,
780,-5.60e-01,9.60e-01,
781,-7.20e-01,1.12e+00,
782,-6.80e-01,1.12e+00,
783,-6.00e-01,1.04e+00,
784,-6.00e-01,1.04e+00,
785,-7.20e-01,1.12e+00,
786,-6.80e-01,1.12e+00,
787,-7.60e-01,1.04e+00,
788,-7.60e-01,1.12e+00,
789,-6.80e-01,1.04e+00,
790,-6.80e-01,1.04e+00,
791,-8.00e-01,1.20e+00,
792,-8.00e-01,1.04e+00,
793,-7.20e-01,1.20e+00,
794,-7.60e-01,1.20e+00,
795,-6.80e-01,1.04e+00,
796,-6.80e-01,1.04e+00,
797,-7.60e-01,1.20e+00,
798,-7.60e-01,1.12e+00,
799,-6.80e-01,1.20e+00,
800,-7.20e-01,1.20e+00,
801,-6.00e-01,1.12e+00,
802,-6.00e-01,1.20e+00,
803,-7.20e-01,1.12e+00,
804,-6.80e-01,1.20e+00,
805,-5.60e-01,1.12e+00,
806,-6.40e-01,1.20e+00,
807,-5.60e-01,1.12e+00,
808,-6.00e-01,1.20e+00,
809,-5.20e-01,1.12e+00,
810,-6.00e-01,1.12e+00,
811,-4.80e-01,1.28e+00,
812,-5.60e-01,1.28e+00,
813,-4.80e-01,1.20e+00,
814,-5.60e-01,1.28e+00,
815,-4.40e-01,1.20e+00,
816,-5.20e-01,1.28e+00,
817,-4.00e-01,1.20e+00,
818,-4.80e-01,1.28e+00,
819,-4.00e-01,1.20e+00,
820,-4.40e-01,1.28e+00,
821,-3.60e-01,1.20e+00,
822,-4.40e-01,1.28e+00,
823,-3.20e-01,1.20e+00,
824,-4.00e-01,1.28e+00,
825,-2.80e-01,1.20e+00,
826,-3.60e-01,1.20e+00,
827,-2.40e-01,1.36e+00,
828,-3.20e-01,1.20e+00,
829,-2.40e-01,1.36e+00,
830,-3.20e-01,1.36e+00,
831,-2.00e-01,1.28e+00,
832,-2.80e-01,1.36e+00,
833,-1.60e-01,1.28e+00,
834,-2.40e-01,1.36e+00,
835,-1.20e-01,1.28e+00,
836,-1.20e-01,1.36e+00,
837,-2.00e-01,1.28e+00,
838,-1.60e-01,1.36e+00,
839,-8.00e-02,1.28e+00,
840,-1.20e-01,1.36e+00,
841,-4.00e-02,1.28e+00,
