APL/APL2-3/data/E3_day1_data/实验2/（二）-3-（b）/新建文件4.csv

X,CH1,CH3,Start,Increment,
Sequence,Volt,Volt,-1.200000e-01,2.000000e-04
0,-8.80e-01,-1.92e+00,
1,-1.00e+00,-1.76e+00,
2,-8.80e-01,-2.00e+00,
3,-1.00e+00,-1.84e+00,
4,-9.60e-01,-1.92e+00,
5,-8.80e-01,-1.76e+00,
6,-8.80e-01,-1.76e+00,
7,-9.60e-01,-1.92e+00,
8,-8.80e-01,-1.92e+00,
9,-9.60e-01,-1.76e+00,
10,-8.80e-01,-1.92e+00,
11,-9.60e-01,-1.76e+00,
12,-9.60e-01,-2.00e+00,
13,-8.80e-01,-1.76e+00,
14,-8.80e-01,-1.76e+00,
15,-9.60e-01,-1.92e+00,
16,-9.60e-01,-1.92e+00,
17,-8.80e-01,-1.76e+00,
18,-8.80e-01,-1.76e+00,
19,-9.60e-01,-1.92e+00,
20,-8.80e-01,-1.76e+00,
21,-9.60e-01,-1.92e+00,
22,-9.60e-01,-1.92e+00,
23,-8.80e-01,-1.76e+00,
24,-9.60e-01,-1.92e+00,
25,-8.40e-01,-1.76e+00,
26,-9.60e-01,-1.84e+00,
27,-8.80e-01,-1.76e+00,
28,-9.60e-01,-1.84e+00,
29,-8.40e-01,-1.76e+00,
30,-8.40e-01,-1.84e+00,
31,-9.60e-01,-1.76e+00,
32,-8.40e-01,-1.84e+00,
33,-9.20e-01,-1.76e+00,
34,-8.40e-01,-1.84e+00,
35,-9.20e-01,-1.76e+00,
36,-8.40e-01,-1.84e+00,
37,-9.20e-01,-1.76e+00,
38,-8.40e-01,-1.84e+00,
39,-9.20e-01,-1.76e+00,
40,-8.40e-01,-1.84e+00,
41,-9.20e-01,-1.68e+00,
42,-8.40e-01,-1.84e+00,
43,-9.20e-01,-1.68e+00,
44,-8.40e-01,-1.84e+00,
45,-9.20e-01,-1.68e+00,
46,-8.40e-01,-1.84e+00,
47,-9.20e-01,-1.76e+00,
48,-8.40e-01,-1.84e+00,
49,-9.20e-01,-1.68e+00,
50,-9.20e-01,-1.84e+00,
51,-8.40e-01,-1.76e+00,
52,-9.20e-01,-1.84e+00,
53,-8.40e-01,-1.76e+00,
54,-9.20e-01,-1.84e+00,
55,-8.00e-01,-1.68e+00,
56,-9.20e-01,-1.84e+00,
57,-8.00e-01,-1.76e+00,
58,-8.00e-01,-1.84e+00,
59,-8.80e-01,-1.68e+00,
60,-8.00e-01,-1.68e+00,
61,-8.80e-01,-1.84e+00,
62,-8.00e-01,-1.84e+00,
63,-9.20e-01,-1.68e+00,
64,-8.00e-01,-1.84e+00,
65,-8.80e-01,-1.68e+00,
66,-8.00e-01,-1.84e+00,
67,-9.20e-01,-1.68e+00,
68,-8.00e-01,-1.84e+00,
69,-8.80e-01,-1.68e+00,
70,-8.00e-01,-1.68e+00,
71,-8.80e-01,-1.76e+00,
72,-8.00e-01,-1.76e+00,
73,-8.80e-01,-1.68e+00,
74,-8.00e-01,-1.76e+00,
75,-8.80e-01,-1.68e+00,
76,-8.00e-01,-1.76e+00,
77,-8.80e-01,-1.68e+00,
78,-8.00e-01,-1.76e+00,
79,-8.80e-01,-1.68e+00,
80,-8.00e-01,-1.76e+00,
81,-8.80e-01,-1.68e+00,
82,-8.80e-01,-1.76e+00,
83,3.20e-01,-1.68e+00,
84,2.80e-01,-1.76e+00,
85,6.00e-01,-1.68e+00,
86,5.20e-01,-1.76e+00,
87,6.80e-01,-1.52e+00,
88,6.40e-01,-1.60e+00,
89,8.00e-01,-1.36e+00,
90,7.20e-01,-1.52e+00,
91,8.40e-01,-1.20e+00,
92,7.60e-01,-1.28e+00,
93,9.20e-01,-1.04e+00,
94,8.40e-01,-1.20e+00,
95,9.60e-01,-8.80e-01,
96,8.80e-01,-1.04e+00,
97,1.00e+00,-7.20e-01,
98,9.20e-01,-8.00e-01,
99,1.04e+00,-5.60e-01,
100,1.04e+00,-6.40e-01,
101,9.60e-01,-4.00e-01,
102,9.60e-01,-4.80e-01,
103,1.08e+00,-2.40e-01,
104,1.08e+00,-4.00e-01,
105,1.00e+00,-1.60e-01,
106,1.00e+00,-2.40e-01,
107,1.12e+00,-8.00e-02,
108,1.04e+00,-1.60e-01,
109,1.12e+00,0.00e+00,
110,1.12e+00,-8.00e-02,
111,1.04e+00,1.60e-01,
112,1.04e+00,0.00e+00,
113,1.12e+00,2.40e-01,
114,1.04e+00,1.60e-01,
115,1.16e+00,3.20e-01,
116,1.04e+00,2.40e-01,
117,1.16e+00,4.00e-01,
118,1.08e+00,3.20e-01,
119,1.16e+00,5.60e-01,
120,1.16e+00,4.00e-01,
121,1.08e+00,6.40e-01,
122,1.16e+00,6.40e-01,
123,1.08e+00,4.80e-01,
124,1.08e+00,5.60e-01,
125,1.16e+00,7.20e-01,
126,1.16e+00,6.40e-01,
127,1.08e+00,8.00e-01,
128,1.16e+00,7.20e-01,
129,1.08e+00,8.80e-01,
130,1.16e+00,7.20e-01,
131,1.08e+00,8.80e-01,
132,1.16e+00,8.00e-01,
133,1.08e+00,9.60e-01,
134,1.16e+00,8.80e-01,
135,1.08e+00,1.04e+00,
136,1.16e+00,8.80e-01,
137,1.08e+00,1.04e+00,
138,1.16e+00,9.60e-01,
139,1.08e+00,1.12e+00,
140,1.16e+00,1.12e+00,
141,1.08e+00,1.04e+00,
142,1.16e+00,1.04e+00,
143,1.08e+00,1.20e+00,
144,1.16e+00,1.04e+00,
145,1.08e+00,1.20e+00,
146,1.16e+00,1.12e+00,
147,1.04e+00,1.28e+00,
148,1.16e+00,1.28e+00,
149,1.04e+00,1.12e+00,
150,1.12e+00,1.20e+00,
151,1.04e+00,1.36e+00,
152,1.04e+00,1.36e+00,
153,1.12e+00,1.20e+00,
154,1.04e+00,1.36e+00,
155,1.12e+00,1.28e+00,
156,1.04e+00,1.28e+00,
157,1.12e+00,1.44e+00,
158,1.04e+00,1.36e+00,
159,1.12e+00,1.44e+00,
160,1.12e+00,1.36e+00,
161,1.04e+00,1.60e+00,
162,1.04e+00,1.44e+00,
163,1.12e+00,1.60e+00,
164,1.04e+00,1.52e+00,
165,1.12e+00,1.60e+00,
166,1.12e+00,1.52e+00,
167,1.04e+00,1.68e+00,
168,1.12e+00,1.68e+00,
169,1.04e+00,1.52e+00,
170,1.12e+00,1.60e+00,
171,1.04e+00,1.68e+00,
172,1.12e+00,1.60e+00,
173,1.04e+00,1.68e+00,
174,1.12e+00,1.60e+00,
175,1.04e+00,1.76e+00,
176,1.12e+00,1.76e+00,
177,1.00e+00,1.60e+00,
178,1.12e+00,1.60e+00,
179,1.00e+00,1.76e+00,
180,1.00e+00,1.68e+00,
181,1.12e+00,1.84e+00,
182,1.08e+00,1.84e+00,
183,1.00e+00,1.68e+00,
184,1.00e+00,1.68e+00,
185,1.08e+00,1.84e+00,
186,1.00e+00,1.84e+00,
187,1.08e+00,1.76e+00,
188,1.00e+00,1.76e+00,
189,1.08e+00,1.84e+00,
190,1.08e+00,1.76e+00,
191,1.00e+00,1.84e+00,
192,1.08e+00,1.76e+00,
193,1.00e+00,1.92e+00,
194,1.08e+00,1.76e+00,
195,1.00e+00,1.92e+00,
196,1.08e+00,1.84e+00,
197,1.00e+00,1.92e+00,
198,1.08e+00,1.84e+00,
199,1.00e+00,1.92e+00,
200,1.08e+00,1.84e+00,
201,9.60e-01,2.00e+00,
202,9.60e-01,2.00e+00,
203,1.08e+00,1.84e+00,
204,9.60e-01,1.84e+00,
205,1.04e+00,2.00e+00,
206,1.04e+00,1.84e+00,
207,9.60e-01,2.00e+00,
208,9.60e-01,2.00e+00,
209,1.04e+00,1.92e+00,
210,9.60e-01,1.92e+00,
211,1.04e+00,2.00e+00,
212,9.60e-01,1.92e+00,
213,1.04e+00,2.00e+00,
214,9.60e-01,2.08e+00,
215,1.04e+00,1.92e+00,
216,9.60e-01,1.92e+00,
217,1.04e+00,2.08e+00,
218,1.04e+00,2.08e+00,
219,9.60e-01,1.92e+00,
220,1.04e+00,2.00e+00,
221,9.60e-01,2.08e+00,
222,1.00e+00,2.08e+00,
223,1.04e+00,2.00e+00,
224,1.04e+00,2.00e+00,
225,9.60e-01,2.08e+00,
226,1.04e+00,2.00e+00,
227,9.20e-01,2.08e+00,
228,1.04e+00,2.08e+00,
229,9.20e-01,2.00e+00,
230,9.20e-01,2.00e+00,
231,1.04e+00,2.08e+00,
232,9.20e-01,2.16e+00,
233,1.00e+00,2.00e+00,
234,9.20e-01,2.00e+00,
235,1.00e+00,2.16e+00,
236,9.20e-01,2.00e+00,
237,1.00e+00,2.16e+00,
238,9.20e-01,2.16e+00,
239,1.00e+00,2.00e+00,
240,1.00e+00,2.16e+00,
241,9.20e-01,2.00e+00,
242,9.20e-01,2.16e+00,
243,1.00e+00,2.00e+00,
244,1.00e+00,2.00e+00,
245,9.20e-01,2.16e+00,
246,1.00e+00,2.16e+00,
247,9.20e-01,2.00e+00,
248,1.00e+00,2.16e+00,
249,9.20e-01,2.00e+00,
250,9.20e-01,2.16e+00,
251,1.00e+00,2.00e+00,
252,1.00e+00,2.16e+00,
253,9.20e-01,2.00e+00,
254,9.20e-01,2.00e+00,
255,1.00e+00,2.16e+00,
256,1.00e+00,2.08e+00,
257,8.80e-01,2.16e+00,
258,8.80e-01,2.16e+00,
259,1.00e+00,2.00e+00,
260,9.60e-01,2.16e+00,
261,8.80e-01,2.00e+00,
262,8.80e-01,2.16e+00,
263,1.00e+00,2.08e+00,
264,8.80e-01,2.08e+00,
265,9.60e-01,2.16e+00,
266,8.80e-01,2.16e+00,
267,9.60e-01,2.08e+00,
268,8.80e-01,2.16e+00,
269,9.60e-01,2.08e+00,
270,8.80e-01,2.08e+00,
271,9.60e-01,2.16e+00,
272,8.80e-01,2.08e+00,
273,9.60e-01,2.16e+00,
274,8.80e-01,2.08e+00,
275,9.60e-01,2.16e+00,
276,9.60e-01,2.16e+00,
277,8.80e-01,2.08e+00,
278,8.80e-01,2.16e+00,
279,9.60e-01,2.08e+00,
280,8.80e-01,2.16e+00,
281,9.60e-01,2.08e+00,
282,8.80e-01,2.08e+00,
283,9.60e-01,2.16e+00,
284,8.80e-01,2.08e+00,
285,9.60e-01,2.16e+00,
286,9.60e-01,2.16e+00,
287,8.40e-01,2.08e+00,
288,9.60e-01,2.08e+00,
289,8.40e-01,2.24e+00,
290,9.20e-01,2.24e+00,
291,8.40e-01,2.08e+00,
292,8.40e-01,2.08e+00,
293,9.20e-01,2.24e+00,
294,9.20e-01,2.24e+00,
295,8.40e-01,2.16e+00,
296,8.40e-01,2.24e+00,
297,9.20e-01,2.08e+00,
298,8.40e-01,2.08e+00,
299,9.20e-01,2.24e+00,
300,9.20e-01,2.24e+00,
301,8.40e-01,2.08e+00,
302,9.20e-01,2.08e+00,
303,8.40e-01,2.24e+00,
304,8.40e-01,2.24e+00,
305,9.20e-01,2.08e+00,
306,8.40e-01,2.24e+00,
307,9.20e-01,2.16e+00,
308,9.20e-01,2.24e+00,
309,8.40e-01,2.16e+00,
310,8.40e-01,2.24e+00,
311,9.20e-01,2.08e+00,
312,9.20e-01,2.24e+00,
313,8.40e-01,2.08e+00,
314,9.20e-01,2.08e+00,
315,8.40e-01,2.24e+00,
316,9.20e-01,2.24e+00,
317,8.00e-01,2.08e+00,
318,9.20e-01,2.24e+00,
319,8.00e-01,2.16e+00,
320,8.80e-01,2.24e+00,
321,8.00e-01,2.08e+00,
322,8.80e-01,2.08e+00,
323,8.00e-01,2.24e+00,
324,8.00e-01,2.08e+00,
325,8.80e-01,2.24e+00,
326,8.00e-01,2.08e+00,
327,8.80e-01,2.24e+00,
328,8.00e-01,2.24e+00,
329,8.80e-01,2.16e+00,
330,8.00e-01,2.24e+00,
331,8.80e-01,2.08e+00,
332,8.00e-01,2.24e+00,
333,8.80e-01,2.16e+00,
334,8.00e-01,2.24e+00,
335,8.80e-01,2.16e+00,
336,8.80e-01,2.24e+00,
337,8.00e-01,2.08e+00,
338,8.80e-01,2.24e+00,
339,8.00e-01,2.08e+00,
340,8.80e-01,2.24e+00,
341,-2.00e-01,2.08e+00,
342,-2.00e-01,2.24e+00,
343,-5.60e-01,2.08e+00,
344,-4.80e-01,2.24e+00,
345,-6.00e-01,2.08e+00,
346,-5.20e-01,2.16e+00,
347,-7.20e-01,2.00e+00,
348,-6.40e-01,2.16e+00,
349,-7.60e-01,1.92e+00,
350,-6.80e-01,2.00e+00,
351,-8.40e-01,1.76e+00,
352,-7.60e-01,1.92e+00,
353,-8.80e-01,1.68e+00,
354,-8.00e-01,1.76e+00,
355,-9.20e-01,1.52e+00,
356,-8.40e-01,1.60e+00,
357,-9.60e-01,1.20e+00,
358,-8.80e-01,1.36e+00,
359,-1.00e+00,1.04e+00,
360,-9.60e-01,1.12e+00,
361,-1.04e+00,8.00e-01,
362,-9.60e-01,8.80e-01,
363,-1.08e+00,5.60e-01,
364,-1.00e+00,6.40e-01,
365,-1.12e+00,3.20e-01,
366,-1.12e+00,3.20e-01,
367,-1.04e+00,0.00e+00,
368,-1.04e+00,8.00e-02,
369,-1.16e+00,-2.40e-01,
370,-1.16e+00,-1.60e-01,
371,-1.08e+00,-4.80e-01,
372,-1.08e+00,-3.20e-01,
373,-1.20e+00,-6.40e-01,
374,-1.08e+00,-5.60e-01,
375,-1.20e+00,-8.00e-01,
376,-1.20e+00,-8.00e-01,
377,-1.08e+00,-1.04e+00,
378,-1.20e+00,-9.60e-01,
379,-1.12e+00,-1.12e+00,
380,-1.20e+00,-1.04e+00,
381,-1.12e+00,-1.28e+00,
382,-1.20e+00,-1.20e+00,
383,-1.12e+00,-1.36e+00,
384,-1.20e+00,-1.28e+00,
385,-1.12e+00,-1.44e+00,
386,-1.20e+00,-1.36e+00,
387,-1.08e+00,-1.52e+00,
388,-1.20e+00,-1.36e+00,
389,-1.08e+00,-1.52e+00,
390,-1.20e+00,-1.44e+00,
391,-1.08e+00,-1.60e+00,
392,-1.08e+00,-1.52e+00,
393,-1.20e+00,-1.68e+00,
394,-1.08e+00,-1.52e+00,
395,-1.16e+00,-1.68e+00,
396,-1.08e+00,-1.68e+00,
397,-1.16e+00,-1.52e+00,
398,-1.16e+00,-1.68e+00,
399,-1.08e+00,-1.60e+00,
400,-1.08e+00,-1.60e+00,
401,-1.16e+00,-1.76e+00,
402,-1.08e+00,-1.76e+00,
403,-1.16e+00,-1.60e+00,
404,-1.16e+00,-1.76e+00,
405,-1.08e+00,-1.68e+00,
406,-1.16e+00,-1.76e+00,
407,-1.04e+00,-1.68e+00,
408,-1.16e+00,-1.76e+00,
409,-1.04e+00,-1.68e+00,
410,-1.16e+00,-1.68e+00,
411,-1.04e+00,-1.84e+00,
412,-1.16e+00,-1.84e+00,
413,-1.04e+00,-1.68e+00,
414,-1.04e+00,-1.68e+00,
415,-1.16e+00,-1.84e+00,
416,-1.04e+00,-1.84e+00,
417,-1.16e+00,-1.76e+00,
418,-1.04e+00,-1.84e+00,
419,-1.12e+00,-1.76e+00,
420,-1.12e+00,-1.84e+00,
421,-1.04e+00,-1.76e+00,
422,-1.12e+00,-1.92e+00,
423,-1.04e+00,-1.76e+00,
424,-1.12e+00,-1.76e+00,
425,-1.04e+00,-1.92e+00,
426,-1.12e+00,-1.76e+00,
427,-1.04e+00,-1.92e+00,
428,-1.12e+00,-1.92e+00,
429,-1.08e+00,-1.76e+00,
430,-1.12e+00,-1.92e+00,
431,-1.00e+00,-1.76e+00,
432,-1.12e+00,-1.92e+00,
433,-1.00e+00,-1.76e+00,
434,-1.12e+00,-1.92e+00,
435,-1.00e+00,-1.76e+00,
436,-1.00e+00,-1.92e+00,
437,-1.12e+00,-1.76e+00,
438,-1.00e+00,-1.92e+00,
439,-1.12e+00,-1.92e+00,
440,-1.08e+00,-1.92e+00,
441,-1.00e+00,-1.92e+00,
442,-1.08e+00,-1.92e+00,
443,-1.00e+00,-2.00e+00,
444,-1.08e+00,-1.92e+00,
445,-1.00e+00,-1.92e+00,
446,-1.08e+00,-1.92e+00,
447,-1.00e+00,-1.92e+00,
448,-1.08e+00,-1.92e+00,
449,-1.00e+00,-1.92e+00,
450,-1.08e+00,-1.92e+00,
451,-1.00e+00,-1.92e+00,
452,-1.08e+00,-1.92e+00,
453,-1.00e+00,-2.00e+00,
454,-1.00e+00,-1.92e+00,
455,-1.08e+00,-1.92e+00,
456,-1.08e+00,-1.92e+00,
457,-9.60e-01,-1.92e+00,
458,-9.60e-01,-1.92e+00,
459,-1.08e+00,-1.92e+00,
460,-9.60e-01,-1.92e+00,
461,-1.08e+00,-1.92e+00,
462,-9.60e-01,-1.92e+00,
463,-1.08e+00,-2.08e+00,
464,-9.60e-01,-1.92e+00,
465,-1.08e+00,-1.92e+00,
466,-9.60e-01,-1.92e+00,
467,-1.04e+00,-1.92e+00,
468,-1.04e+00,-1.92e+00,
469,-9.60e-01,-2.08e+00,
470,-9.60e-01,-2.00e+00,
471,-1.04e+00,-1.92e+00,
472,-1.04e+00,-1.92e+00,
473,-9.60e-01,-2.08e+00,
474,-9.60e-01,-1.92e+00,
475,-1.04e+00,-2.08e+00,
476,-1.04e+00,-2.00e+00,
477,-9.60e-01,-1.92e+00,
478,-1.04e+00,-1.92e+00,
479,-9.60e-01,-1.92e+00,
480,-9.60e-01,-1.92e+00,
481,-1.04e+00,-1.92e+00,
482,-1.04e+00,-1.92e+00,
483,-9.20e-01,-1.92e+00,
484,-9.20e-01,-1.92e+00,
485,-1.04e+00,-2.00e+00,
486,-9.20e-01,-1.92e+00,
487,-1.04e+00,-1.92e+00,
488,-9.20e-01,-1.92e+00,
489,-1.04e+00,-2.08e+00,
490,-9.20e-01,-1.92e+00,
491,-1.00e+00,-2.08e+00,
492,-9.20e-01,-1.92e+00,
493,-1.00e+00,-1.92e+00,
494,-9.20e-01,-1.92e+00,
495,-1.00e+00,-2.00e+00,
496,-9.20e-01,-1.92e+00,
497,-1.00e+00,-1.92e+00,
498,-1.00e+00,-1.92e+00,
499,-9.20e-01,-1.92e+00,
500,-9.20e-01,-1.92e+00,
501,-1.00e+00,-1.92e+00,
502,-9.20e-01,-1.92e+00,
503,-1.00e+00,-1.92e+00,
504,-1.00e+00,-1.92e+00,
505,-9.20e-01,-2.00e+00,
506,-1.00e+00,-1.92e+00,
507,-9.20e-01,-1.92e+00,
508,-1.00e+00,-1.92e+00,
509,-9.20e-01,-1.92e+00,
510,-1.00e+00,-1.92e+00,
511,-9.20e-01,-1.92e+00,
512,-1.00e+00,-1.92e+00,
513,-9.20e-01,-1.92e+00,
514,-1.00e+00,-1.84e+00,
515,-8.80e-01,-2.00e+00,
516,-8.80e-01,-1.92e+00,
517,-1.00e+00,-1.92e+00,
518,-8.80e-01,-1.92e+00,
519,-1.00e+00,-1.92e+00,
520,-8.80e-01,-1.92e+00,
521,-9.60e-01,-1.76e+00,
522,-8.80e-01,-1.92e+00,
523,-9.60e-01,-1.76e+00,
524,-8.80e-01,-1.92e+00,
525,-9.60e-01,-1.76e+00,
526,-9.60e-01,-1.76e+00,
527,-8.80e-01,-1.92e+00,
528,-8.80e-01,-1.92e+00,
529,-9.60e-01,-1.76e+00,
530,-8.80e-01,-1.92e+00,
531,-9.60e-01,-1.76e+00,
532,-9.60e-01,-1.92e+00,
533,-8.80e-01,-1.76e+00,
534,-9.60e-01,-1.92e+00,
535,-8.80e-01,-1.76e+00,
536,-9.60e-01,-1.92e+00,
537,-8.80e-01,-1.76e+00,
538,-8.80e-01,-1.92e+00,
539,-9.60e-01,-1.76e+00,
540,-9.60e-01,-1.92e+00,
541,-8.80e-01,-1.76e+00,
542,-9.60e-01,-1.92e+00,
543,-8.40e-01,-1.76e+00,
544,-9.60e-01,-1.92e+00,
545,-8.40e-01,-1.76e+00,
546,-8.40e-01,-1.84e+00,
547,-9.60e-01,-1.76e+00,
548,-8.40e-01,-1.84e+00,
549,-9.60e-01,-1.76e+00,
550,-8.40e-01,-1.84e+00,
551,-9.20e-01,-1.76e+00,
552,-8.40e-01,-1.84e+00,
553,-9.20e-01,-1.76e+00,
554,-8.40e-01,-1.84e+00,
555,-9.20e-01,-1.76e+00,
556,-8.40e-01,-1.84e+00,
557,-9.20e-01,-1.76e+00,
558,-8.40e-01,-1.84e+00,
559,-9.20e-01,-1.76e+00,
560,-8.40e-01,-1.84e+00,
561,-9.20e-01,-1.68e+00,
562,-8.40e-01,-1.68e+00,
563,-9.20e-01,-1.84e+00,
564,-8.40e-01,-1.84e+00,
565,-9.20e-01,-1.68e+00,
566,-8.40e-01,-1.84e+00,
567,-9.20e-01,-1.76e+00,
568,-9.20e-01,-1.84e+00,
569,-8.40e-01,-1.68e+00,
570,-9.20e-01,-1.84e+00,
571,-8.40e-01,-1.68e+00,
572,-9.20e-01,-1.68e+00,
573,-8.00e-01,-1.84e+00,
574,-9.20e-01,-1.84e+00,
575,-8.00e-01,-1.68e+00,
576,-9.20e-01,-1.84e+00,
577,-8.00e-01,-1.68e+00,
578,-8.00e-01,-1.68e+00,
579,-9.20e-01,-1.84e+00,
580,-8.00e-01,-1.76e+00,
581,-8.80e-01,-1.68e+00,
582,-8.00e-01,-1.76e+00,
583,-8.80e-01,-1.68e+00,
584,-8.00e-01,-1.68e+00,
585,-8.80e-01,-1.76e+00,
586,-8.00e-01,-1.76e+00,
587,-8.80e-01,-1.68e+00,
588,-8.00e-01,-1.76e+00,
589,-8.80e-01,-1.68e+00,
590,-8.00e-01,-1.76e+00,
591,-8.80e-01,-1.68e+00,
592,-8.80e-01,-1.76e+00,
593,-8.00e-01,-1.68e+00,
594,-8.00e-01,-1.76e+00,
595,-8.80e-01,-1.68e+00,
596,-8.80e-01,-1.76e+00,
597,-8.00e-01,-1.68e+00,
598,-8.80e-01,-1.76e+00,
599,2.00e-01,-1.68e+00,
600,2.00e-01,-1.76e+00,
601,5.60e-01,-1.60e+00,
602,5.20e-01,-1.68e+00,
603,6.80e-01,-1.52e+00,
604,6.40e-01,-1.60e+00,
605,8.00e-01,-1.36e+00,
606,7.20e-01,-1.44e+00,
607,8.40e-01,-1.20e+00,
608,7.60e-01,-1.28e+00,
609,9.20e-01,-1.04e+00,
610,8.40e-01,-1.12e+00,
611,9.60e-01,-8.80e-01,
612,8.80e-01,-9.60e-01,
613,1.00e+00,-7.20e-01,
614,9.20e-01,-8.00e-01,
615,1.04e+00,-5.60e-01,
616,1.04e+00,-6.40e-01,
617,9.60e-01,-4.00e-01,
618,9.60e-01,-4.80e-01,
619,1.08e+00,-2.40e-01,
620,1.08e+00,-4.00e-01,
621,1.00e+00,-1.60e-01,
622,1.00e+00,-2.40e-01,
623,1.12e+00,-8.00e-02,
624,1.12e+00,-1.60e-01,
625,1.04e+00,8.00e-02,
626,1.12e+00,0.00e+00,
627,1.04e+00,1.60e-01,
628,1.12e+00,0.00e+00,
629,1.04e+00,2.40e-01,
630,1.04e+00,1.60e-01,
631,1.12e+00,3.20e-01,
632,1.04e+00,2.40e-01,
633,1.16e+00,4.80e-01,
634,1.16e+00,4.00e-01,
635,1.04e+00,5.60e-01,
636,1.16e+00,4.80e-01,
637,1.12e+00,5.60e-01,
638,1.16e+00,4.80e-01,
639,1.08e+00,6.40e-01,
640,1.16e+00,5.60e-01,
641,1.08e+00,7.20e-01,
642,1.16e+00,6.40e-01,
643,1.08e+00,8.00e-01,
644,1.08e+00,7.20e-01,
645,1.16e+00,8.80e-01,
646,1.16e+00,8.80e-01,
647,1.08e+00,7.20e-01,
648,1.08e+00,8.00e-01,
649,1.16e+00,9.60e-01,
650,1.16e+00,8.80e-01,
651,1.08e+00,1.04e+00,
652,1.16e+00,1.04e+00,
653,1.08e+00,8.80e-01,
654,1.16e+00,9.60e-01,
655,1.08e+00,1.12e+00,
656,1.16e+00,9.60e-01,
657,1.08e+00,1.12e+00,
658,1.16e+00,1.04e+00,
659,1.08e+00,1.20e+00,
660,1.08e+00,1.20e+00,
661,1.16e+00,1.12e+00,
662,1.16e+00,1.12e+00,
663,1.08e+00,1.28e+00,
664,1.16e+00,1.28e+00,
665,1.04e+00,1.20e+00,
666,1.04e+00,1.20e+00,
667,1.16e+00,1.36e+00,
668,1.12e+00,1.36e+00,
669,1.04e+00,1.28e+00,
670,1.04e+00,1.36e+00,
671,1.12e+00,1.28e+00,
672,1.12e+00,1.28e+00,
673,1.04e+00,1.44e+00,
674,1.04e+00,1.44e+00,
675,1.12e+00,1.36e+00,
676,1.04e+00,1.44e+00,
677,1.12e+00,1.36e+00,
678,1.04e+00,1.60e+00,
679,1.12e+00,1.36e+00,
680,1.04e+00,1.44e+00,
681,1.12e+00,1.60e+00,
682,1.12e+00,1.52e+00,
683,1.04e+00,1.60e+00,
684,1.04e+00,1.52e+00,
685,1.12e+00,1.68e+00,
686,1.04e+00,1.60e+00,
687,1.12e+00,1.68e+00,
688,1.12e+00,1.60e+00,
689,1.04e+00,1.68e+00,
690,1.12e+00,1.76e+00,
691,1.00e+00,1.60e+00,
692,1.12e+00,1.76e+00,
693,1.00e+00,1.68e+00,
694,1.00e+00,1.76e+00,
695,1.12e+00,1.68e+00,
696,1.00e+00,1.68e+00,
697,1.08e+00,1.84e+00,
698,1.08e+00,1.84e+00,
699,1.00e+00,1.68e+00,
700,1.00e+00,1.68e+00,
701,1.08e+00,1.84e+00,
702,1.00e+00,1.76e+00,
703,1.08e+00,1.84e+00,
704,1.00e+00,1.76e+00,
705,1.08e+00,1.84e+00,
706,1.00e+00,1.84e+00,
707,1.08e+00,1.76e+00,
708,1.00e+00,1.76e+00,
709,1.08e+00,1.92e+00,
710,1.08e+00,1.76e+00,
711,1.00e+00,1.92e+00,
712,1.08e+00,1.92e+00,
713,1.00e+00,1.84e+00,
714,1.08e+00,1.84e+00,
715,1.00e+00,1.92e+00,
716,1.08e+00,1.84e+00,
717,1.00e+00,2.00e+00,
718,9.60e-01,1.84e+00,
719,1.08e+00,2.00e+00,
720,9.60e-01,1.84e+00,
721,1.08e+00,2.00e+00,
722,9.60e-01,2.00e+00,
723,1.08e+00,1.84e+00,
724,1.04e+00,2.00e+00,
725,9.60e-01,1.92e+00,
726,9.60e-01,2.00e+00,
727,1.04e+00,1.92e+00,
728,1.04e+00,2.00e+00,
729,9.60e-01,1.92e+00,
730,1.04e+00,1.92e+00,
731,9.60e-01,2.00e+00,
732,9.60e-01,1.92e+00,
733,1.04e+00,2.08e+00,
734,9.60e-01,1.92e+00,
735,1.04e+00,2.08e+00,
736,9.60e-01,2.08e+00,
737,1.04e+00,1.92e+00,
738,1.04e+00,1.92e+00,
739,9.60e-01,2.08e+00,
740,1.04e+00,2.08e+00,
741,9.60e-01,1.92e+00,
742,1.04e+00,2.08e+00,
743,9.60e-01,2.00e+00,
744,1.04e+00,2.00e+00,
745,9.20e-01,2.08e+00,
746,9.20e-01,2.08e+00,
747,1.04e+00,2.00e+00,
748,9.20e-01,2.08e+00,
749,1.00e+00,2.00e+00,
750,9.60e-01,2.08e+00,
751,9.20e-01,2.00e+00,
752,9.20e-01,2.00e+00,
753,1.00e+00,2.16e+00,
754,9.20e-01,2.16e+00,
755,1.00e+00,2.00e+00,
756,9.20e-01,2.16e+00,
757,1.00e+00,2.00e+00,
758,9.20e-01,2.16e+00,
759,1.00e+00,2.00e+00,
760,1.00e+00,2.00e+00,
761,9.20e-01,2.16e+00,
762,9.20e-01,2.00e+00,
763,1.00e+00,2.16e+00,
764,9.20e-01,2.08e+00,
765,1.00e+00,2.16e+00,
766,1.00e+00,2.16e+00,
767,9.20e-01,2.08e+00,
768,1.00e+00,2.16e+00,
769,9.20e-01,2.00e+00,
770,1.00e+00,2.16e+00,
771,9.20e-01,2.00e+00,
772,1.00e+00,2.16e+00,
773,9.20e-01,2.00e+00,
774,1.00e+00,2.16e+00,
775,8.80e-01,2.08e+00,
776,1.00e+00,2.16e+00,
777,8.80e-01,2.08e+00,
778,8.80e-01,2.08e+00,
779,9.60e-01,2.16e+00,
780,8.80e-01,2.08e+00,
781,9.60e-01,2.24e+00,
782,8.80e-01,2.08e+00,
783,9.60e-01,2.24e+00,
784,8.80e-01,2.24e+00,
785,9.60e-01,2.08e+00,
786,8.80e-01,2.24e+00,
787,9.60e-01,2.08e+00,
788,8.80e-01,2.24e+00,
789,9.60e-01,2.08e+00,
790,9.60e-01,2.24e+00,
791,8.80e-01,2.08e+00,
792,9.60e-01,2.24e+00,
793,8.80e-01,2.08e+00,
794,9.60e-01,2.24e+00,
795,8.80e-01,2.08e+00,
796,9.60e-01,2.24e+00,
797,8.80e-01,2.08e+00,
798,9.60e-01,2.24e+00,
799,8.80e-01,2.08e+00,
800,9.60e-01,2.24e+00,
801,8.80e-01,2.08e+00,
802,9.60e-01,2.24e+00,
803,8.80e-01,2.16e+00,
804,9.60e-01,2.24e+00,
805,8.40e-01,2.08e+00,
806,9.20e-01,2.16e+00,
807,8.40e-01,2.24e+00,
808,8.40e-01,2.24e+00,
809,9.20e-01,2.08e+00,
810,9.20e-01,2.24e+00,
811,8.40e-01,2.08e+00,
812,9.20e-01,2.08e+00,
813,8.40e-01,2.24e+00,
814,9.20e-01,2.08e+00,
815,8.40e-01,2.24e+00,
816,8.40e-01,2.24e+00,
817,9.20e-01,2.08e+00,
818,8.40e-01,2.24e+00,
819,9.20e-01,2.08e+00,
820,8.40e-01,2.24e+00,
821,9.20e-01,2.08e+00,
822,8.40e-01,2.24e+00,
823,9.20e-01,2.08e+00,
824,9.20e-01,2.24e+00,
825,8.40e-01,2.08e+00,
826,9.20e-01,2.24e+00,
827,8.40e-01,2.08e+00,
828,9.20e-01,2.08e+00,
829,8.40e-01,2.24e+00,
830,9.20e-01,2.24e+00,
831,8.40e-01,2.08e+00,
832,9.20e-01,2.24e+00,
833,8.00e-01,2.08e+00,
834,9.20e-01,2.24e+00,
835,8.00e-01,2.08e+00,
836,9.20e-01,2.24e+00,
837,8.00e-01,2.08e+00,
838,8.80e-01,2.24e+00,
839,8.00e-01,2.08e+00,
